^Z:\DEVEL\REALITY\LIBS\PYTHON\W64\PC\WINSOUND.C
Z:\DEVEL\REALITY\LIBS\PYTHON\W64\PCBUILD\X64-TEMP-RELEASE\WINSOUND\WINSOUND.OBJ
Z:\DEVEL\REALITY\LIBS\PYTHON\W64\PCBUILD\X64-TEMP-RELEASE\WINSOUND\VC100.PDB
Z:\DEVEL\REALITY\LIBS\PYTHON\W64\PCBUILD\X64-TEMP-RELEASE\WINSOUND\VCWINDOWS7.1SDK.PDB
