^Z:\devel\Reality\libs\python\w64\PCbuild\winsound.vcxproj
Z:\devel\Reality\libs\python\w64\PCbuild\amd64\winsound.lib
Z:\devel\Reality\libs\python\w64\PCbuild\amd64\winsound.lib
Z:\devel\Reality\libs\python\w64\PCbuild\amd64\winsound.exp
Z:\devel\Reality\libs\python\w64\PCbuild\amd64\winsound.exp
