﻿Build started 2/22/2014 7:53:52 AM.
     1>Project "Z:\devel\Reality\libs\python\w32\PCbuild\_sqlite3.vcxproj" on node 4 (build target(s)).
     1>InitializeBuildStatus:
         Creating "Z:\devel\Reality\libs\python\w32\PCbuild\Win32-temp-Release\_sqlite3\_sqlite3.unsuccessfulbuild" because "AlwaysCreate" was specified.
       ClCompile:
         C:\Program Files (x86)\Microsoft Visual Studio 10.0\VC\bin\CL.exe /c /I"..\..\sqlite-3.6.21" /I..\Include /I..\PC /Zi /nologo /W3 /WX- /O2 /Ob1 /Oi /Oy- /GL /D "MODULE_NAME=\"sqlite3\"" /D Py_BUILD_CORE_MODULE /D NDEBUG /D _WIN32 /D _WINDLL /GF /Gm- /MD /GS /Gy /fp:precise /Zc:wchar_t /Zc:forScope /Fo"Z:\devel\Reality\libs\python\w32\PCbuild\Win32-temp-Release\_sqlite3\\" /Fd"Z:\devel\Reality\libs\python\w32\PCbuild\Win32-temp-Release\_sqlite3\vc100.pdb" /Gd /TC /analyze- /errorReport:prompt ..\Modules\_sqlite\cache.c ..\Modules\_sqlite\connection.c ..\Modules\_sqlite\cursor.c ..\Modules\_sqlite\microprotocols.c ..\Modules\_sqlite\module.c ..\Modules\_sqlite\prepare_protocol.c ..\Modules\_sqlite\row.c ..\Modules\_sqlite\statement.c ..\Modules\_sqlite\util.c
         cache.c
         connection.c
     1>z:\devel\reality\libs\python\w32\modules\_sqlite\connection.h(33): fatal error C1083: Cannot open include file: 'sqlite3.h': No such file or directory
         cursor.c
     1>z:\devel\reality\libs\python\w32\modules\_sqlite\connection.h(33): fatal error C1083: Cannot open include file: 'sqlite3.h': No such file or directory
         microprotocols.c
     1>z:\devel\reality\libs\python\w32\modules\_sqlite\connection.h(33): fatal error C1083: Cannot open include file: 'sqlite3.h': No such file or directory
         module.c
     1>z:\devel\reality\libs\python\w32\modules\_sqlite\connection.h(33): fatal error C1083: Cannot open include file: 'sqlite3.h': No such file or directory
         prepare_protocol.c
         row.c
     1>z:\devel\reality\libs\python\w32\modules\_sqlite\connection.h(33): fatal error C1083: Cannot open include file: 'sqlite3.h': No such file or directory
         statement.c
     1>z:\devel\reality\libs\python\w32\modules\_sqlite\connection.h(33): fatal error C1083: Cannot open include file: 'sqlite3.h': No such file or directory
         util.c
     1>z:\devel\reality\libs\python\w32\modules\_sqlite\connection.h(33): fatal error C1083: Cannot open include file: 'sqlite3.h': No such file or directory
     1>Done Building Project "Z:\devel\Reality\libs\python\w32\PCbuild\_sqlite3.vcxproj" (build target(s)) -- FAILED.

Build FAILED.

Time Elapsed 00:00:15.25
