^Z:\DEVEL\REALITY\LIBS\PYTHON\W64\PCBUILD\AMD64\PYTHON27.LIB|Z:\DEVEL\REALITY\LIBS\PYTHON\W64\PCBUILD\X64-TEMP-RELEASE\PYTHONW\PYTHON_EXE.RES|Z:\DEVEL\REALITY\LIBS\PYTHON\W64\PCBUILD\X64-TEMP-RELEASE\PYTHONW\WINMAIN.OBJ
/ERRORREPORT:PROMPT /OUT:"Z:\devel\Reality\libs\python\w64\PCbuild\\amd64\pythonw.exe" /INCREMENTAL:NO /NOLOGO /LIBPATH:Z:\devel\Reality\libs\python\w64\PCbuild\\amd64\ kernel32.lib user32.lib gdi32.lib winspool.lib comdlg32.lib advapi32.lib shell32.lib ole32.lib oleaut32.lib uuid.lib odbc32.lib odbccp32.lib /MANIFEST /ManifestFile:"Z:\devel\Reality\libs\python\w64\PCbuild\x64-temp-Release\pythonw\pythonw.exe.intermediate.manifest" /MANIFESTUAC:"level='asInvoker' uiAccess='false'" /DEBUG /PDB:"Z:\devel\Reality\libs\python\w64\PCbuild\\amd64\pythonw.pdb" /SUBSYSTEM:WINDOWS /STACK:"2000000" /TLBID:1 /BASE:"0x1d000000" /DYNAMICBASE:NO /IMPLIB:"Z:\devel\Reality\libs\python\w64\PCbuild\\amd64\pythonw.lib" /MACHINE:X64 "Z:\devel\Reality\libs\python\w64\PCbuild\x64-temp-Release\pythonw\python_exe.res"
"Z:\devel\Reality\libs\python\w64\PCbuild\x64-temp-Release\pythonw\WinMain.obj"
Z:\devel\Reality\libs\python\w64\PCbuild\amd64\python27.lib
