^Z:\DEVEL\REALITY\LIBS\PYTHON\W64\PCBUILD\X64-TEMP-RELEASE\PYTHONW\PYTHONW.EXE.INTERMEDIATE.MANIFEST
C:\WINDOWS\REGISTRATION\R00000000001E.CLB
C:\WINDOWS\MICROSOFT.NET\FRAMEWORK\V2.0.50727\MSCORWKS.DLL
C:\WINDOWS\MICROSOFT.NET\FRAMEWORK\V4.0.30319\CLR.DLL
C:\PROGRAM FILES\MICROSOFT SDKS\WINDOWS\V7.1\BIN\MT.EXE.CONFIG
Z:\DEVEL\REALITY\LIBS\PYTHON\W64\PCBUILD\AMD64\PYTHONW.EXE
