"RE2DS","R2DSZ503F06794D6CTF28390DCDC7179F06D0","y"
"RE2DS","R2DSZDB79B816FD00R86D3C8F45C8542AE140","y"
"RE2DS","R2DSZ4DFECAFA6D4AA9AEPB6B0059E1992C98","y"
"RE2DS","R2DSZC8F6DBA49A5FI2E0P7CA08DF67FC1741","y"
"RE2DS","R2DSZ641225C98DFDL165D9940D7E92CE7DE1","y"
"RE2DS","R2DSZ37968A8B6776A391P970F55244E3BDB6","y"
"RE2DS","R2DSZB1044803CA23L13A322B627B2407B2C5","y"
"RE2DS","R2DSZ66E3E730E84DRB1AA58A49C57A9ADF4D","y"
"RE2DS","R2DSZ8B65076FECB1L525A65C6E5B16A2482E","y"
"RE2DS","R2DSZ7A373786181CIDD2D8793ACA1A9DAD23","y"
"RE2DS","R2DSZE923520DC76AR0E3PB0583EA7C600F56","y"
"RE2DS","R2DSZ61CDCCC6E508EFEADABD0A1307BEF378","y"
"RE2DS","R2DSZ4531E87DE701T709D5C6EB05795805F4","y"
"RE2DS","R2DSZ5F8DA6EAEC57T335P63FCE9EA65441F6","y"
"RE2DS","R2DSZAA535DDD370CR37APE4E70B64D3C1144","y"
"RE2DS","R2DSZEA3414109FE9EE4ED7163F4B57B05168","y"
"RE2DS","R2DSZC6A5EA6BEDAFT5ECD94B68E453F88A0C","y"
"RE2DS","R2DSZ874130C8ADF9EC1BPA88F863AA5AF2FB","y"
"RE2DS","R2DSZB50C28317BA7I6A4D8C75177F974D892","y"
"RE2DS","R2DSZ131F42443A7DT764P277D2B488B435A3","y"
"RE2DS","R2DSZA512C17B46FAI0633B3FA0BF803CC4AD","y"
"RE2DS","R2DSZ1882F31F91BBE8AFP0C27D1FBF311740","y"
"RE2DS","R2DSZED7860F49B7ET16ED9275D7710018637","y"
"RE2DS","R2DSZB3F5E32DB9AAIF6AA2A650518744A7B9","y"
"RE2DS","R2DSZEE036B56404EE142D58F99B9670D20ED","y"
"RE2DS","R2DSZ903BB8F1C344L6A6P038E18E7CCE13ED","y"
"RE2DS","R2DSZ17D4F3E33A82AA52P155AD235D7F6A4A","y"
"RE2DS","R2DSZB0228A7A5A0DL63CAB7FA978A3FB6A7F","y"
"RE2DS","R2DSZC7F06252CAEDTD46PCC40AEEC50EA58F","y"
"RE2DS","R2DSZDEFE01BD33E2IEFDP7E4989AA8B5A39E","y"
"RE2DS","R2DSZC9435F6A6826E75EA1B0E439F59245AF","y"
"RE2DS","R2DSZF303BF24CDE2LE9BA98BAA1E6A3788A9","y"
"RE2DS","R2DSZ5E2C869CF59BA140P7C4E5F83DD0D408","y"
"RE2DS","R2DSZCA45E5983B57A917A90188DB778D07C9","y"
"RE2DS","R2DSZ56893112EF57I8143E9671CDE9EDA0FF","y"
"RE2DS","R2DSZ27F05062A470R667P78C89274A91EED2","y"
"RE2DS","R2DSZ08C760EA0753R3BEDFDCD95B75C9FCB1","y"
"RE2DS","R2DSZ68DF8BB5A487R4AE30EB1C4E747E0692","y"
"RE2DS","R2DSZF3933F0A969EI533A52C962F629729A9","y"
"RE2DS","R2DSZ1C0D7654B17FT179P303A67DE42E4AAA","y"
"RE2DS","R2DSZ85393EE614D8LB2C38C6B22C99C5C771","y"
"RE2DS","R2DSZC34FDECB013FLB8DD5832CCFD20F6DCA","y"
"RE2DS","R2DSZCFBB6B61BB04R02EA4357E7A78013743","y"
"RE2DS","R2DSZ9D4916CD2329AA10AE331C1638F3ACC8","y"
"RE2DS","R2DSZ3922375ABEAFL39BAB281775298882CB","y"
"RE2DS","R2DSZ6C625C968A84RA1FA9BAB2A33FB06D71","y"
"RE2DS","R2DSZ3A67B91C1A77RF79A31A5A55924EE5F3","y"
"RE2DS","R2DSZ67BAEEC07079A617PE866D3CE4DD3690","y"
"RE2DS","R2DSZ4A8DAA2CF1A7R754P17BD3775C3CA8B7","y"
"RE2DS","R2DSZC07490ED7A4CIA593D70E888D2DA2642","y"
"RE2DS","R2DSZ629AB857269AL4ABDFEE622C0723000A","y"
"RE2DS","R2DSZ40E3FCB82895R255PE3C0DEECC76FA5C","y"
"RE2DS","R2DSZE3E73AD6EB2AIFE5PE10DC4734DC6F55","y"
"RE2DS","R2DSZ1EB51B14CE75L82FAB625581A451FE94","y"
"RE2DS","R2DSZ9CCE0EEF729AA3D1PEE1C141B56101D8","y"
"RE2DS","R2DSZ8EDDB081701EL4A2DD4D070F1F3E0D6C","y"
"RE2DS","R2DSZ05F6A1754D0ARDA6PC6C69F7647D3BCA","y"
"RE2DS","R2DSZ6C3B7D16DE39R4C9D6DB2382993E6954","y"
"RE2DS","R2DSZ34C1387C4BBDR05DPCD29738DBC55838","y"
"RE2DS","R2DSZD61663282975R8853381CDD5787AB188","y"
"RE2DS","R2DSZCA5999040E7CT6A9P56787B615CF55C0","y"
"RE2DS","R2DSZ06DEBDC96474E7DE3500DA83773607AC","y"
"RE2DS","R2DSZ53DF885392C1A712P255633E94241A10","y"
"RE2DS","R2DSZ488EEE12E99FR554PB8F4B116794612B","y"
"RE2DS","R2DSZ51C63274EC3AL652A29FCDC1DBC1A50D","y"
"RE2DS","R2DSZ6A9A09690641A07AD8A8900214D2DAD9","y"
"RE2DS","R2DSZA775095DFAAEAF453D1824E4F32B7EEF","y"
"RE2DS","R2DSZBF11E47C3A1BA3463D18BBB18463B27E","y"
"RE2DS","R2DSZCD40CB06CBE1R2AED1DCD1FD971B4E9D","y"
"RE2DS","R2DSZ928DFC1C31FBR2CEDB23961AAFCF939A","y"
"RE2DS","R2DSZ6EDF99C311FBADB8P5A12208BC7019F1","y"
"RE2DS","R2DSZA5A4F6AD3988TB92PC414EF544139BFB","y"
"RE2DS","R2DSZB6373A9901BAA944P91ACAF3C6BF3621","y"
"RE2DS","R2DSZ01B2549F18CAE256A23C68EAEE57731A","y"
"RE2DS","R2DSZE047EDC27606EAC8A61F25A7697218A2","y"
"RE2DS","R2DSZ7CBBA9855396E2BFADA89EC43ED7A6A0","y"
"RE2DS","R2DSZB6C79CA2F17FT8C731C693D91CA6352C","y"
"RE2DS","R2DSZB7C1201F31B8IFABPE537437F3EBC206","y"
"RE2DS","R2DSZE760C53145D1E7763614F8F6FA9B64FA","y"
"RE2DS","R2DSZ529A19BA9C88TC68PFC45C9F16DDA7D4","y"
"RE2DS","R2DSZ59B00D7FB6F7T2E7DC8465B54E1D71A0","y"
"RE2DS","R2DSZ851601377823A616AF78650FB8D599DF","y"
"RE2DS","R2DSZ63A7FB7AE839E08FPC2F669854035842","y"
"RE2DS","R2DSZDB29B664CFFCE57DDA30CD04C3FB8E23","y"
"RE2DS","R2DSZ213D037F675BL8DE3372EEA2AF9DE399","y"
"RE2DS","R2DSZB2539AA85875T32CP44AFE254FFFD749","y"
"RE2DS","R2DSZC3D795DFE236I377D0092CFF24632B81","y"
"RE2DS","R2DSZ6D1C385EF1D2EA64P249D84689EB18E6","y"
"RE2DS","R2DSZDDC6138A681BLF53P3A7046E02D4A3E6","y"
"RE2DS","R2DSZC844CD9A4943E5A9A9799F545DECBD90","y"
"RE2DS","R2DSZ13C469F048C2A0D4D701C132935B33B9","y"
"RE2DS","R2DSZ0927A869E7C1I3A2P5B064C0A6ACC816","y"
"RE2DS","R2DSZ9674F15E23A5I13A39A3CC2327245A51","y"
"RE2DS","R2DSZ0E969939408FLF2APCCDB82865692C48","y"
"RE2DS","R2DSZ9A0524779B22RA743F074096472991B9","y"
"RE2DS","R2DSZ1BB3BE324E6AEF70P67CB079B5BC9581","y"
"RE2DS","R2DSZ90BF6D2F8C8BR45EA3D0E910E6D3D7E0","y"
"RE2DS","R2DSZ3B1BDA8A29FBA3C8330F3BC9F47B05FA","y"
"RE2DS","R2DSZF678206F0FFBRFC9D14392BEDE7FCDE6","y"
"RE2DS","R2DSZB89C34E09A2AI6D3P40003FC372D0169","y"
"RE2DS","R2DSZF153040B998FE835D355CE36CBF21B58","y"
"RE2DS","R2DSZ154BA6088213ED513FDFB9B5B41831E7","y"
"RE2DS","R2DSZ07C5DB01C759L2643F759E93A3105B2B","y"
"RE2DS","R2DSZ2E68A6E2C487R75FA2ABFBE4AC3D8D17","y"
"RE2DS","R2DSZ0AE27BB62B22T750P923FAAD15E633E3","y"
"RE2DS","R2DSZFA0F03D93990R674DBF57B7FBF103BB5","y"
"RE2DS","R2DSZE69C298D8541E38FA04A0E786A4F8338","y"
"RE2DS","R2DSZ28A534DB658AT893D60F908EEA48AF55","y"
"RE2DS","R2DSZ1849AF23DDA5A4DFA114ACFDDDEF8417","y"
"RE2DS","R2DSZ8231D717353AE275P50940D7A4EDE5E1","y"
"RE2DS","R2DSZCBC07573021FA228PE100864C42DA019","y"
"RE2DS","R2DSZ566183055BBEA6F7A370EFC5D396C5C8","y"
"RE2DS","R2DSZ6BB7C9EB1D8CI471P3661CCE753F9F07","y"
"RE2DS","R2DSZ37CF450C28F2EFDDA0AFE5AE4E1603D2","y"
"RE2DS","R2DSZ8379EE8B29ABTFD23D40320D9B5A5B99","y"
"RE2DS","R2DSZE165DA2A0273IB3EDAAA1080F99E4632","y"
"RE2DS","R2DSZC9F46979BEC7I6C2P8E74FEF5225444F","y"
"RE2DS","R2DSZ2F4CA7A498DBR95C34E8AC085E6D2B8E","y"
"RE2DS","R2DSZ528B69D2B242LA00AC10CBE52AA7A8C6","y"
"RE2DS","R2DSZDE29BB665F1DLCA2A9663839322F514B","y"
"RE2DS","R2DSZ74E95899021CRE4B3FAAE75B29A8BCD8","y"
"RE2DS","R2DSZ216A4359DD8FTB28AE830B98D931B48E","y"
"RE2DS","R2DSZEBF429806669ED20P5225CA344E18136","y"
"RE2DS","R2DSZF4BAF645B907T614P5153F2D1A526BFF","y"
"RE2DS","R2DSZ6BDCED982F97L45D33F2C95071A10C29","y"
"RE2DS","R2DSZC9206E053E75E7BEAFBBB6BC7FD0120E","y"
"RE2DS","R2DSZBCEE8087354AE89F3AF93ECDCAF84539","y"
"RE2DS","R2DSZ5FAFF641329FIF0F3D174C28E566A590","y"
"RE2DS","R2DSZ64AE1F9A1213I7053894789A214E0162","y"
"RE2DS","R2DSZ005EF9159372ED11D0C3E6CB5CAC27F2","y"
"RE2DS","R2DSZ9E4B21F68249T1143E5C502E39FC68D6","y"
"RE2DS","R2DSZA3656062DB44A4A9P94EE9B8BE4F2B07","y"
"RE2DS","R2DSZE367A318281BI69CP8F859E0BA78F7EA","y"
"RE2DS","R2DSZ2ACE7D5E3C92AC2CA8DBF1D8D38F8922","y"
"RE2DS","R2DSZ17000621D61CE31CA6875C9B06D17779","y"
"RE2DS","R2DSZDF6FDFA73913E33F3A291342F83A05F1","y"
"RE2DS","R2DSZ98FBD2B898B4E1BFP559C052C1E020C5","y"
"RE2DS","R2DSZ47FD9955B82AA88F32F7B1FA6587798A","y"
"RE2DS","R2DSZ173E8AF7549CA4CEA283DA1E1177D517","y"
"RE2DS","R2DSZ04F01B1C8D68TD92PCB30B8E6EE01EA5","y"
"RE2DS","R2DSZEBB0DD4F7746T9FADDA8BBACDEFE49D2","y"
"RE2DS","R2DSZ41FC4F66A4F7TBA9P60DD212E0DB4633","y"
"RE2DS","R2DSZ07947A6D1F5AA8EEAB21D10A90D96825","y"
"RE2DS","R2DSZ0368A102474CAF26P7BA510FD5E4E81A","y"
"RE2DS","R2DSZ115B5013F6A1T6CFPAA922EB021A8382","y"
"RE2DS","R2DSZ1A23C1B03224T5A7D6EA87973FA13C15","y"
"RE2DS","R2DSZ6744BCDF12B6R3D7DC7E05AAF3EA230D","y"
"RE2DS","R2DSZ306A746735D1T6EF3BFA55EDB9B5F2A8","y"
"RE2DS","R2DSZ9B735248785AE9A8D34BC57680A23074","y"
"RE2DS","R2DSZ790ACC245B4DT2653D4E3A3FEAB5E27E","y"
"RE2DS","R2DSZ6D1252D3E127T360PBD611D594E525B6","y"
"RE2DS","R2DSZ260CE9BCBEAEA2C13AEDC46AADF36108","y"
"RE2DS","R2DSZ74F2475C0C9CE3ECD495FFA81D82685D","y"
"RE2DS","R2DSZ6391E3843443A74E3A817F69239D3BCF","y"
"RE2DS","R2DSZ23F9B9B7D08CIBD1AE5E7306A8323158","y"
"RE2DS","R2DSZ749194111CB0AB70327CEAD22410B879","y"
"RE2DS","R2DSZ2FADE5E2C82BAB5A305AF4EAF71E0562","y"
"RE2DS","R2DSZ1B0AAAB3EE8EI12FA26D26EE4360BBC3","y"
"RE2DS","R2DSZ99FC0A315B9AI0B8D9F027DF8DAF3E34","y"
"RE2DS","R2DSZ4522B80B19CBR3A6P5153DA24A347D23","y"
"RE2DS","R2DSZ1ECDF2122601TF7FA60EB7A39BA0BADB","y"
"RE2DS","R2DSZ8794A12FA8C2E67DA69B52356BD8161E","y"
"RE2DS","R2DSZ94AC71D7D05AE04BDA61C3E006EB15A9","y"
"RE2DS","R2DSZ850D8636A29CL1BFD764F2FE382F6CF3","y"
"RE2DS","R2DSZC4510A785439R75C32BE398CBB604846","y"
"RE2DS","R2DSZF8890369752CL1EDD10A9A2409B70BCC","y"
"RE2DS","R2DSZ90062290837AL53DDF75A3AC605483F1","y"
"RE2DS","R2DSZ03FD7645B2CERA92A640FA6CD365F6C8","y"
"RE2DS","R2DSZ6BB765E85780EA77D5680240963F63F4","y"
"RE2DS","R2DSZF73FF78EBAA1E817A2C1350FE6C81119","y"
"RE2DS","R2DSZ5574EDF7B2E1I4D53B9ECBCB6352FF7A","y"
"RE2DS","R2DSZ95D1E9D743C5I9F6A0232AB14CB570E0","y"
"RE2DS","R2DSZ2CFE901F9C53R082A075A476A0505316","y"
"RE2DS","R2DSZD251EEA99B83R29F3FCB84D25CFE98C5","y"
"RE2DS","R2DSZF5F0C922F594AE4DD30FD4348774F6B3","y"
"RE2DS","R2DSZ01DDB0196D2EL866A5C1E360C9E7FCB5","y"
"RE2DS","R2DSZFB9BDB2017E2I6EDD477809005A8E6AF","y"
"RE2DS","R2DSZA97163046156TDA63DD26972BED97072","y"
"RE2DS","R2DSZDC5AE6426066L24EA9D592823DBC6797","y"
"RE2DS","R2DSZCFEF470D4E19T09C38594EDBCCA3265D","y"
"RE2DS","R2DSZA0D08ECC6EE5A8C7DA8BDA63DB211F58","y"
"RE2DS","R2DSZB3FCFE04574FR311DBB5CD5B272665A8","y"
"RE2DS","R2DSZ28EC4E67C2A9I94E388F00B03B4B14D8","y"
"RE2DS","R2DSZ03D4C4E42657E1EFD623DEC69FCBC141","y"
"RE2DS","R2DSZAF5A6C2A0535L7933DB4B193FE2C24BD","y"
"RE2DS","R2DSZ657014ECA0D7E797DB6F5D0A029F9262","y"
"RE2DS","R2DSZD0F0786500E0LB41D6023ABBB019ADC0","y"
"RE2DS","R2DSZ94E8EA3570C5E612A8F48F0CB923AB2A","y"
"RE2DS","R2DSZ05766B7C30EEI35D3C7E4626EBB16E6E","y"
"RE2DS","R2DSZFDF80993D1A4I342PAC0828298BE2679","y"
"RE2DS","R2DSZ6C51D3A0CB3CI5263EB77A41C86CC94F","y"
"RE2DS","R2DSZE6B0FC02D483LA5532708A3676281BC6","y"
"RE2DS","R2DSZ4FDFE7041C6BA0073FFB394824DB0505","y"
"RE2DS","R2DSZ7E230DC72BA1L605A5FF59B2FE20C0CF","y"
"RE2DS","R2DSZ11D1E54BC825R21BP9D4E79A84941C93","y"
"RE2DS","R2DSZ54721795239DLBB8P7FB28886137C85B","y"
"RE2DS","R2DSZ4DBEAC2467D0I41EA42DCF5D743CBC89","y"
"RE2DS","R2DSZ6E1CFAE650DDT3E6PFA997210379390D","y"
"RE2DS","R2DSZ7145F647F7E1IDA53194BD2FE75E49BD","y"
"RE2DS","R2DSZ070DF59CA856L438A8AB6A7616C7CB84","y"
"RE2DS","R2DSZ2A3DBCFD3587A8C2A24BA049ED17735D","y"
"RE2DS","R2DSZDBA61D40786BA5B6P8079CADA1B37932","y"
"RE2DS","R2DSZ5FB8CA690428ED1BDC3159FE33638686","y"
"RE2DS","R2DSZ9E294880DB10LF6AD19E1388A464E528","y"
"RE2DS","R2DSZB2E0DD4CF446A28CAC02DFF1C8015A94","y"
"RE2DS","R2DSZ7944523616D4IE6936290593EE2CD28A","y"
"RE2DS","R2DSZE651D3B98649LFA0A822206D8840890A","y"
"RE2DS","R2DSZF3CE351C11C4L2ABP670A8BE895E5D10","y"
"RE2DS","R2DSZF82817940F01L97431E7A60D2CB65D47","y"
"RE2DS","R2DSZ1BEF9775CCECL2AA33604172EFD37E7B","y"
"RE2DS","R2DSZDFFC2E95F122R3A0AA03A5A966625ACF","y"
"RE2DS","R2DSZEDC021666D72T21ED0C4055F61A169C6","y"
"RE2DS","R2DSZ38E58CC14217TE8AAC50A19A230F4456","y"
"RE2DS","R2DSZ7BE64ACA7E70L24AP64358384DDF0583","y"
"RE2DS","R2DSZ8DBEFDDF1303E2BED43D50D5E730D6A1","y"
"RE2DS","R2DSZ86C05ADE346DEB833458272E3C6A93D4","y"
"RE2DS","R2DSZ8570504DA8DDAB98D0FD954483C27667","y"
"RE2DS","R2DSZ0BCD6723D9E6LD4EDC43F3704050BD49","y"
"RE2DS","R2DSZEFFE24A2A967LFC736715DEC0277FFBD","y"
"RE2DS","R2DSZ2544833D3C6BT315AC416002BBE4A501","y"
"RE2DS","R2DSZ7EBBA92249EEL4E1329856AE966D8E00","y"
"RE2DS","R2DSZ1661564AF7CBL04D3E938FA9B19CD1E6","y"
"RE2DS","R2DSZ3403423A32E8IE60DB45B0827C50B20E","y"
"RE2DS","R2DSZ897039195DBEI7A1AEBEBB69F5500817","y"
"RE2DS","R2DSZ029F8A1AA1E5L0933445FA7DE641DBC0","y"
"RE2DS","R2DSZD0D51D6CD3C5E4B6AAF29C75022D89E6","y"
"RE2DS","R2DSZC9B2ACF37F96ECF339EA21C6771EC724","y"
"RE2DS","R2DSZ691939914DF8A1133E0AF37C824EE4BA","y"
"RE2DS","R2DSZ67A60E00B5D0L12DP3E7AE092927B2BE","y"
"RE2DS","R2DSZEFD7B2A3132DRBACDE171DD2C96B6826","y"
"RE2DS","R2DSZ454B728B82FDLD2338764DB1DDE9EBB0","y"
"RE2DS","R2DSZ9305596729A4A573AA16F89B59361444","y"
"RE2DS","R2DSZD696F28A9BEFRCD7P2F2D7C7D9ACEC2C","y"
"RE2DS","R2DSZDA930A46BDE2R49DD8C8ADB3FF0E757A","y"
"RE2DS","R2DSZFA0E2EF8EFB8L832PD706871F1EB136C","y"
"RE2DS","R2DSZ1BE950CB1F3DLB0B3A2E174EEF69EC70","y"
"RE2DS","R2DSZC098281019ABEB13P25FAD4F8187F34A","y"
"RE2DS","R2DSZF9BE305D4656T86AP1232D56EE483075","y"
"RE2DS","R2DSZCCE854C137C9L701P30A3E9BA2463539","y"
"RE2DS","R2DSZ4272C034C3E8RAF3DA2E3FF054124098","y"
"RE2DS","R2DSZEB7E2624C265ACDFP611B34260E3E916","y"
"RE2DS","R2DSZE52C01F82CFAI089D9588274FA91CA38","y"
"RE2DS","R2DSZ048876FA1982T900P78CB436E7288E40","y"
"RE2DS","R2DSZ6473F2DEE07CE040AC2D9F479EAFDEFF","y"
"RE2DS","R2DSZ1DC43778864BRAD0A80968B54B9A0114","y"
"RE2DS","R2DSZ970C9AA695F1L270PD39E9117D8218D4","y"
"RE2DS","R2DSZ97376ADEC338LF76D3F011FA48266D89","y"
"RE2DS","R2DSZ151FCCDF3457R8143A160E75E609F4F8","y"
"RE2DS","R2DSZE93705D1E2A8EB413387F1BF4C54A6E8","y"
"RE2DS","R2DSZ9912B6AA9DF4IDC8AF82A1FE32BEBB69","y"
"RE2DS","R2DSZ71889093E470R7E63C01DED2DF7DC72C","y"
"RE2DS","R2DSZA23A69D1EF42LAEBAB576108356FE1D5","y"
"RE2DS","R2DSZC60CE5DB02C3R8F4P223D3F28B54013D","y"
"RE2DS","R2DSZ4738EDED72F3AFC1A8E204A37FDC63CE","y"
"RE2DS","R2DSZD8F25AC04477EF28P78EB52F73C0E26C","y"
"RE2DS","R2DSZ4DC1B6B377F8I21F307A08EF0D295909","y"
"RE2DS","R2DSZCD85B2C34B6CA44FP9049AEB74DBC6C8","y"
"RE2DS","R2DSZA0CF4FBBB1C2AFD9DB9D964F709C8161","y"
"RE2DS","R2DSZ1866064D2F37I0FFPA9DA290AFFF2FEE","y"
"RE2DS","R2DSZB647D1A22243I990A59FEBA945979888","y"
"RE2DS","R2DSZ51ECA0D4C634T89B332C3661F2433ECE","y"
"RE2DS","R2DSZ9F895B826849T1CDP794522DB1156E9C","y"
"RE2DS","R2DSZ11D7B8273E70T1A73EE4FE1F95A227EE","y"
"RE2DS","R2DSZ5255F73AC708T3A3PD4F1E7F28101244","y"
"RE2DS","R2DSZ0E1EBB1B2216RD60D9A9382F849E8569","y"
"RE2DS","R2DSZAB9AAE9E3B2DA2F1319521F219253533","y"
"RE2DS","R2DSZF6A57A68CBA3A62537064E7380B59BBC","y"
"RE2DS","R2DSZ5C6B4D8F7635I7E2D8502C124FE5A5BA","y"
"RE2DS","R2DSZ096BB2F4A349AA9CAEADE4BF41C864EA","y"
"RE2DS","R2DSZ2247A437BBF9T2B3P39DE2BE359A19D1","y"
"RE2DS","R2DSZCB2A9B6D8E7CE59D3D605D40143595BC","y"
"RE2DS","R2DSZA3A8B5882463LA45385A8BA9BC57DC14","y"
"RE2DS","R2DSZ9DF7099C5733L8BBD1BE7F0A0A0F446A","y"
"RE2DS","R2DSZA96573363E5DAEA2PCAD5525333CC06A","y"
"RE2DS","R2DSZ736835A0C017E7F4P209F9C15316EC78","y"
"RE2DS","R2DSZB673E2E6F0B6I666DB79C73122F1A5F9","y"
"RE2DS","R2DSZF963C375ACDFT398AC210ADF81B6A291","y"
"RE2DS","R2DSZ96740043507BLB8AAE1743AA7AE380C1","y"
"RE2DS","R2DSZ896CEC28C947L378P6104E805F0C02AB","y"
"RE2DS","R2DSZ887BBF31CE5BI6D237EDFF6A8564D7EA","y"
"RE2DS","R2DSZAC597E6D894AE380AE9D12D28527289B","y"
"RE2DS","R2DSZ8D01CEF92466R399D87C2CA953D8BA4E","y"
"RE2DS","R2DSZ21CFAAF94486T74DA4BEE60C6031654F","y"
"RE2DS","R2DSZ27D4665B8ED6T20F3C8A4BA3B8B8CE9E","y"
"RE2DS","R2DSZDF7186598DF8A353DFA7143AD2BA54EF","y"
"RE2DS","R2DSZB6C5C196AF96L639D326DA29234CA1DF","y"
"RE2DS","R2DSZ3CC6BEF338E4A7D3DAD3068308F62CF4","y"
"RE2DS","R2DSZF7E5472B4597AACAP94364F2316ECD11","y"
"RE2DS","R2DSZ220827CB4104E0F6DFB6EC326DC7EAB3","y"
"RE2DS","R2DSZC727A721A9B1LAE23F339AAF8B2060D4","y"
"RE2DS","R2DSZ3E0F437905F2TD90PEC90E37AB6ACD54","y"
"RE2DS","R2DSZ3D4322B70598TE11P52D6015DE2D225F","y"
"RE2DS","R2DSZ4910E0B13F5BE7A0AA08F493C89B004A","y"
"RE2DS","R2DSZF51F8DD3C4DDT230A1CC61649F5382A5","y"
"RE2DS","R2DSZ8A6E319045FBA4E3P93BADEBDA768D8E","y"
"RE2DS","R2DSZ89633E969A0FIAA437F082744D3B1554","y"
"RE2DS","R2DSZBC75498C3936RDFDA08FF4FFC8F8A888","y"
"RE2DS","R2DSZA923594AE384I92CP726273389AAE30F","y"
"RE2DS","R2DSZ2A590FC51BADT9F4A62E30965A5EE9E4","y"
"RE2DS","R2DSZA2F113EC11B0LC8134B171E364B169AE","y"
"RE2DS","R2DSZB02F0BB66BD8EA48D3E98354BC8440B9","y"
"RE2DS","R2DSZ6A694E9B4FBCT259PEB6518396E23572","y"
"RE2DS","R2DSZC4CD3743C4E7E2A5385638F8654E5D06","y"
"RE2DS","R2DSZ162F2E9C4C13A38AD979A1678A6ACA98","y"
"RE2DS","R2DSZ16E9E1479941R66738E186D914143792","y"
"RE2DS","R2DSZ9B51E8394BC0R82A38854E71E0613443","y"
"RE2DS","R2DSZ3D17F2B3F154AFE8347D6E09EFA33D4B","y"
"RE2DS","R2DSZ3EBEA10F67EAAAB03E1F5571FD4E48E4","y"
"RE2DS","R2DSZ20C52162DF1DTC8DP057224B5911A5F4","y"
"RE2DS","R2DSZD81CF66DA134IE4AP9B9E3F16D34C6ED","y"
"RE2DS","R2DSZ7F016D33905CI1EBDF4EEE8BDDCE0AD0","y"
"RE2DS","R2DSZ7D3C755A5120L3C0383D1BD4DEA1398E","y"
"RE2DS","R2DSZACBA6423B6BFAE5A37F59361D3887534","y"
"RE2DS","R2DSZ23BE6F558936AEFAA81BE3964E3E160E","y"
"RE2DS","R2DSZ08BE1A16217ETA9238A54A285B6036ED","y"
"RE2DS","R2DSZB531D28F3AE9TC4632C08BC9A56C2424","y"
"RE2DS","R2DSZ3371E81D4B9DR447314EC4E4DD8276EE","y"
"RE2DS","R2DSZ5428831520D8I367ABC27D3856067493","y"
"RE2DS","R2DSZAC0C423E6CBCE3D6A3CB9A9213A45FA3","y"
"RE2DS","R2DSZ34A9AFB5FF41A1C7P4C525E305314ECA","y"
"RE2DS","R2DSZF0CB9BB0E78FL0A9D93F3DEA2F6ADB6E","y"
"RE2DS","R2DSZE11803396189R03E3C8CDA6A3864F68F","y"
"RE2DS","R2DSZ7CA68BBDAAB3TB03AA242264CFFDA893","y"
"RE2DS","R2DSZ0F95589481DAA7F63207AD0E21700A8A","y"
"RE2DS","R2DSZ65D6A8E9E1D9T14CP937E27E795A34FF","y"
"RE2DS","R2DSZF2CC432D6E10A8713DFC54D55292B0FC","y"
"RE2DS","R2DSZ08DF043425ADT948A9131E71849B5404","y"
"RE2DS","R2DSZ07C53EE6E7BCT640P9E5C70CE13B286E","y"
"RE2DS","R2DSZ23CDD3E0350DR0D8A7ADD861790768FB","y"
"RE2DS","R2DSZCB80D3B6E803T86FD5DAC28719B46F8E","y"
"RE2DS","R2DSZCB589358B13BI280A5EE95E4D79BEF27","y"
"RE2DS","R2DSZEE5C2E4E7F6ET3F53B8FB97F58960CFB","y"
"RE2DS","R2DSZ92FD24C78EB7E832P9E5C240BAEDADEA","y"
"RE2DS","R2DSZ1BA4B7F009EAR0EBPCBB5D570BF3AE10","y"
"RE2DS","R2DSZE73B9261DE1DR476AC81383F79135247","y"
"RE2DS","R2DSZ5388473E16F4EF01P8588145244C94F6","y"
"RE2DS","R2DSZ95FC9E9EE09ERBF2D034C95F6DA5D2F0","y"
"RE2DS","R2DSZ487B612B0EC6EEEFP846E66C5EA1D5BF","y"
"RE2DS","R2DSZE4A41391F9D7ID7E323619C0C38EFCA7","y"
"RE2DS","R2DSZ29B64DD94E12R893P866C4522E7EF3FA","y"
"RE2DS","R2DSZ5B207B372D9ALDB4PFF89B9314393586","y"
"RE2DS","R2DSZ592D7DC9E685L8593FBA19D9C18FFFAD","y"
"RE2DS","R2DSZC7738D12E113T581A9A1F73FE69B1749","y"
"RE2DS","R2DSZ58E151BFABBEA07DP6387485F78337FA","y"
"RE2DS","R2DSZBC028EF566CDL257P7B53F585ED6CD5A","y"
"RE2DS","R2DSZ056E78265E5AR1A6P78BDD18924A8189","y"
"RE2DS","R2DSZ3CA0AEB1DC57L2FBDF7F9EC3D9021F60","y"
"RE2DS","R2DSZF55FC53031B2R06EDA981D5B8622E5BB","y"
"RE2DS","R2DSZ9C1F352A5289LE46306EA331BCE9A151","y"
"RE2DS","R2DSZDFAD55E8E840TEF9P37FB09F8C3112EC","y"
"RE2DS","R2DSZ31D3BF01E46AL9C9P9E4FAA53B6C2085","y"
"RE2DS","R2DSZF282B63F749ATEA2PCFEDEF8BA4DAF4A","y"
"RE2DS","R2DSZ78B90C2C65C0E744P4E9880A01D2F58B","y"
"RE2DS","R2DSZ6E5DFB4AB688I686P68065F3152348D3","y"
"RE2DS","R2DSZ4B2F232679DCR11E30BE9C2080B2F23C","y"
"RE2DS","R2DSZ3EF0139D950EE1893EE28931B14F3264","y"
"RE2DS","R2DSZC2DB23207A9AIB91P5A6F6CCFB7166D3","y"
"RE2DS","R2DSZ8934E064074CA201D9B8C3668FD38A5A","y"
"RE2DS","R2DSZ1C3546D2F1DBICCA3EA054A75ED166B8","y"
"RE2DS","R2DSZE1C9D1B32CD1LF6EAF5F66715DD6D1CC","y"
"RE2DS","R2DSZ687AB2EFD745TD3F349DEFD3F11F35A4","y"
"RE2DS","R2DSZDF1D8477D546I41330BBCC1C7D148DA8","y"
"RE2DS","R2DSZ6CD815660061TD1AP8BC556D213788C9","y"
"RE2DS","R2DSZ50BEED98A58FE896D1124060EF8B989D","y"
"RE2DS","R2DSZC423A851FBD7TE23D0826954E20FAC37","y"
"RE2DS","R2DSZABC3E986E424RCDCP6850E7504FE5043","y"
"RE2DS","R2DSZ6043D5EC2D00RC3A3513B3C2B6EF4A30","y"
"RE2DS","R2DSZ66A5FC66C997E125D0A13296D69AB291","y"
"RE2DS","R2DSZ3FCBBEBDC811T1DCP556866AC25A0728","y"
"RE2DS","R2DSZ0EF4AFBAF398I9C3PE26463AD2269127","y"
"RE2DS","R2DSZ311546D1C1D7L62033E715F95DE1677F","y"
"RE2DS","R2DSZ0A7EE5963D72I9E7D719B880B04F41F7","y"
"RE2DS","R2DSZ20F7CABB0046R5E7PC7B8EB751A10E7D","y"
"RE2DS","R2DSZF58C57E0F4F0T33FPE49C4D64DE7917F","y"
"RE2DS","R2DSZ639F59AF5AB0I77DA67C0A91C4AEDDD1","y"
"RE2DS","R2DSZ34ADECCA8F0DI23FD23BE2B213635CF6","y"
"RE2DS","R2DSZDDE9E2203E06A3F2DFEAA3BFA4F3CDAB","y"
"RE2DS","R2DSZ0D94815F8C66RDA430941513BB941F2A","y"
"RE2DS","R2DSZA67648552755EBC830091ECCC1C39C33","y"
"RE2DS","R2DSZ11889E2DA54BRF5BPD4FAA4003BD243B","y"
"RE2DS","R2DSZA23EC85C6022R9CDDE871CC8FAF2BC23","y"
"RE2DS","R2DSZ26E3CA499934I9FBA0EF44F002F292B5","y"
"RE2DS","R2DSZAE20EF6A6141RCE9AD533ADCE2FB2CD6","y"
"RE2DS","R2DSZ0A422BAA10A0IB5AAA9378B39EE46F7A","y"
"RE2DS","R2DSZ5B05B73A9BA7AFA137B64B4E9322D14A","y"
"RE2DS","R2DSZCCEACC256974L468A6AC0AA5D7E2C5F8","y"
"RE2DS","R2DSZ0FBC7065E480A53B36378D3290EFE20C","y"
"RE2DS","R2DSZC32EE9E15E90R27CDCBAD357C9133C15","y"
"RE2DS","R2DSZF7EC66390E6EI86BAE90C96831F1BCD4","y"
"RE2DS","R2DSZB4ECCD077C65A6E33EB39F66780CC471","y"
"RE2DS","R2DSZ75273F903443E6F93AB9A0B130FE2342","y"
"RE2DS","R2DSZ5012FBB22B91E8BAPFCAB7D4669AEA22","y"
"RE2DS","R2DSZB3D8D338DF57A666P4D4147311F4A8EA","y"
"RE2DS","R2DSZ4DD8C08490B3AF003CDD328887F3B627","y"
"RE2DS","R2DSZ61F0DEE09475I6C039AD41B00DA7DAE1","y"
"RE2DS","R2DSZ0D1033D30504R87CA59FC4308B5B3DCD","y"
"RE2DS","R2DSZFCE1BD85127BE009A88F79551D24993E","y"
"RE2DS","R2DSZ4E38EDB8D137A497DECA39456D4C9694","y"
"RE2DS","R2DSZ7E673F0F84C0T58336FF67652631D2B9","y"
"RE2DS","R2DSZCE15876CD1CBTD1CA05559D81E461C4D","y"
"RE2DS","R2DSZ1E3560CF46F3RD34A58A5FA97F1EE451","y"
"RE2DS","R2DSZED7015924620L320P148169C00984445","y"
"RE2DS","R2DSZEEA5AE25DD45TDA4D71C6998FBC0EF22","y"
"RE2DS","R2DSZ71747C2526AAL6B3318F8E2E7607F760","y"
"RE2DS","R2DSZEC635466B08CIEDA3A8C6FF5AED65171","y"
"RE2DS","R2DSZ8F380EE7E963T156D01EEE4B1137D45A","y"
"RE2DS","R2DSZ75CE8C10449EL0A9366E750CF92784D1","y"
"RE2DS","R2DSZ77EA0FE89909A475322BB1CA4AED817C","y"
"RE2DS","R2DSZ84CAF7D6B3CBIA48AAA6962AA3A2C5FE","y"
"RE2DS","R2DSZA7E44FDA4C79E38AP0E26C0DC64D13FA","y"
"RE2DS","R2DSZB08D1D9CA349L7C3PF11B7F0E4284608","y"
"RE2DS","R2DSZF91A95A73587T446A1D3B720CEE98E11","y"
"RE2DS","R2DSZ763D91386E26A422D62D39359CBF19A9","y"
"RE2DS","R2DSZ03DEE1C70DE0I8A3A13F2642ED7D836A","y"
"RE2DS","R2DSZ7472C1FBA900EC64DE4B936F5C37B694","y"
"RE2DS","R2DSZA4CDC28A3236T0883F361B1CB463CC25","y"
"RE2DS","R2DSZ6DDABE4C3F50IF3CP77E4377A8BFAC6C","y"
"RE2DS","R2DSZBFFAF3CB70CDLC45P50C7E9FCDE15D01","y"
"RE2DS","R2DSZA0BF00624BA6A051P7F283AA1C1BC186","y"
"RE2DS","R2DSZ440BFA9DD974A764P12B4B0FAEAA402C","y"
"RE2DS","R2DSZC2BBC0004EB0T9FF31329EB0863D95C5","y"
"RE2DS","R2DSZF21D25C95AA4L035PD72F26E105B8FFB","y"
"RE2DS","R2DSZ85ACB6E79F35E110AA96D36FA6BDD93B","y"
"RE2DS","R2DSZBFCB54452142I097A395ABDD95439A75","y"
"RE2DS","R2DSZ71038F058F09TFCDAEC6726B4450263D","y"
"RE2DS","R2DSZ28E622A3C6A0EAB0DDFE7188C90BEC6F","y"
"RE2DS","R2DSZ784E404E5AA7R97CPDABBB17DCD844D6","y"
"RE2DS","R2DSZF5023BB82844RB5DA15465359D64639D","y"
"RE2DS","R2DSZA22129B8C006L8BEA7835D7D357A8D1E","y"
"RE2DS","R2DSZ861C1F173316E403DD753FB05957FC18","y"
"RE2DS","R2DSZF11523512B92I2EDP0D5CD3AD4149728","y"
"RE2DS","R2DSZC254BC593FC9LEE23474258E5D936EE1","y"
"RE2DS","R2DSZ058F7230C891LA74D84BF69D692B6C9F","y"
"RE2DS","R2DSZAD1EA544E068I248A11926D8747069EE","y"
"RE2DS","R2DSZE96A9E4389A7L141P27DAD252B06EAA9","y"
"RE2DS","R2DSZ15EF72D2B10ARE5FDE939DF71D43779F","y"
"RE2DS","R2DSZ49051C8D906CR16BA98C3927CEBFD71C","y"
"RE2DS","R2DSZ8892129474EBI3F2PA7D4E71D869C7BB","y"
"RE2DS","R2DSZ13857FBB88B6E0AEP34EE3ADBEBF6C94","y"
"RE2DS","R2DSZC4376125B742A059320410E0435BA39B","y"
"RE2DS","R2DSZ8F919B68B275I6D63A9EFA77FBED2F71","y"
"RE2DS","R2DSZD074154CB8F7E963D874FEC1C26790B6","y"
"RE2DS","R2DSZD8A63359616AL4E931FBEEF7541A6E7C","y"
"RE2DS","R2DSZED9A2D4AA904L4A5PB183B71101C8514","y"
"RE2DS","R2DSZB33B9113AE80RF94A7B959D4A6D91399","y"
"RE2DS","R2DSZ89B93E138B9CT70EP7D4B4652A83C75A","y"
"RE2DS","R2DSZ1404DCD2D7EBI4AED767C7D40CDFDA35","y"
"RE2DS","R2DSZB4A479C8D823L558PA117408B4D3C412","y"
"RE2DS","R2DSZ290EABC1851ELEE0D49AFB5B05DE23A4","y"
"RE2DS","R2DSZ3852FFC1DEEDTDA3PA30D08B5765FA2C","y"
"RE2DS","R2DSZ12D5EDC92D11RD32D177A6BA6322D80B","y"
"RE2DS","R2DSZE1C0549A2906TADF3F34A8CF1BFBAACF","y"
"RE2DS","R2DSZ0537D6A7AD71A3C3DA606F5567A241F0","y"
"RE2DS","R2DSZA583293C8415LE13P8F730962A1EBA16","y"
"RE2DS","R2DSZ3101D6EABAA2R68E3D161FA79973B2BD","y"
"RE2DS","R2DSZ434464C76BCER6A0D285F45A80C6BE94","y"
"RE2DS","R2DSZ73BCDAE08EB4RFA0AB05E5A6846BFEDF","y"
"RE2DS","R2DSZ9B2D1290016DT7893860FA27BF726CEC","y"
"RE2DS","R2DSZ6FB174D7F7AFED4EA1508170FFD9057F","y"
"RE2DS","R2DSZ9663B75658D2R5983EBEF5FA6969C3BD","y"
"RE2DS","R2DSZAFB71EF01951RD03D644024006433DD5","y"
"RE2DS","R2DSZD76C6BE64580E3BC3DF20DD67EE5BEC8","y"
"RE2DS","R2DSZ89C6883DFD9AIFAAD57E6DDDF3425570","y"
"RE2DS","R2DSZD268B5C9CB9AA176A13ACB3C3F585DD7","y"
"RE2DS","R2DSZ5F96475AFDCDLD2DA3DA36D7D00F71FA","y"
"RE2DS","R2DSZFBC328C6FE2ELCAC37D2863E15D1FA8E","y"
"RE2DS","R2DSZABFC0A5E5538E9F7PA4FA7AA11A1D114","y"
"RE2DS","R2DSZ30FA307E6A77IBD2AFFAE9DB360396C7","y"
"RE2DS","R2DSZFFA192FCE158R60DABE5DB9123FE16EA","y"
"RE2DS","R2DSZ33FFE28FB887I2CDD00C249E19167FDF","y"
"RE2DS","R2DSZECAB42648F41I208P8CD2B79844B57F1","y"
"RE2DS","R2DSZ1C067CBE29DFE317DEC2F7827A6BCB99","y"
"RE2DS","R2DSZ93EE5FF108F8TE24PF3097DF67D4932C","y"
"RE2DS","R2DSZ6A26198BA184A20E342755AFC5E0F820","y"
"RE2DS","R2DSZ1D958BD6E942EFBED20245CA2B763B78","y"
"RE2DS","R2DSZ88CCD05EB0C1E946ACB61AFC4C9BD550","y"
"RE2DS","R2DSZ37977539E8EETEEAP66C6CE2D36532D3","y"
"RE2DS","R2DSZD92FA2E8340FE995D1A3CC6653566842","y"
"RE2DS","R2DSZC0A4E5179E32EAAAA4B0532E21A52F7B","y"
"RE2DS","R2DSZ3214BAA6F130L022PEC4B7B8AAC9C228","y"
"RE2DS","R2DSZ886A0F472AE4E6F0D6E3F042A6610E6C","y"
"RE2DS","R2DSZ373E23D1DE6FT8A034D2AF8F6D6B103D","y"
"RE2DS","R2DSZ80D07CA96067LCE8D8E79ADFF8DA90D0","y"
"RE2DS","R2DSZ5CA456B878AET77D3DA95C0A32FF14BE","y"
"RE2DS","R2DSZ5EA82B608809A571DAF91F35E8B015E6","y"
"RE2DS","R2DSZFB638185E8AAL80FA11E0955AB9273E3","y"
"RE2DS","R2DSZ89606C2F4994AF82D1EA9BF1D676F981","y"
"RE2DS","R2DSZ531C13738352EB5CP72DFCAF233D82E8","y"
"RE2DS","R2DSZ3A61FBE304B8AE6DD8A29D1E6484E14C","y"
"RE2DS","R2DSZ68508EA88120IB3DA909A54A9B613405","y"
"RE2DS","R2DSZAA03124CF6BDE253P679CBA7A4B774E0","y"
"RE2DS","R2DSZF16EC8970B1AE7E4DACCC1C51D83B7C2","y"
"RE2DS","R2DSZC4763683C575T0C9A8DC7E1A6B653F89","y"
"RE2DS","R2DSZ83C2A84D602FTEEFA5C658506C159EFE","y"
"RE2DS","R2DSZ531BD48B0680AF9ADF713DF2D1178500","y"
"RE2DS","R2DSZA169E8A3E35CACACD1A1683975A96A79","y"
"RE2DS","R2DSZDD644AA01C11A1CC36FEFAE4D67FA756","y"
"RE2DS","R2DSZ541232F5D661AA0F36FFEA4810E80F9B","y"
"RE2DS","R2DSZDF679DA1BC22TE54AD83535F0D5044B2","y"
"RE2DS","R2DSZ303BE3571E6CT98DA9EFFEB408B3AC7C","y"
