"RE3PO","R3POHEB523728341AA503A9AB5C79C2160952","y"
"RE3PO","R3POH4FD2DD0EA50CL2FEAE0343514F0E8871","y"
"RE3PO","R3POHC90B52DA6BB0EAE934CE048B91DFF75C","y"
"RE3PO","R3POHB540A32955C8AB543FE1A7B3A3225EE2","y"
"RE3PO","R3POH30291E97FCD6A940DD59FBE397EABD53","y"
"RE3PO","R3POHB471DFF895A6R2123BF55E4A7C0A931B","y"
"RE3PO","R3POHEC0469907E34R8FEP5D7BF5F7E8207A2","y"
"RE3PO","R3POH0C8199408D52E02EPFA3FAE3721F791F","y"
"RE3PO","R3POH79E54FBCE653L226PEB2C65541279A47","y"
"RE3PO","R3POH9CA0EB482A06A6CEP6A0ADD308AD5377","y"
"RE3PO","R3POHB1935911F14EE9C1A60659E3951F4461","y"
"RE3PO","R3POH3C9A0A4FC7B9I0B336AE68E6A026EB24","y"
"RE3PO","R3POH728FAAE5B436L135A172069FE644D4C3","y"
"RE3PO","R3POH87796CB2B80CA49430FDD41FE058ACD6","y"
"RE3PO","R3POH26F32DD35F32E025D453FADE10CA3428","y"
"RE3PO","R3POH30C6D4E0009FA4E5A75C3CB32DEA87A0","y"
"RE3PO","R3POH06FDF3AA6149I6C7D764CF154CA30D8B","y"
"RE3PO","R3POH32BCA1DC3B53LE19PA4DCB90833A72C1","y"
"RE3PO","R3POHC1F6B90F4A80TAE1AA518A226B19305B","y"
"RE3PO","R3POH14C954FE8710L9CAPA63AC87C05280B4","y"
"RE3PO","R3POHDDD12EF5BCE1RFDEA4704F5B420B1121","y"
"RE3PO","R3POH7CF5EB2205F7ADADPB92FEFA55CB22D7","y"
"RE3PO","R3POH8119A2FBDB7DL870379547A5C1CF69DC","y"
"RE3PO","R3POHBAC9D8DDF20DTD8FD96ED1DDDBE77930","y"
"RE3PO","R3POHC5696D78ED08IFCEP07B6A326AFCB048","y"
"RE3PO","R3POH0D350753D2D1I54230B777ADD1198376","y"
"RE3PO","R3POH55B3351B6D71A660P71AF5965A63E125","y"
"RE3PO","R3POH1415C2393A7ERD6FD838DFDD8811F504","y"
"RE3PO","R3POHB00FCCD6BF05T10DP39056C0527885A0","y"
"RE3PO","R3POH04A7DFBA3677EE67A3C721DC7F4F5CC3","y"
"RE3PO","R3POH273D18192704R8063D403B6F1DA3141A","y"
"RE3PO","R3POHE2F9A809C4A7T433D579CBA2E06FC3AA","y"
"RE3PO","R3POH14FCB2334904R78D3D4242D541B06F8A","y"
"RE3PO","R3POH09A0F6349ECDEB12DB98E99644D6BA5F","y"
"RE3PO","R3POH858351CAB56ER4D5PAA785968DFB7D94","y"
"RE3PO","R3POH5349D6FBF9C1LC6B3104B5F041B4798C","y"
"RE3PO","R3POH2120A1BD3641E8D33C35660E8514826F","y"
"RE3PO","R3POH2D0B5640E149T5B8DF7D15C1281F2B38","y"
"RE3PO","R3POHB27D0AAD052ETE89DF8155E7DC2D19A1","y"
"RE3PO","R3POH8EC6141D1BEDRC0ADA3A3E9C36A44414","y"
"RE3PO","R3POHDAFC4B414B85R8E23B8EAD08104943A8","y"
"RE3PO","R3POH86365D19ABE7A71430DBEB6D9DA89B21","y"
"RE3PO","R3POH46F62A5C9F16I621A779CD2E4E37871C","y"
"RE3PO","R3POHF1196F954B27TEA2355164D36568FA36","y"
"RE3PO","R3POH900A9075DD72T69FPAB56EFDD41C2423","y"
"RE3PO","R3POHF366AB84C9A5A67CPF2677BFC327282D","y"
"RE3PO","R3POHF34CEF94B688E006D80051719982DF6E","y"
"RE3PO","R3POHCD958671ED51LBBBD46185BC726AAA07","y"
"RE3PO","R3POH3CA262D57057E8C5DC67EE6A3AFD5762","y"
"RE3PO","R3POHC6A5FD7DD81DIE71P1D52F00B68C3CDA","y"
"RE3PO","R3POH29F2E84523DFL6EC334463F87323E582","y"
"RE3PO","R3POHC097BA474094L421P85B02194B1BD126","y"
"RE3PO","R3POHD6424846AFC4L5AF332143A262C31165","y"
"RE3PO","R3POH43FF7187F074A17CD9C24C863AC73B77","y"
"RE3PO","R3POH64F52F06BDAAL84BD82688F144D9DBB5","y"
"RE3PO","R3POH1ADA46220B52I254A8C795581F60E6CF","y"
"RE3PO","R3POHE2375CD4C747R550D9BC280DC89A505C","y"
"RE3PO","R3POH3D2DC3345392R247D1311ECFB5AFC1E2","y"
"RE3PO","R3POHB65CCBB92F2EI9FD3AE685C3F3D8D459","y"
"RE3PO","R3POH77AD34B9F18FI0FED3F86BD7F9E15380","y"
"RE3PO","R3POH6C436D32D8E3E062AEE11B184C6ABBE4","y"
"RE3PO","R3POHC55FFE34FD83L151D256F9F2DE8D77B8","y"
"RE3PO","R3POH77158CEE6756LA32D94CBAB08EDD7BDA","y"
"RE3PO","R3POH73B0DC872C4EE933D63D9F147558329A","y"
"RE3PO","R3POHAE54DF058ECDE3D1A837424C2E48A4DE","y"
"RE3PO","R3POHD0BC258A199ET07D3DE83B59A8F49EA4","y"
"RE3PO","R3POHD74B14267317I330AC27464A35A80BC8","y"
"RE3PO","R3POH53F12EF487EET81231E644CA8C13ABCD","y"
"RE3PO","R3POH1ACCCC1E1CE4T8B3P716A5A1A6F4F124","y"
"RE3PO","R3POHEBCC1D59A5ADR939A5260EA6650C14E4","y"
"RE3PO","R3POHE3B7104FE529TBBDA21A14CCB5A61698","y"
"RE3PO","R3POH79B221A864C8I9083133DAF2740816E6","y"
"RE3PO","R3POH5B52CE0858EEI404P6B17EB145E08DA0","y"
"RE3PO","R3POH1E8FC418A9C0TBCF3B5E5C98DE557569","y"
"RE3PO","R3POHE6C92185C440RAA635F3872538F61579","y"
"RE3PO","R3POHE78D19CDBDDBL944D866B4B576DA4DB7","y"
"RE3PO","R3POHE95BA23FD4F7L653A469AA318F7616A2","y"
"RE3PO","R3POH39C2750C02A9R48DA7EEFBF0D4863034","y"
"RE3PO","R3POH4617F10BB5B8L756A448C0FD022C98DC","y"
"RE3PO","R3POHF0943FF5B684IF6ED5F120846DF3E021","y"
"RE3PO","R3POH4B48DA325998R4FCA7E4EDD0904519C9","y"
"RE3PO","R3POH7871F10C27BBIB54D24A82EC95D97B0B","y"
"RE3PO","R3POHDD62AA69F17ETB7EA18C2E6F48810D18","y"
"RE3PO","R3POHC548AEBEA78DTB3E36C9AE08B5124D5C","y"
"RE3PO","R3POH58B7AA40DD4BIF1CA7AEEE581B623D03","y"
"RE3PO","R3POHA395DA0A9752R73BP3041D9F53867600","y"
"RE3PO","R3POH4DC6D39E3A76L1ACA8C538F84F1E5839","y"
"RE3PO","R3POH9435909A09F6I7B9P9FAB92A8901F899","y"
"RE3PO","R3POH6ACD8FD52D9DRFCAP7EDB6BBD5CB9184","y"
"RE3PO","R3POHB8A478DD354BT5F0P0EF0AD12EABF54A","y"
"RE3PO","R3POHE875CE012A86L12932712164444A7C57","y"
"RE3PO","R3POH2E741E3B4B3BLB08AA05A3DEE67103CB","y"
"RE3PO","R3POH6DB52214C077I3EBA50358DA8F4AEB75","y"
"RE3PO","R3POHF6A32D48B6CFIF08A8EFCD37C5E7A6A8","y"
"RE3PO","R3POHA3E238D99D80E709P411FD548AEA0252","y"
"RE3PO","R3POH7FB23E8F2A57E804AC05AB670E2A753B","y"
"RE3PO","R3POH256CE8965EDCI45FP8C8C77F0CD9B12F","y"
"RE3PO","R3POH6D30E12EF04DLC0CA51818DF40932B74","y"
"RE3PO","R3POH04A50239F3D4IE2CAAADF7046E6210A5","y"
"RE3PO","R3POH9AE0DF633017LF69D075EEC324AA3A7F","y"
"RE3PO","R3POH3AB4006C9C93L845PD760E46910A836A","y"
"RE3PO","R3POH20DF5A51EB55L682AA9E0CDC71787220","y"
"RE3PO","R3POHC9C821C7978CI6BAA2DD9ECF41D92FEC","y"
"RE3PO","R3POH25D1AFF43B65L598D1283C7ED8915119","y"
"RE3PO","R3POH3E43611C3611RF85D4E37F062FC09624","y"
"RE3PO","R3POH5CA98B537DA8I2ABDB64C65BBC824DAD","y"
"RE3PO","R3POH7936F01D4AAEI4A1A779CE69A766CE6A","y"
"RE3PO","R3POHC47CAE3BFDF1ICDBPE44B81FBDCADF30","y"
"RE3PO","R3POHAA83C78D553DR70F301D3FE6F006A292","y"
"RE3PO","R3POH022F7FF1E17AEEFBD99638E062F12FF6","y"
"RE3PO","R3POH24CA293AF7BDT917AD0D57CD0C0CE81E","y"
"RE3PO","R3POH684EBD6E59CFRFDBD47627829AD9954F","y"
"RE3PO","R3POHC4999F961CAAE5C0D4596E90ECA190EA","y"
"RE3PO","R3POHB05944DB592CIE31P892FF60068F4150","y"
"RE3PO","R3POH4E8BAE48DA8CEA68P5AE477E866A66B2","y"
"RE3PO","R3POH77E0934FD110R4EB39F5A885EC80591D","y"
"RE3PO","R3POH376C06B54D9AT9CBAD09C213B2C7D06B","y"
"RE3PO","R3POHD38ACD164229T5FEPF552B35E136ABD9","y"
"RE3PO","R3POHA15CB54070F1AB8337CE648898005A0C","y"
"RE3PO","R3POH9430E1BE10BATFC8PC7D76AB0800C01D","y"
"RE3PO","R3POH34EC8D87460ER929P594F71263D11944","y"
"RE3PO","R3POH0AF3C26AA1E8T7E4P46512ACECE168B4","y"
"RE3PO","R3POHD7E0FFC70862L40736FE42DC8156E1EA","y"
"RE3PO","R3POH07DB5287EF6AE04BA0304825F792B496","y"
"RE3PO","R3POHBBB3645BA424EFD9A11D8686A5A42B60","y"
"RE3PO","R3POH4CA9B9733A54R062PA8A306800B1234F","y"
"RE3PO","R3POH7F7EA7394A0FL8E2D1CCE418BF70512B","y"
"RE3PO","R3POHCFB1A7C3E946IF36D2C4CD441286F159","y"
"RE3PO","R3POHABDA2FF6931EL329AD9C6E587047C605","y"
"RE3PO","R3POH92E5E3DFE113L29FA15BD49019863469","y"
"RE3PO","R3POH34BD2CD30BECA4BEA93C8364C73BB4AE","y"
"RE3PO","R3POHED9879557BC8T5FEAC9457FAC5D23AC5","y"
"RE3PO","R3POHCFC85EA91E25I840A2A9FB232E7DF136","y"
"RE3PO","R3POH5BF9CA52D477E813P085CA2EFCBAE484","y"
"RE3PO","R3POH024D4BFE9528AD0BAA285A1348CC70D2","y"
"RE3PO","R3POHDC3B253F28AEA26CD912A06B466319C4","y"
"RE3PO","R3POHBCB7CD71E9AERE1CP5CE9F3B3EB962E3","y"
"RE3PO","R3POHFEC5992D1C35RD76P56F84BC957925C6","y"
"RE3PO","R3POHC6FAE727200CI90638A8998069A81391","y"
"RE3PO","R3POHF000B5BCDF9CT5DEA38095B1AB97624E","y"
"RE3PO","R3POH5D2D0ECE7B5ET01B327FBE6C2C154EC2","y"
"RE3PO","R3POHFEB71898966CA08DP9B1875CD2AB498F","y"
"RE3PO","R3POH459358386748R1F8P0D753DF9DB9379D","y"
"RE3PO","R3POH622FDE886C25L0F0341FBA152A204006","y"
"RE3PO","R3POH800B6B2DA4F1TD0AA7392CEA9C3F8AF5","y"
"RE3PO","R3POH3EF559976D4DI464PFF10F0DD62403FC","y"
"RE3PO","R3POH30B64A497B91RC6C371D3E5CC6876FBC","y"
"RE3PO","R3POH6B8E10C65A8ER0FAD299B60AEAD258C4","y"
"RE3PO","R3POH8B32D3A0DC73A1F4PA3AF6D0703FE488","y"
"RE3PO","R3POHFADDAEE9E041L5FEPF3CAD088E6D794C","y"
"RE3PO","R3POH552440940547I56BP59A74955FAA20BC","y"
"RE3PO","R3POH7E73B245EED3AC2EPE40B484BA4F9DA4","y"
"RE3PO","R3POH516725E12689R2A9DEA5AE361732EACC","y"
"RE3PO","R3POH5822B286F02CTC8CD0A761E870B59C25","y"
"RE3PO","R3POH4DD162FB8B2DLF29D7178E06E32AB7D4","y"
"RE3PO","R3POHEB58BE175A88RF62P48DA402796EC2A7","y"
"RE3PO","R3POHA422BB498949E886A339332FF781A768","y"
"RE3PO","R3POH817E1C2F3F8ELF0BAEE92D6FE3FA5ACC","y"
"RE3PO","R3POHB51F6B2EAA5DLC6CD6A874FAB140024D","y"
"RE3PO","R3POH402DD2A6F6F8LF34P975C5CDFF41B171","y"
"RE3PO","R3POH763DC86B1D3DI0C7PE4C01CAD6DF8A82","y"
"RE3PO","R3POH26A85930B98AA8DFDA7ABC93C99E6613","y"
"RE3PO","R3POH13CC5F30ECEET5F1AED47FD294A04498","y"
"RE3PO","R3POH7E893C5FF096I039A44539091BC134BC","y"
"RE3PO","R3POH07B0924F3E60L788D8DF9C65DDD3ADC9","y"
"RE3PO","R3POHED8AF38FAB12R84334DDA959F8C2EACA","y"
"RE3PO","R3POH3BE1CAF0D35ET60D33E0BCF506F1573A","y"
"RE3PO","R3POH56F3639D3E53L302DC541091FD534BF1","y"
"RE3PO","R3POH9264367F1E6EA1E2A07D019F2319BF86","y"
"RE3PO","R3POH789FBA26AD58IB68AF09E128EA18CB16","y"
"RE3PO","R3POH8D5754F6A0B5RE1CPF736905078E36BE","y"
"RE3PO","R3POH2883C86BDA89IB6C36710669AAD1DB52","y"
"RE3PO","R3POH2100809DE967I26AP7854D3C572E913E","y"
"RE3PO","R3POH69798FCFE951I442P37DF1A0941BA147","y"
"RE3PO","R3POH51E6B6A1DC26TA24P5B2EB81D5019173","y"
"RE3PO","R3POH1BDC2BB7CB15I1EDP10924178C3B9B31","y"
"RE3PO","R3POH70BF3E21622DI9BCA3046BE1B9238964","y"
"RE3PO","R3POHAB54EDEA4578LDA53C6CCA198B9BD9A9","y"
"RE3PO","R3POH9F282FA97FA5TBA8ACD580B524AA9D0D","y"
"RE3PO","R3POHF4EB112A0D95LEFBA05683C532E369EA","y"
"RE3PO","R3POHD3507E418E47R9BAA3F5B514FC9A2B96","y"
"RE3PO","R3POH440F848AF2A0R470D500A97EADA10C0D","y"
"RE3PO","R3POH40904909343CIBC3P82D9C28146485C5","y"
"RE3PO","R3POHFE76C09019EDE791A5ED671FA1073322","y"
"RE3PO","R3POHF69743225500R4A2AC26DB2B296BF2AE","y"
"RE3PO","R3POH441223EFD357EFF3P17150A67A0D7988","y"
"RE3PO","R3POH1499B91CFA60T126A02AED0FCF0935F2","y"
"RE3PO","R3POHF3C295A43581L7D7P834BF565A868AE2","y"
"RE3PO","R3POH15141B8F44ECAD013C3353ACDA8A695A","y"
"RE3PO","R3POHB79657AA6D05A998D7A571A97D07485B","y"
"RE3PO","R3POH7815696C32C6R5143ADFCE2974FC6BBA","y"
"RE3PO","R3POH54942843BBA9T155P16A3D7BA6B1501C","y"
"RE3PO","R3POH7413284F8D92E3FCPC55EF96F4A62594","y"
"RE3PO","R3POH647F9A4523DBI14839764BBB530C30CD","y"
"RE3PO","R3POHF7E47A5C25C6R454DE681CAF4DD651CD","y"
"RE3PO","R3POH94604540390ARE8B3F49C4DF34908AC3","y"
"RE3PO","R3POH2C5B09DCE142E1DAPE3C35ED6CAA63C9","y"
"RE3PO","R3POHCAB157322AC0R0EDPC52618FAC0125F0","y"
"RE3PO","R3POHA826BB491DA3E36AAFF01DA282F0E7DB","y"
"RE3PO","R3POH58157689D125LDBC3FBD306D14D0BBD2","y"
"RE3PO","R3POHEC87AEFC1161L2FB3F0F4041539949DA","y"
"RE3PO","R3POHD90C128ECE4AR8BCA5A9624DBF38E0E9","y"
"RE3PO","R3POHE07B0F2A7BFFT9B0DB92E74ABFB5ECBE","y"
"RE3PO","R3POHCD1EADF3CD25LED9P8693231CB65C9D4","y"
"RE3PO","R3POH4AFA353C7DBFA1A0P2FE528F2740C9C4","y"
"RE3PO","R3POHDAEB7E6F3DBCTE50D1A3C5C567C0A128","y"
"RE3PO","R3POH5D76F8B570FAL5B133BFE7315109C135","y"
"RE3PO","R3POHC98060C06CAET67E35569293D4985931","y"
"RE3PO","R3POHFD2EF6696F9AR2B2A93B9AFE7F30BF71","y"
"RE3PO","R3POHFC17FE9DDAB3I810P1A5EF1D5067B1D6","y"
"RE3PO","R3POHC98EF80141B3AC773E5CF85A7C4FFA07","y"
"RE3PO","R3POHAE5946045E6FIF5FDB6B219FDA5850C2","y"
"RE3PO","R3POH639CD7170CE8IBDCA8939702A5163064","y"
"RE3PO","R3POH948E075F9AC6EC51D18808BC7042EC6E","y"
"RE3PO","R3POHAD7F0D5AC39FT53B3891FA86EE204CD4","y"
"RE3PO","R3POH88F4D947D20FE141PD34A39CC5248D1C","y"
"RE3PO","R3POHE0BCA255F2D4I607P365A59FBB14EB0C","y"
"RE3PO","R3POHC873F834DE5ARA6D36A243DFF2014FAF","y"
"RE3PO","R3POH710FCD99FBEBT907ADD4FAA1B2382EA2","y"
"RE3PO","R3POH8E0857AD4B48LFD4DC77504DC28A65D1","y"
"RE3PO","R3POHC8C44B9132E3R5C9A1FE89F931F66BF9","y"
"RE3PO","R3POH1CE17D0758FFI1B63709821B5FA6C22B","y"
"RE3PO","R3POHFD2A7D3B23C1A963DA65B0CAB7BD8BD9","y"
"RE3PO","R3POHAD2FA34244FDEC4ADB5ECD8791A61EBA","y"
"RE3PO","R3POHF54EB2FF481CI949P4D03C1C7A436707","y"
"RE3PO","R3POH172146262BD1R48B3BF882872734DE02","y"
"RE3PO","R3POH13D5AB9B9D5CI427D141E1BB1482A420","y"
"RE3PO","R3POHBE6CF181FE28AEB63E36FDBF1C85162E","y"
"RE3PO","R3POHDF8DF1B36AE3A9A1P84E7B51A7BE6A2E","y"
"RE3PO","R3POH94054147D31ET5CDABCE14BF89423ABA","y"
"RE3PO","R3POH6EBB7A86B39BT584D1157CE7BB0F5A10","y"
"RE3PO","R3POH3F6AAC93F65FT274PF145DBB1D22A2D6","y"
"RE3PO","R3POHD9FF31F3E417R1A9P681CCE60EB9F4B1","y"
"RE3PO","R3POH95D4705E9E15L2A232CA7E81A0965F04","y"
"RE3PO","R3POH63DEF301BD82IE7CA9B05EEE354A11EE","y"
"RE3PO","R3POH527B61A356C3E1E5D71FCE526A7F8495","y"
"RE3PO","R3POHE960684B55C0ED8FP3E7F675F3BD69AD","y"
"RE3PO","R3POH9CE8BDB7CF4FR6ADP15F5712C4041FE4","y"
"RE3PO","R3POHDE07104E7520E18AA3EA4CB78E6D77CD","y"
"RE3PO","R3POHBD4BF32A729FE09D32E234D393EC4656","y"
"RE3PO","R3POHAD7ED78592DCRCFF373A74042F67D2AF","y"
"RE3PO","R3POH5FC837C50695L99DABCFFF6E0357DE48","y"
"RE3PO","R3POHF45AB6EE8E63I412P889BE9B473C578F","y"
"RE3PO","R3POH2F3D622CE36DR7D032C76C413C8F3CAE","y"
"RE3PO","R3POHA26E79DB49EDREE8D70D515CEBD42A85","y"
"RE3PO","R3POHDE6DA7A247BFE071D93807C8D795F10E","y"
"RE3PO","R3POH29FFDB6D4EFFL1033EBC9D83F2EBCDA8","y"
"RE3PO","R3POH90463E7B4584E6BFD2EC4AD357C54FC1","y"
"RE3PO","R3POH531BE17AFEECEE1AA5FADE5556C8C32C","y"
"RE3PO","R3POH9E74DD0AFD34R650ACB81B27B3A56DF1","y"
"RE3PO","R3POH448296215EF7L273A89AC85091A56252","y"
"RE3PO","R3POHCDC64CD39803EC983C7D8A63E10BC78D","y"
"RE3PO","R3POH6C98CBC7EFD6L4BEP3A0AE2DC401D695","y"
"RE3PO","R3POH71BDA7164B7FEEDCP2C08495005A3C5D","y"
"RE3PO","R3POHDC8312DB0D69I99BD64E48056233D32E","y"
"RE3PO","R3POH1D8E5B73201DE913A91ADF03B5C47728","y"
"RE3PO","R3POH4B889188C948A04DD13872ACF21D0569","y"
"RE3PO","R3POHBB3B2F8F8D97T33FD27847396EB5A7D8","y"
"RE3PO","R3POHFF2EF0A4AF8AL213A23F9B92686CF1E8","y"
"RE3PO","R3POHFE34E630A261ID35A92AACF113D48F5D","y"
"RE3PO","R3POH3D4A6EA52C34E05DP3216762F86EB554","y"
"RE3PO","R3POHE5823864DF6BI878D22BE302AA7A9296","y"
"RE3PO","R3POH9BED07D91237LC043CC06EF30F4E967A","y"
"RE3PO","R3POH3DD977FC1AEBRD313367DCAE7838EBAC","y"
"RE3PO","R3POHB4AB73A82ABAI969P63ADA15936DBF8B","y"
"RE3PO","R3POH4084C4EE5946IB4APC83E87128AE8E29","y"
"RE3PO","R3POH517329C3A65FA9E1370E611826E306C6","y"
"RE3PO","R3POH2C65466789B3L85A3F7435A7C9D035FF","y"
"RE3PO","R3POH121DF29C3E73A25CPCDC0D17F2CD9F24","y"
"RE3PO","R3POH85656CA67B8DI99DD05A663629E5E403","y"
"RE3PO","R3POHB1B3F61860C5I562308E7642260778DA","y"
"RE3PO","R3POH2BF97D6ED922EE40D39CE9ECFC45E429","y"
"RE3PO","R3POH493296ABCA1CL085A214640476B60743","y"
"RE3PO","R3POHDEA49C29B6E5TCA5D7542DE8F9F07DEE","y"
"RE3PO","R3POHC92BFC50DBA0I7513A47C6193B08567D","y"
"RE3PO","R3POH400E45B19898L1C0A552257189EAB21E","y"
"RE3PO","R3POH7841E87A1F39R441P9F1ED36DE7B56A2","y"
"RE3PO","R3POHA841E7C05E82L82FA958B473A8C451F7","y"
"RE3PO","R3POHD21540050E2CI00DAE60DB6F0460D539","y"
"RE3PO","R3POHED775482B66CR9A2P7AB690D42A04474","y"
"RE3PO","R3POH7E151A141070I9A5P3DD0BD11958C784","y"
"RE3PO","R3POHCC7A6DDCAF3CIABCP69A915B7B36BABF","y"
"RE3PO","R3POHE62186F1F2D4I65BD4916E08BEF374DB","y"
"RE3PO","R3POH8EFC91FCB8A1AF5CAE59CF9CCB9BB9A1","y"
"RE3PO","R3POHFFC84E5A3638A8AFA0F6845787C3FA5C","y"
"RE3PO","R3POH129BB5BE9E65LD89P2B1017C7C2DD4C4","y"
"RE3PO","R3POH8B52A1E18DACT0D2A7A5BFA39FF4136F","y"
"RE3PO","R3POH8032D025932AL397P47C7FB2765FC572","y"
"RE3PO","R3POH9C1FE7FD3EADR6AFP7F90777F70B409E","y"
"RE3PO","R3POH790AD994AEAFEA8C3EF73070F376F6B7","y"
"RE3PO","R3POHC9BF316AF756ABC93744F8EA7D4D86A0","y"
"RE3PO","R3POH267FDEBD79D5I87A3D875725665681CC","y"
"RE3PO","R3POH9C7B121CF23DR12AP02BE8CE5A3A441D","y"
"RE3PO","R3POH6D3D133340DEIAA3AA0FBACA99363F1A","y"
"RE3PO","R3POHF49442F029CCE7893D9B4D68D4645EE1","y"
"RE3PO","R3POHD268B6429196I507P9438CB2A82BEDC3","y"
"RE3PO","R3POHD6CF12B820DCA103D5FEC1D219080F05","y"
"RE3PO","R3POHC9406AAC97A6T8123FC79B4E15CDAE88","y"
"RE3PO","R3POHB2BBFB7E0103I6543FE4CE3FD1742133","y"
"RE3PO","R3POH6515A456EC58IF7ADF56BAC599E5AEFB","y"
"RE3PO","R3POHA10C5262A1BBT0CAADB3705B53319B2C","y"
"RE3PO","R3POHD5C8CEA4DAC4IE5FADCBCBB784DFC339","y"
"RE3PO","R3POHBB4FC179EF9CT36D3ADF9F0F3C3D58E8","y"
"RE3PO","R3POHEF252F7808F8LA07ABB87732DEF30CD2","y"
"RE3PO","R3POH4DA84C0A3989RFA6P25C0321E985CE0B","y"
"RE3PO","R3POHDD561CCB861FRB03D56F7B54D51A1C60","y"
"RE3PO","R3POH36C7E409FFC1E5D3D56FA70A3E93C687","y"
"RE3PO","R3POHBC939FF3B8ADA081D732BAB25AFF545D","y"
"RE3PO","R3POH1CBFFFF0C128LFABDE0C76643B285803","y"
"RE3PO","R3POHC67B5A50B64BT99CDEE3D8DBFA53E1F8","y"
"RE3PO","R3POH3AF74F5CBC40TB17PB9545A91FDF3C29","y"
"RE3PO","R3POH5B3A40BBCB60IC063600ED188FFB66B3","y"
"RE3PO","R3POHABA620F85A15I966DB1E86905EDDE178","y"
"RE3PO","R3POH69C2852BD5A4IC7EP09077D7369E871B","y"
"RE3PO","R3POHA3BB4F9C8802ED7FP0638F0D8466AAA8","y"
"RE3PO","R3POH2950458F122BI093D57BE1FF037E8FDD","y"
"RE3PO","R3POH5862D79EC62CLB48A7AC7AF58B4C0D06","y"
"RE3PO","R3POHAE5EC5C2FD13AA953D97046682293748","y"
"RE3PO","R3POH47FDF8B877DCA0623333A52DF2DCE04A","y"
"RE3PO","R3POH5EC80C4198E9RBB1D89C7791491EC1E0","y"
"RE3PO","R3POH6AE25217F64DI82B398E5CFFE10EB198","y"
"RE3PO","R3POH7A4223614833LF97A7902CF327B42F5E","y"
"RE3PO","R3POHCB67E663FB56R53DDF65D9342F5F283B","y"
"RE3PO","R3POH77C7A5E2BF85AB6DAE6A77B24D5CEA60","y"
"RE3PO","R3POH308FFA7EAF84AA53A9FA2085210ECAF1","y"
"RE3PO","R3POHF0086BCB9911I6503B83DF4469CBCB68","y"
"RE3PO","R3POH7DDA34A01AEFLE5C36625BCEADAF7671","y"
"RE3PO","R3POH78C6DC31AE81A6233E5C7A87A0937F98","y"
"RE3PO","R3POHDFB8CFBFBC84T070P65616FE496356DB","y"
"RE3PO","R3POH4257A9913407L441P32F73EF430133A2","y"
"RE3PO","R3POHA508B5190D44ID21P8AEDC2B31F1AFF2","y"
"RE3PO","R3POH22A4788D851FT0C9P6FE6A2217982671","y"
"RE3PO","R3POH8F0D10F99DC7L1B2D94CB28FCC706051","y"
"RE3PO","R3POHEFB4FE5AA410A7893B987E47FDB03F21","y"
"RE3PO","R3POHDEBD37551E67R3A039EB33A3FCAEDFD0","y"
"RE3PO","R3POH69E1232AE205E906P7A21D60E7EC34F4","y"
"RE3PO","R3POHD360EA806269R33F30865104C7469427","y"
"RE3PO","R3POH2D3BFDECD7B8ICEBA7C79EDA82786FB1","y"
"RE3PO","R3POH0310F2C711A9E8C1D7A9A86368EC97D3","y"
"RE3PO","R3POHFC158C8ACB9EL8DFPCA77B907A3BE649","y"
"RE3PO","R3POH36503183A8A3R1B8PCCBEC82F42FEC46","y"
"RE3PO","R3POHD9D7C737297ER41FA8A36023348112C7","y"
"RE3PO","R3POH6089E192FAEBR284DD84497C89F7979D","y"
"RE3PO","R3POH101E9A13DE05RC29P2CE8BAD06F14D93","y"
"RE3PO","R3POH558BF442337CR1A8A94A8B8C85441277","y"
"RE3PO","R3POHB21C8814D972E83FP9B22D8C365BC2B8","y"
"RE3PO","R3POH758CC154528FAE10385BECA15BC50541","y"
"RE3PO","R3POH41818E40A492E295PE975CBFF38256BB","y"
"RE3PO","R3POHFFCE18C0899AE34F38B166EEBF5FA84E","y"
"RE3PO","R3POH6E71C8529D6BIA443C0258FCCB97CB0F","y"
"RE3PO","R3POH805DE077DC08AE9D3D371785DA3424E8","y"
"RE3PO","R3POH8633FF137A88RA59PDEB77A0EDCE6AB4","y"
"RE3PO","R3POH216B98A360A0RB903FB0CC2161D8FCD1","y"
"RE3PO","R3POH422D3570E7D7E582A9BDF14F9612D66B","y"
"RE3PO","R3POH106DABA97E9FI816P36A5C91CEA50B7D","y"
"RE3PO","R3POHF24BA7C380DAA46AP59D8BD90F43932D","y"
"RE3PO","R3POH4FA8655B0B34LC32PBD5A1F41A11D146","y"
"RE3PO","R3POH337FEA1BA499L5B63C0CBA73A6D70F20","y"
"RE3PO","R3POH88822776C33BRAD3353242A13630E179","y"
"RE3PO","R3POH9E0D8EFE524AIFEB371BE8B799DE1A23","y"
"RE3PO","R3POH153A715EDFA9T41BD68C8A229BA04621","y"
"RE3PO","R3POHD1A7FCE7964ARCCCAA8EFA0A0774C6A3","y"
"RE3PO","R3POH7DAF90955175AA8ED2458DDE543E0328","y"
"RE3PO","R3POH9FDC88236612L89EABD57C18B783D8B8","y"
"RE3PO","R3POH56D6B006A5B9L78FDB6A94CADA4E6A4C","y"
"RE3PO","R3POH3E0CD2D6DD60A5B734668179F8B4F12D","y"
"RE3PO","R3POHF685F41ABFCBI8DA31F59AF6CB23452E","y"
"RE3PO","R3POH8CC22B6454ADIE7630D18C78791169E0","y"
"RE3PO","R3POH680423CBEB6ARF30A600EF3DF0C9638C","y"
"RE3PO","R3POH381BA17226ABECD0PA23C21F8BDC86B8","y"
"RE3PO","R3POH7269910C2DC1LC6E3F6088FC4DC3A92B","y"
"RE3PO","R3POHEFCD994AFDA1LE9FP53CC4C5694894DD","y"
"RE3PO","R3POH10E6480B7FD5T2E0A8C63B873E9EAC6B","y"
"RE3PO","R3POH314D7E57FF1AI01A33DCD83879DA4B5A","y"
"RE3PO","R3POH9136E0409CCCLBA5DB25550DB4D979F7","y"
"RE3PO","R3POH677442D68B85A68DPE39C62374FE528C","y"
"RE3PO","R3POHAC9987F6B005L5A9382B6C7CE6C43238","y"
"RE3PO","R3POH869A42ACB108R338PBA28CA9A3F563B6","y"
"RE3PO","R3POHD28BE71983AER5D6359BEBCBD5E40782","y"
"RE3PO","R3POHCF02E43CEA87I95CD71A5BB3CBAFC449","y"
"RE3PO","R3POH017ABDD503D1RA82P4552A44E48A4B5D","y"
"RE3PO","R3POH66FE87180E14R3EEPE8DF06794842FAA","y"
"RE3PO","R3POH36ADC840F735A768P7874B7D85EE99CB","y"
"RE3PO","R3POHADA15E52D276R9C7P21FE76681A3DCE4","y"
"RE3PO","R3POH04BB4BEDE73CEC0BDCEF0285B3821ECB","y"
"RE3PO","R3POH975A656F8C07A541D2A999DA127645CD","y"
"RE3PO","R3POHC1315C617E0DL251AC0783B1646F29C2","y"
"RE3PO","R3POH4B709B2B5605IF9BA7B2B0F53B3FD301","y"
"RE3PO","R3POH526CF7EE1A3BLF3ED536AEC58013EC05","y"
"RE3PO","R3POH5081C6DC9042I6E1A401AF32ACDDD628","y"
"RE3PO","R3POH43D6D5BB6241IF3ED3CDF8A910F03C9E","y"
"RE3PO","R3POHC1BD4F0D94A0RD01P2D323F012E19239","y"
"RE3PO","R3POH08F1EA9DABF0RB39P133E206FF493FAD","y"
"RE3PO","R3POHB4A434EC47D5E3B0A5E8472B3435AA92","y"
"RE3PO","R3POH571E28F3F947T1D83EE858418884B429","y"
"RE3PO","R3POH5E423A70E12BT77FADF86EBD1456E179","y"
"RE3PO","R3POH1D3518A2B588T07EAF948CB9A29DA6A5","y"
"RE3PO","R3POH9BE8462235C4R66FD867008E7C6E8F4A","y"
"RE3PO","R3POH724B2C71B944A356PD5542B4DE02830E","y"
"RE3PO","R3POH34F4F921D9B5IC4CA913A7B4777743E3","y"
"RE3PO","R3POH6ED4C0D498BAI6F0PD8B61375BE360A8","y"
"RE3PO","R3POHB96815E55DA5IA9DP92F79550B1FB3FC","y"
"RE3PO","R3POHFB67F0844746T4F9D0CE7B103602423A","y"
"RE3PO","R3POH65C08B4445F2I4A1A6300DA9EDF97250","y"
"RE3PO","R3POHEF17B47830D1T40AA5BA1B2C8E079987","y"
"RE3PO","R3POH32A6B353C15AT6B6P613FB42172F58C1","y"
"RE3PO","R3POHC5FBBC6238ECR8EE3499DB4A5F6458F3","y"
"RE3PO","R3POHB13A69366857A174A13A64A7D02E1374","y"
"RE3PO","R3POHEB21BE0756B8RD59A55B003C1052B4D4","y"
"RE3PO","R3POH062B12BE5682E6B9D10D90804475086D","y"
"RE3PO","R3POH13261002C99BR099A946CDC896A54B84","y"
"RE3PO","R3POHBB2B4F5AD23DT85BDAD246B30F31ED8F","y"
"RE3PO","R3POHEAEB5150193EI131D45DDD704BE8CDCC","y"
"RE3PO","R3POHCBC830E4AA2DA61DDB9DA60CB5A5B3B7","y"
"RE3PO","R3POHCA77BDC4947CTAA8P53E7DC5AF87EB33","y"
"RE3PO","R3POHA2422B498EDFLC49A0EF6E9C58A8050A","y"
"RE3PO","R3POH98F07D457165I829PB406B37E684244F","y"
"RE3PO","R3POH4F62ECA7D0B9ICFAP0E43E895F15E774","y"
"RE3PO","R3POH83037ED8488FL3D43D9BEEA012EF2E6B","y"
"RE3PO","R3POHA84D58581D58EA04AE9E5D2DDF4774F1","y"
"RE3PO","R3POH8730D3E0F081TF53D4BDE7C1E8161082","y"
"RE3PO","R3POH3B4E386B8F83T622DCB990998F433C3F","y"
"RE3PO","R3POH1EBAD8B76158IBA6PC0591646B92E084","y"
"RE3PO","R3POH6DCCB9705815T9F7P7C481A841399FF3","y"
"RE3PO","R3POH51C57CAF0BF9T3C3349A12B0E4D54799","y"
"RE3PO","R3POH31E365842F73IB83A29B1AC5E0E8F841","y"
"RE3PO","R3POH2E71FDD2A18FA6EBPFCBDC9A9BAA472D","y"
"RE3PO","R3POH0C7C174B5949E481PF4857E72FB2031A","y"
"RE3PO","R3POH959DA63A8162EFEB33F844E819D966F2","y"
"RE3PO","R3POHA7CA4F513853I2E6307E7252D2FE38E6","y"
"RE3PO","R3POH3FC1A3479740R510D9EEAC0DBCB1479C","y"
"RE3PO","R3POHEBCD7928B87DIBA3D7634090A4BF3E41","y"
"RE3PO","R3POH11ADD448263AE6FAP756D0C408F0CCB8","y"
"RE3PO","R3POH45BA6DAC9CB5T6C9PF4C264D052C8BAF","y"
"RE3PO","R3POHEBE4EC3ED638RB85A8AAA0F8C95BE391","y"
"RE3PO","R3POH391629B87B44LD76A2146E8D248B9732","y"
"RE3PO","R3POH95CEE6B607D3T51FPA078BE074C732CB","y"
"RE3PO","R3POH66F9A7091B09L667PBEA54E1CA30A426","y"
"RE3PO","R3POHC9B4621B98C5L0DE32795D17E1AA22BD","y"
"RE3PO","R3POHB34435FC9641AF5DDC6AAB53E99733D8","y"
"RE3PO","R3POH9624B6E92776T671AF49B124CD67E964","y"
"RE3PO","R3POHC34487C83F5BL62BD3798DBEF228B003","y"
"RE3PO","R3POH25F4C02AEB71A382D2DB86326DC57C1B","y"
"RE3PO","R3POH7D993AA1B4C9A001PF0F8A6928687C95","y"
"RE3PO","R3POHDC17EC141CA5TC79P66E7068D46B417E","y"
"RE3PO","R3POHB275BFE3687BR893P9DB067462F6CA35","y"
"RE3PO","R3POHEF68BD7E2DA9RE2FD064B55A74F94B74","y"
"RE3PO","R3POH2B2A8822C7CDLC00AFFB91BFE002C01F","y"
"RE3PO","R3POH75607BB7F45ARB10D049189B55657E3E","y"
"RE3PO","R3POH0A56E5035743LC88A804831393555EE2","y"
"RE3PO","R3POHCA5CDAB177D8R8E9D44C63CF95BDAD20","y"
"RE3PO","R3POH9AFE7D32AAB4I4BCD9C93A22FE1D69DF","y"
"RE3PO","R3POH1BA0AE19B734E0EEA6A963DDDCFFF15B","y"
"RE3PO","R3POHF4AB005284F0T16EP11D6C284995CC95","y"
"RE3PO","R3POH02B196E94E8DA03BPBAA17C0F792C40D","y"
"RE3PO","R3POH72D0580C0A39I05335D4BCBB31AF9EDB","y"
"RE3PO","R3POH7F552BB21A93AF20D6140CADF3BF2324","y"
"RE3PO","R3POHEE6F95EC62ACA69EDD3FAD380F3CB7CB","y"
"RE3PO","R3POH6BC078CF0315REB6A6E8B6FFBCC57D2A","y"
"RE3PO","R3POHF2A50D22C08ER0D6PAA94C0D8F5E4FBF","y"
"RE3PO","R3POH9690EF8D71F7IDF3D95365A49EE0683C","y"
"RE3PO","R3POHBB55063151AELEBED24E356544D8D780","y"
"RE3PO","R3POH8D295CE38B83IE6FA7BE104A6B22F234","y"
"RE3PO","R3POH6CB4BE0149DFLDD8PCCCE233159C317D","y"
"RE3PO","R3POH89AF98930F8DT8AAAADBA2C805A32643","y"
"RE3PO","R3POH5FF6C2086AB1A907PADD6A20050F2E26","y"
"RE3PO","R3POHEF77B7603DA8AAADD0A7AD16714912BB","y"
"RE3PO","R3POHDA107FD9D13CRA99DFEADEBA8D07E49C","y"
"RE3PO","R3POH4CD8A55AEDD9L4D9P0D94B56C137629F","y"
"RE3PO","R3POH707B55DC4D88T8B9AA7A7D4B82680000","y"
"RE3PO","R3POH553FC08DBC4FA28DA153AE2AC07C74A9","y"
"RE3PO","R3POH1A2BB4B5D1D4TED0P3836CCD2E611E34","y"
"RE3PO","R3POH27DEF39B82FAADE4PCE5A8070F41AD8F","y"
"RE3PO","R3POHB183A0925669EAC2D8C49AE4261EBFA0","y"
"RE3PO","R3POHD803291B71D1ED1EP45222696DC8033A","y"
"RE3PO","R3POH3BAC609226C5ABC03C1C43381E08CC69","y"
"RE3PO","R3POH867154D12664AA41D213E2B0E30DBCA2","y"
"RE3PO","R3POH993CA55670DCTDB73578093A6932E7FE","y"
"RE3PO","R3POH79AF9FEDAE4BI3CBAF178E2E95010814","y"
"RE3PO","R3POHA4EEF802E785TCC7AC7290F66D6284D4","y"
"RE3PO","R3POH584A32DD3D1ER58A394046AD0D4C79D7","y"
"RE3PO","R3POHB40AD8BC5EDBE9C5P8142841202D527F","y"
"RE3PO","R3POH34288C6C649BI8E8PDAFD537523E130B","y"
"RE3PO","R3POH6D97DCD030B4AB36A41E2EA2F4084851","y"
"RE3PO","R3POH8E390409DACFE5F7A9269EC97AB44661","y"
"RE3PO","R3POH205CAC8C0A9BL55BD55E5B2119C2475A","y"
"RE3PO","R3POH15E5CF8C6127RF34D19D88DD88A4E7D6","y"
"RE3PO","R3POHBDD9090ED5FCI5B3D47B9D1E9AABA86A","y"
"RE3PO","R3POH675B424CC69CICF13E17D5807C76B31A","y"
"RE3PO","R3POH54E74ADDBB6FL482P74DBC29478F0D3D","y"
"RE3PO","R3POH012231C38FACL4ADPEC795BF68FDEBBA","y"
"RE3PO","R3POH889781C88AEDTD76D93AB4BFC48BC91A","y"
"RE3PO","R3POH884D1B87DFA4EECFA1C1AACBFED91D2C","y"
"RE3PO","R3POH8C21CC0CB1D0LCA6P515B6E7721D9B94","y"
"RE3PO","R3POH3752A60FF663L1A0P0321A0C1B0C0F17","y"
"RE3PO","R3POH864CFE75B13AAD45P39841DB6E55280F","y"
"RE3PO","R3POH405833CB18FDT1A8DF245216912C41F6","y"
"RE3PO","R3POH2357988AA098TFA23D5C7816E5AF44E8","y"
"RE3PO","R3POHA69978377861E611D65DCC67BD4C8CEA","y"
"RE3PO","R3POH64558D90AB60E25EPCAA6AE1A26ED43E","y"
"RE3PO","R3POH3EF3B5793436ED8F3DFCA8EEFD9D48B5","y"
"RE3PO","R3POHE84A28BC29D4R85BP60F8C9AFF0E992E","y"
"RE3PO","R3POHE3839A446627A9C5AC599CABBCF926FE","y"
"RE3PO","R3POH13A1C2B2FE85AB88PAC8E4798936875E","y"
"RE3PO","R3POH7FEDB5DED1F4R11931D5547037576AD4","y"
"RE3PO","R3POH166843970E13T77BD3403A7CB9CA5849","y"
"RE3PO","R3POH9B52482A53C2A794DDBAD77A61BDF363","y"
"RE3PO","R3POHE2D562CB4880AB1BD30B78D60F51F58B","y"
"RE3PO","R3POH1665B1816C8BTC30DB4552EF4E7EECE8","y"
"RE3PO","R3POHD88F1137DDDCI9D0DC5FFCFA69CDD9CE","y"
"RE3PO","R3POH1CF092B21BD1I694A812B6630BCD26B6","y"
"RE3PO","R3POHE19EEE22A258R0D4P19B5055821D9FE0","y"
"RE3PO","R3POH3CA8BD6487F8LBB3P3FBEAC289CB4BBE","y"
"RE3PO","R3POH25DFF955C173IF2CP2674F4B73D53B16","y"
"RE3PO","R3POH1F20C093458CI784P68F7B25D2C5A574","y"
"RE3PO","R3POH943FF96AD21EEF4F38B21F9DFB4BC414","y"
"RE3PO","R3POHDF808ACA3BD3R2593D775C38AA7B5A59","y"
"RE3PO","R3POHDC891E85EC7CE463P0121A5603A5AE52","y"
"RE3PO","R3POH920037062E9DEEDCPBEC5CA4C680CC88","y"
"RE3PO","R3POHEE2875039027A0FAD7E1F7D0DA9F4741","y"
"RE3PO","R3POHFA268E328376L0F2A349A9A597EF03FA","y"
"RE3PO","R3POH9884A8D12FD6R96E37F32D90E10CA3AA","y"
"RE3PO","R3POH3BF953755E4AAB9F383DFFC2CC4B9277","y"
"RE3PO","R3POH7E57124185CDR73FP5ACB37C2C024AAC","y"
"RE3PO","R3POH9BC3E6BA5C61TF26D0DEDA554AD1B7BB","y"
"RE3PO","R3POH6AF33526B446T42D327D3E75DC6530B5","y"
"RE3PO","R3POHBC93DF14B6C2T251P9B1A3E2F65C6109","y"
"RE3PO","R3POH3793C76E3228LF0BA2A8E309ECB8DFE4","y"
"RE3PO","R3POH6B34F6AD519AL61EDCCE33369EEA92C4","y"
"RE3PO","R3POH1928780A00B4I357A34F076A77D1A46A","y"
"RE3PO","R3POH73DCB0A21A44E4AEP88A08BD3F2BC563","y"
"RE3PO","R3POHEB799B608F8BL839P727911BA5AECFDC","y"
"RE3PO","R3POHFBC52C8B4D5ELD24P4CF1F3966C36A2C","y"
"RE3PO","R3POHE15B339BF729AC3FPB4B8CBC602E696A","y"
"RE3PO","R3POH922707BED1B9EA55P167A70A4C13498A","y"
"RE3PO","R3POH3B56CF45C2BDLA8F3FFF73D09C79E3B8","y"
"RE3PO","R3POH95CB3BFA0B05L00ED48D88CC888099A8","y"
"RE3PO","R3POH3AE7E5B25057EF9A3DB87945097830F0","y"
"RE3PO","R3POH89C05D433A4BI469A7429B8E577DFB2E","y"
"RE3PO","R3POHB366DC96E353IF0137BC556BCA16768E","y"
"RE3PO","R3POH4029CFDA3ABFEF1E3006F73EB3D8BE15","y"
"RE3PO","R3POH8F0776A70C12L1A2P6ED1C9ED6F9ED20","y"
"RE3PO","R3POH3858B0591C9BIDF9A76140EB44F8E0EA","y"
"RE3PO","R3POH4C0F346FBAEER5B1A488332D4B461915","y"
"RE3PO","R3POH70EDB1B1D441RB8CPFFB3B4C9B8672C5","y"
"RE3PO","R3POHF3D3536F0265T65630E868FBAC99519A","y"
"RE3PO","R3POH141AECFBDC6DEA00P43DAA32F88DD936","y"
"RE3PO","R3POHD7640FA9DE11RE2FDFDE2A86C2464147","y"
"RE3PO","R3POH1042208C0ADFT6C03AAAC044C858A140","y"
"RE3PO","R3POHEB7F6D76342ERE39D07FD7ED8C9BBF88","y"
"RE3PO","R3POH06CDE13F5D3CA27838B90605737700C4","y"
"RE3PO","R3POHEE51B5578271LB42PB1F3773E47EB1CE","y"
"RE3PO","R3POHCE6E4EDE0655I979A9784CA3CC3F908E","y"
"RE3PO","R3POH557A8C29C7C6I8A0AD426C59E20B44F3","y"
"RE3PO","R3POH72F49FF207D9A3DCAEB85FD634C1E734","y"
"RE3PO","R3POHF681BF7FF18DLADBPD000C864FFF3CE0","y"
"RE3PO","R3POH1A10FD856FF3IB7D3F28C0F3776A64D2","y"
"RE3PO","R3POHF2860B507790R47737FD61CE66BA5EC6","y"
"RE3PO","R3POHB00482170206E7A83DFDEA658DA43084","y"
"RE3PO","R3POH8D09C44D0B35AED6P0E0EC1F05062707","y"
"RE3PO","R3POH5A9F9E247389E914P0E1EECDDF921497","y"
"RE3PO","R3POHD40C76FC6AEDTEF1AA0535A3B3C69BD2","y"
"RE3PO","R3POH51DB0F1621BAI56BD3128166EE1A97DC","y"
"RE3PO","R3POH244EBBC27BABI817A966144CCBA14E00","y"
"RE3PO","R3POHDD1557E7B7F5IFE3D553C3920EAC8B44","y"
"RE3PO","R3POHB58BACA3E79BI84037C06E7F53D3E161","y"
"RE3PO","R3POHB2D0079729CBRA3A3E4FDA12E69A2E3F","y"
"RE3PO","R3POHF8302AF67042T92B3C823932B945FEC1","y"
"RE3PO","R3POHFE9FBAF80BE9T3D6P5450BBF4AC3E813","y"
"RE3PO","R3POHDFDC367BEDA6TD32P7BD6DBE80043AEF","y"
"RE3PO","R3POH4A7E3B9F2E61I4EDP2338599D35B93B5","y"
"RE3PO","R3POH5E169051746CA3CA3D68ABE1086C2E69","y"
"RE3PO","R3POH97D807FABC6CE679A60F5DCF3C8BBE7B","y"
"RE3PO","R3POHDE13C42C6D93E181A042756D6867EC5C","y"
"RE3PO","R3POH4695F69DFB6BRCDBP3D8BD66AF4AB7A9","y"
"RE3PO","R3POHA3741B1054D0TD7438B73BBFD217874A","y"
"RE3PO","R3POH224A91350184TDD1A3C8A58172EF1973","y"
"RE3PO","R3POHCB97BAE6A9A4EBE7A1538CC19AAB06C9","y"
"RE3PO","R3POH5ADCFF51234AL605P9356135BBE7F7A5","y"
"RE3PO","R3POH6FEEB86354A5A49FA79A316A2E139024","y"
"RE3PO","R3POHA89033C487E3I2C9AC6CA6BC5031108D","y"
"RE3PO","R3POH8F9AAD00FC99R0213864128C993B8A80","y"
"RE3PO","R3POH1A460DCCD6E0I9B1DD3E2A40093392EC","y"
"RE3PO","R3POHEF07B96264DCIAD2A5720B421ADF3935","y"
"RE3PO","R3POH64C15FE98BD4A76DDF8888AEAA2D4583","y"
"RE3PO","R3POH1EB75532D9A1E676PED3D95D92C2E315","y"
"RE3PO","R3POH8DC35BB6477DTC55P13872F0FBE206F1","y"
"RE3PO","R3POH735919D8BCBFRA81ACC3096700BADB32","y"
"RE3PO","R3POHCD34B309D5D4L9AB3216921C1B782F0E","y"
"RE3PO","R3POH506E016F8CB5E0BA3E533DE5FF39E5FC","y"
"RE3PO","R3POHF73E33669D9ELF80ABA12AA0717A3108","y"
"RE3PO","R3POH78E3600C71F9EEE2P141ED7AC903AD2A","y"
"RE3PO","R3POHB4919636F9E7EE17P3CE7F065120C267","y"
"RE3PO","R3POHB0D292C0F6B3L10DD417DB935290D6E0","y"
"RE3PO","R3POH584809A0083CL1F1D0B4E8C663678535","y"
"RE3PO","R3POH6F861B71CCC4T2D93BBAAD264EFF985A","y"
"RE3PO","R3POHDF9A004E39A5T616P8685CB5F4ACE1A5","y"
"RE3PO","R3POHE6822A4E3D76AEB6P010FEA9897A52FA","y"
"RE3PO","R3POH85ACBFD47959I98CA505AC357FBA6751","y"
"RE3PO","R3POHC8326D93A3AAA766P3590527F7327E18","y"
"RE3PO","R3POHFC1CF10D6EB3RFA3P01C51A3EDDA4C76","y"
"RE3PO","R3POH79C1CB8DD4DFR220A57269F4D156A24F","y"
"RE3PO","R3POHCCD075BEF783L43DDF772E38C2DDF5E9","y"
"RE3PO","R3POHB87A12817637R1C4P8B32C517A47FA8B","y"
"RE3PO","R3POHCE2399B38B9CA31DA169025ADDC6DA3D","y"
"RE3PO","R3POH98BB6FCCEA6CL92BDCDE227F03389BC0","y"
"RE3PO","R3POHC134E0162829R22DP96F6C2F0369A3F7","y"
"RE3PO","R3POH657CB982109CT9C6ACE34BFCFD7CDD79","y"
"RE3PO","R3POH9CE602EF41F4RF6D3703F297A1E20469","y"
"RE3PO","R3POH70392BED7661E8AAA6160C84B1CDB274","y"
"RE3PO","R3POH8B00097355B4ACBDACA72E2769127AA1","y"
"RE3PO","R3POH0AA1AE1DBE56A3E7D72AD0DE2F854642","y"
"RE3PO","R3POH9C31F81DAE4EID143C1CF84D9376E491","y"
"RE3PO","R3POH4F98A271931AACF6DC8EADEDB22BBBD6","y"
"RE3PO","R3POHBCA0FC1870C6L603AA225574F3F4CBA9","y"
"RE3PO","R3POH88378785BB67R88CA6413E750F13BF6D","y"
"RE3PO","R3POH69909551466DI433P9E14E94F8A0703D","y"
"RE3PO","R3POH6AA778C2246EI77FAC3A66DB21B0BD1E","y"
"RE3PO","R3POH3BC3E45BF47CTD88D440551800E6607C","y"
"RE3PO","R3POH2E27A12BD0F0EE09AA41A285CFACAC1B","y"
"RE3PO","R3POHAC8720D85814ACE2PB5C05A68FAA538F","y"
"RE3PO","R3POHE13120EE6906AB44DE7E90E2D43AA385","y"
"RE3PO","R3POHE89AE1A23060L24737FBCEFC5CA462FC","y"
"RE3PO","R3POH7C6E0EA0E38BE3FFP45066B5B574EC27","y"
"RE3PO","R3POH252E0F6B286FE59ED9C62B72F080003D","y"
"RE3PO","R3POH7931B3158A27E97F384C9DBDDD72A8BE","y"
"RE3PO","R3POH6312284C8019ED073E4DC6A496146720","y"
"RE3PO","R3POHD94321456AEBR85APD98FF2121F2A06C","y"
"RE3PO","R3POH598F8995DD8AL26AP174739CB186DB69","y"
"RE3PO","R3POH0E48E1327A26AFE9A26888665122D2B0","y"
"RE3PO","R3POH09699165E33ER70FD92CE061C3A4B6A1","y"
"RE3PO","R3POHD228D68042AFLA3FP528F6A1C8150FFE","y"
"RE3PO","R3POH8649E36CBF78EB3438A877F0A318AB63","y"
"RE3PO","R3POHE6CA9BC2A074R068D358E2131579C998","y"
"RE3PO","R3POHD4578A910082E64BA7A5175A1F1AF360","y"
"RE3PO","R3POH12A2033F3A6AL129AE0D77D4E02DF0D4","y"
"RE3PO","R3POHBFE893A721A8E717300E57567BF47009","y"
"RE3PO","R3POHD40EA9AAA7DDIDEF32C05991ADBE8637","y"
"RE3PO","R3POH3B9BF0E438F2R8CAD2EF5939ED37F693","y"
"RE3PO","R3POH99BA18883322E69BDE694652997B05F7","y"
"RE3PO","R3POHFC2CCB9B7436RDF2DAAB56B730F60E8B","y"
"RE3PO","R3POHA701B43ACDE3EAF9A4444AB80876E657","y"
"RE3PO","R3POHFAB510E3205CA213A6553BB70EBFCF59","y"
"RE3PO","R3POH87BFEAD4BEA1L731AC487227206655DE","y"
"RE3PO","R3POH9C5584307AFEL99DPE7BC1DDCDBE12E7","y"
"RE3PO","R3POHCA7307F947EARFB1391D0C9D163FD071","y"
"RE3PO","R3POH4884CAA13508E9BBD92AB3E5F60DE022","y"
"RE3PO","R3POH0E4BAC01E536IFE7P0DD5117F4E54B88","y"
"RE3PO","R3POH7FC1B602B6F1TD3FA43579CA517709DD","y"
"RE3PO","R3POH90FAD3D12DE3A0613F9525F6023064FC","y"
"RE3PO","R3POH2A6EFCE78AC9E2E6A33E075AB8D09392","y"
"RE3PO","R3POH57439453C782A189355C73FDE6DDC8A2","y"
"RE3PO","R3POH6982EB64408AT47FD89D1067BCD76BBD","y"
"RE3PO","R3POH9FD75E3BFB9BAE06D6A77FDB58417147","y"
"RE3PO","R3POH07A32F3965C3REF8A0A36F94DB6E66B8","y"
"RE3PO","R3POH7DBAAF637828R86EPF4D54FDF5E37EB7","y"
"RE3PO","R3POHBB524DBD4E83I901D3C23ABDA5926EF8","y"
"RE3PO","R3POHC2F4D18079D0A26CPA9E9F117E611D23","y"
"RE3PO","R3POHE252C2DA2FBEL236D8E19D577DC86069","y"
"RE3PO","R3POHFBCE25DF6DA6L74AP2001DF908E6B8A6","y"
"RE3PO","R3POHA7924734F8FCR609PA9D44CAE276542F","y"
"RE3PO","R3POH2020068FEEA4R405PCA95304D4785CD8","y"
"RE3PO","R3POH4F267DAAD2E9A799DDFFF50EE488B3B9","y"
"RE3PO","R3POH6A26D2DA4970LE5CD99CF5C0CC501231","y"
"RE3PO","R3POH152AEA4BE8CFT60DP3D68970F5BE378A","y"
"RE3PO","R3POH22E330C5E259I72AA19AA507F3C746AA","y"
"RE3PO","R3POH8FE9EAAE2008R290AF7A9B44F7E3D909","y"
"RE3PO","R3POH0AC454A9ACABR8803D2426025D9896CA","y"
"RE3PO","R3POHE83B344DEA2FRAD231388EECC42E6A0F","y"
"RE3PO","R3POH62A71510EAC8R6C632E7182497C19FEA","y"
"RE3PO","R3POH7B06C0AEAFC8R9323E4938F1220AD2AD","y"
"RE3PO","R3POH2BD7615C3743L843AB6B63C2A47C3F4E","y"
"RE3PO","R3POH6339F5635E33R342DDF895AA31BB61FE","y"
"RE3PO","R3POHF033BA7F5E71TC15PECEEE662BF40E4A","y"
"RE3PO","R3POH008D05954E59EEB6DFF409BDEB1A26C4","y"
"RE3PO","R3POH6487B95883BEEC3CP4410A714DD9BDC8","y"
"RE3PO","R3POH8FB08BC9234BRC61A7AB9489892C89C9","y"
"RE3PO","R3POH3BF49A45B3E9T915D5F8559260D0BC53","y"
"RE3PO","R3POHA78774876A66TE4D316F5BF757079488","y"
"RE3PO","R3POH93B344D023BDRC2AA7A484D49E71A058","y"
"RE3PO","R3POH61E359506339TBC537C0A1D35459F057","y"
"RE3PO","R3POH63CD0E0FA5A7L320A91DAA578153AFA3","y"
"RE3PO","R3POH18F23497AEC3RF423D6852B7E79F5155","y"
"RE3PO","R3POH298C63AEB18FA5AAABAA8EBA0014F1BA","y"
"RE3PO","R3POH101B1490823ALB54DA82F28839AA044B","y"
"RE3PO","R3POH14C0D11C27D6RCA03F02F71B146EA29C","y"
"RE3PO","R3POHAB780F416229T13ED518664F9927A99A","y"
"RE3PO","R3POH19082245FB65EA00DE0320340C42C0BA","y"
"RE3PO","R3POHEC3864BD9E6FA243DD60E57C7F0002D3","y"
"RE3PO","R3POH3C308438AD26T167A09DD08154F77EEB","y"
"RE3PO","R3POH14C3DA246519A57D3970EFA6FD681A65","y"
"RE3PO","R3POH774EFEACB7EET745PA5AD26FEBD5A40C","y"
"RE3PO","R3POH1A657B235A43A114P07CE33E9F7E5D1D","y"
"RE3PO","R3POH6539B873B3BBL545P73D178697866A78","y"
"RE3PO","R3POH0277845C08E7TDBFP81DF848792E9DF7","y"
"RE3PO","R3POHF89C8CF1C401ID1FP78344773DEA4798","y"
"RE3PO","R3POH4F116AA8C27EE9BFD4B5F2AB387B26F5","y"
"RE3PO","R3POHB99865ABD68DTD52DB2D5FC012C154CC","y"
"RE3PO","R3POHB5F976508C84A78AP5F3443244E1C321","y"
"RE3PO","R3POHFBCEE59250A2A0CBAF96863A0D2AE7A8","y"
