R3POR6E2CCAB6AD70LD28P23FCCCD1A7606C3
R3POR5157C77C64E7IB99ACB51CDBCA7789F5
R3POR3DAC857CE421T2F2D4185315D173D77D
R3POR4E565AC5B52AL124P4F41B1DF0A5A75B
R3POR790100ACECC6AA15A9170BEE87459B31
R3POR05A565FB786FLF6CAAE971600DCE141D
R3POR7A3F3690705DR3A4A13CCDC2301489C9
R3PORA70BBA0D075DL60BP75250AAE3D6DFC1
R3POR989DFC662C6BED8FA843A80A38C9E0D8
R3POR11954D56DDBCR1FB3D476B24E0FE9DCC
R3PORFE5586A55806I73EACE03B4D19ACDC5C
R3POR4D6176685ECEICC0D7AA366C6EE87191
R3POR15BA789061B0E7DDDC13AF3723316317
R3PORC32ED786CF61E9FAD19E2D7F7D6EA71C
R3PORF2F6888D51C0I471D12D1718954AFF73
R3PORFBE72571B954LB933C7568168EF8CFFF
R3PORF9BD5B0ADCB6IBDDP102725FFDE2C36F
R3PORFB3C9680AA11A4D1D2975F44FEE59217
R3POR95FAB7082019I4C5D9DB774E0D78F0D0
R3PORCC09729CFC2CEEFEDA9535DB832BC0F5
R3POR71E283AB9366R021DBC52324634DE2B2
R3PORE1FFCBA23BB0T60A3E36D451A822E3FE
R3POR99D23ED500CBLF823E11C1F4A60022C1
R3PORC60ADB767AB8LF2B3BEF7088FEF5268A
R3POR319D665A8F16RFD8A56A981A040BEF7A
R3POR24FB3D1D3E70L839P81B36E407E9EB0B
R3PORD2238D222F64L44CA846236F49C68E96
R3POR4464A8D945B4TDCCA92D8FAFD0B36C28
R3POR54507D974E03E3A836E2E03CE4EE860F
R3POR1CBA753E20CDR814PE553CD6B4DFE9EF
R3POR8618770E3131E925P5DA0C8CD5DDBFEB
R3POR1C0F0605E1AFR22AD9AA001FED9898FD
R3POR4E0550296F52TFD6D24E122C9B08BE7E
R3POR0279C3B2D208ECD8AE5248D5F119300A
R3PORDA8A1EA3B464I5F9A41094C940F4F633
R3POR658E8C433E89I032P24942545949A4BA
R3POR8EF509FE5AECR2C9P811D6360C9E24DE
R3POR30A9CA02556ER027P1981B0E90029186
R3POR5420AEA67FBEA685P253A59955BFC189
R3POR6144692F69A9TDE13A8B4208C14F5181
R3POR6008B4C20901R634P1E92E8388E25D2E
R3PORA3F1B516B830T6D5D092951FF9C8ACBF
R3POR165E49F21443R1C132A6AE4959CC5CA5
R3PORFE303739D499EE59P237F28D183FEB4B
R3POR5D6B4B2F2BF1T9FEPA40659C9E34DEFD
R3PORA33BC7E7D53EIB0APE1AD34E6882A1DF
R3PORA8B05A09D21AACF4A258B1E7DFC91666
R3PORFC89DC1CD8E5RAE8P8F75F19972D8B63
R3POR8CB9012EF395R14F38639B64759C7C02
R3POR34EDC4B8699CLA643F60719BA343326D
R3PORAD0D9EEC19FFA3D3A1F3588CA5CC838B
R3POR64696EF87F38I3CEAEDDE9F98E7E97BD
R3POR934A6C1EA4DDAC74PF555C05B75146AC
R3POR9EA90F6240A6EAE732F8C2B0CC46668D
R3POR9FB260F3CCD5I8F5PA8C9125F4604FFA
R3POR0ED3A681DF1BED65A7103D32A40FDE17
R3POR2BCAE0715299I1F5A11ADD8FD945B23F
R3POR5C66E6490DA0EDB3P63B4B555066B51E
R3PORC605B5A2F410I0AEP3F14C7B16ADE5CB
R3PORB48549F623EAE705D5A00138DFEF469B
R3POR1F0FB5C46A90L2F3AE12D90078DE6956
R3POR91153CDCF8E2T701P45E302013152694
R3POR02CD3AED6AC6A426A7EA8C2E44B17320
R3PORFE66DC7723D9RD0BP61E61B6C4AD45D8
R3POR1C96A0C18A8FE7F4A8796C8FE11D7957
R3POR940E6E2A3667E6F9ABDC7E49483DEE17
R3POR4B950982D6E2AF66DE4C5D93AB97830C
R3PORBD285BC692BBL4713BE0A0178600129E
R3POR1005ACEDFCEAA2743A70EA6029A43D79
R3POR6FB569C87F3CR883D5406393E28B528D
R3POR10F069BC0938I249357E640975DDFD70
R3PORC076ACF46F18EEDDD2D6522C766FBDD3
R3POR2EE5A9DBEB1BL054DE1A04CC67444192
R3POR9A3F9F052435L0E8D86064891F23CFCE
R3POR99541EB05BDDI81ED93BFD3CAC835D59
R3PORF6B1D1A5CE5ELABEP7AAEB137870C45B
R3POR4F18345C3140E231DFC7BA14533E72E8
R3PORF4BED551FD20A55A3080A0C7548BB70E
R3POR68E04C90FA4EAB84DB3F99B0D1B0DE23
R3PORFDA4B7E3C1ABTFE93778FC37AAC61E7C
R3POR546F72A567AFL9D3P8A9A6F56622C5D7
R3POR1DE775665241AE9F3359ACEF3DA979EB
R3POR45DBB4E02235L0FFDCB00CA10E77EED4
R3PORF6D0240EC3BFL007PA46D1AE8DB6EE45
R3PORB70B6FAC3615T866ACB0EBCE12C241CA
R3POR964BC56AC214A9C9P9BEF907114D5740
R3PORCA14E99B6BF3LDB9D7E40E1A8903D591
R3PORB97EAB5D0D4ER489D01F60A819301E17
R3POR20D5DA9739ACT5CCDF3E34A89F13C742
R3POR983288BEE0F9IE70A2C6EF7C92B5A8E2
R3POR9D248A40074EA0EA301FA03D0E8A608F
R3POR941367B82B65A07AA3D10B7ECC257365
R3POR3E01D99B5D60EEDAA0997046BAF1C5B3
R3POR8F0128E5C2C4LCB2A034472FCC7BEEBE
R3POR39E77EB11083TA08A44FCFF665402E5C
R3POR009751E37666L766AF4505692F34E310
R3POR12F9EE7C9102T3E433CFDF81937C3138
R3POR71C93B20957EIE50PBDC6B6C66EC924D
R3PORB87720936747L148A234DA7152AFD447
R3POR92DE9706695BRA49P2666190468E0D0E
R3PORB64A2925C686R59CP71894966BCD737D
R3POR954809956DE6IDD0AE7FF68096F73770
R3POR945F11EC041FT37B3D1DEAE96CC99120
R3PORC904410C3501TCA7A800B30DB98CC01C
R3POR587D311F92C2EC3CD7F3C9DEBBDB58CB
R3POR0D09CF5EB0FBIB7D3331CA78FECAB3AD
R3POR72FE8871F620L10DP9CA16EBCF81DD2C
R3POR98A84C0FF46BRD2FD7DC13D341985515
R3POR881D1798B544IFD1DB22F9A800957ECF
R3POR74D8146FC33AE027P22AE73B5C6D0C3B
R3POR46440C14F59DR10338CD9477C5E8E4D5
R3PORE69F56D0EFCEE7A23AFB59179AFD6A94
R3PORACAD15F9F4A5IE15379EAA011990D885
R3PORA79518CFDA7AI880AEAED35CF2631D51
R3POR8A2F142A9533E4A7PDF5EB5BD079251A
R3PORD2ACD3408868A9E6DF006ED962B678D8
R3POR42F425E00027LFE4AEA837B0CB18059B
R3POR89447676E0A5A2D8DDB7407D092E5AE0
R3PORA04860288B2FTC873BE31940FE6FAA04
R3POR6D5CB22F92F6L20CDA41470B342D2DA4
R3PORC600AAB9F1F6T475P4476A5DD226DD07
R3PORE414DAB41E15I3FEDBC6E6B19C7C99F2
R3POR189DDCAB6639R9ED33FBA93A355AB25D
R3POR011A8B55B80CAEF73A623F5BECEAFB6A
R3POR9EBD8F54DA42I340AF0022442CB0DBD5
R3POR9B89C109F087TF4CA8E107F306112EBD
R3POR681E89649B81A11EA028E65614E427B7
R3POR07EB7D581BE7A3C0D22CCF2E729B0ACD
R3POR8128FDF6D8A1ADFDP8FE5200936B801D
R3POR6B631FCBB430AA36AAC054B0DD6BF511
R3PORC6FD76A8DC8DT1DAP3FF4B9995998DDC
R3PORA1719BF86CEFI0533992348EC7C7D07E
R3POR0B5DCE7CDE3FE7F837A1B689C3CE5D64
R3POR368A0646486AI625A85F38A2098FF745
R3PORF22337E29ABCR092D484E3EBDC0DABD9
R3POR5979B7128700AD4EDEADF4763AF15397
R3POR720EE3791408L9CED8AA3137731B1195
R3POR7A53E4DA3423R22DA37E1E718284F62A
R3POR045EC4F04BDFR522AC6E52B270837B60
R3POR8E6EEA130C3DIF1431BE25780B866FE3
R3POR4787CED40422LE8EP8607BB9A1D76DE6
R3POR70F10CF6C0EDL765D34615D26260C3DF
R3PORB4DE8B1DFCC4A7A1A503C603DAF36097
R3POR8AFC94CDB2B7L28DP93AE662E7E32054
R3POR3D7DBF14BA9DE13A39699A9E59C2A932
R3POR8A168B067F32IEF1ABAEF8D6FFED40A8
R3POR443ED6CB9BDDE4D9D17A37124428EE07
R3POR816C45B7A3DFL8153413DD8FDFC06384
R3PORF04F93A8DB4FRED6A3C3AA837F7B69E0
R3POR8A12D003B4BAT55DPBB0A98E1B09DB7B
R3POR8A323616AB13EDB6A4F71B5A3EF9A5F0
R3PORCA252C62951FL34DAAB29C1DB27CF6B1
R3POR019667FFA99FLCB2PC80F0641EE199A8
R3POR1BDB8A5D0AC5EEF5A7391326AFD232DF
R3PORCF2A920AD363T72DD0F5FF81D7C55C61
R3POR26030B0C365ELDF838DB500DA54DE7A7
R3PORD105172F86D9T8E433B9B781105456E9
R3POR61E284C8A031L82DAF7078AF79F7BAA3
R3POR30D41B109A0BT8B4AEC8834950561E11
R3PORC5894349156DE3CAD779EAE8D2754D6C
R3POR7FD80FC979F5A105A65C8303708C4825
R3POR869AD496E774TB8EA6FAAF9669F6FBD1
R3PORC3BAD8EA7008I374DDAEC28EC076C088
R3PORC79714DABDD0R311D36C6DB560D11278
R3PORD5568D3BFDEFLB63P0A735A217B80D03
R3PORE52AAC1E1FC4T60BD1B6C18656A94A39
R3POR195F6B93932AEC2336396919AE5915C4
R3POR719AEA8D5468R7BF3495342FD3D50C5A
R3POR03D29614548DTA71P729E75EAFB3E2DB
R3PORB8A01BCACA90T86BDC98328BF11077D9
R3POR6AF0DDD8CF13LD84P40F8A5E4372B2C4
R3PORFF10EF0C3230RE3533030A6C4D73C86F
R3POR8519C097CFFBLEFADB3C8AAD47FD4D30
R3POR014B553F831EAD08P862F027994F604E
R3POR309189BD5699R13BD8183AD48B743501
R3PORF3E49E23290BAA8CD4F27D1CC4B70C05
R3POR029331090CE6I54FDA0C5655A0B7BBE4
R3POR653E0A284BA3AF3CD23C997335A96ADA
R3PORA96F9A341D0AA210AF1520A8C4E855B2
R3POR18996BAB757DI31CA57FEE277282C3AF
R3POR0E209B6A5086A392DA4ACAF3E9B5F5B3
R3PORFCADAAE2007AE623P4005A03EED199FD
R3PORA57047F9E97EA4AFD055D19FAD66FCFF
R3POR2874F4B56A82I7EFP5EC8D68E0874286
R3POR2D55D9D260B9LA6BP68412F5A0FB312B
R3POREC6F648AC32FL49437F58053FCD0EB4A
R3POR6002CE4E2406I4A2P418BD4AA09C9A07
R3POR53BE97B0A78AEBDBP293CB2D5CC3F445
R3POREF637984ED15LD47A3C93C84070C0F6E
R3POR599E37E1A6F0E84DPEFAA926B04DBB51
R3POR1B7902C11CB4T8E6A5E881F339015B9F
R3PORAB25DAC65EA3T5F4P25E660CFBB644FA
R3PORECE51935EA46I8F9A87114AE9DA7E42A
R3POR2935E2ADA0A9R603D3453261EE27C421
R3POR22645B0F8DA6L31837B085992EC94698
R3POR81EE900A2267R3F83016A662836F9F52
R3PORE13D649BA307I8F5PA4DC7139DB87C41
R3POR63B67253066FI989A190A9110FDCAAFC
R3POR3A073DD772F4LB36PC43E4CACFEADD6E
R3POR4528C2FACE99E6A2P2F25FC24BC779EA
R3PORCC9EF2903D3FEDD7A306DC6A8416ABCD
R3POR608AF06AB511R202P3CAC7F37525998B
R3PORB1EED5DB7370T19B348F1094A2F8FDDE
R3POR13CB00176BA8TFD6P859605C702B3B6A
R3PORFBE76D2732A0R212D103CE594ACCFB46
R3POR2CD8085D164FEE23A69258DCDD705C15
R3PORC920F19D93AAL466AC087DC247D6369D
R3PORE79A0810A70AIE7EPB1744B477A057BB
R3PORBC2EF92BE5C2E68BP36C38EF737F1071
R3PORF3E3A3F93411EE97PA7AD981327D5922
R3POR7F1C966B1563E2EE39C741515528DF43
R3POR2397D0A0125ER0F0DB714D3164CF201D
R3PORCD955F4AFF30AE24A513B9CAFDD236E8
R3POR2730FD173452E49EP90C1E1B05924DE7
R3POR1C0F10427D91E017PCC00FB7B7FE8DA9
R3POR1762351F5852TCD3ACDF4E107D4B818E
R3POR213FF4A4A312I68FPD83319A81F43916
R3PORF3E5E2DD248FL638A9823069A15570B4
R3POR12162A54F9EEIE16D2D416F9884B5069
R3POR4609F9930913T846A126F474DE9ACA8B
R3POR92BC350D2D4DE721AA500FAA1BF0CAD5
R3POR0CB333ED48E8A7F1ABF6E73098D21F85
R3POR484E87B55105R2E2D690C26980BEDA19
R3POR1DC427087F26A058D753D938013D441E
R3POR8BA7749179D7L893AAE50CF594BCDB8E
R3POR4007010539EBECD136FBC03A2624D7CB
R3POR48C8F6BCCCE0L48ED3F57C0BFC636207
R3PORD91B42A20379EB33P7DE29585D6391A2
R3POR14AE94C324A3E57BP0FAB0764C1D9CAA
R3POR5132CF00870AI2DEP0FC6B76588064AF
R3POR299BE6456B9EIFC03A86AEA28F9C889D
R3PORC9D75BDA0068R4BFP60BD14AAC4B8E92
R3POR29C9A1CD0E13A361AD57B0A3DE4563EA
R3POR4472EA5B0918IA103E5715B97FE847B3
R3POR7EE2982EFD3EA757P8620787F09A83C0
R3POR408E437E8F28LFCED255CDA793E3FC52
R3POR82DF0EA19B99IA6FDDF6570720974CDE
R3PORE54E2EC547B9RC563CC6DF9D97D4953B
R3POR58A2484565BBT5963B71913DF21772C4
R3PORA53B078923E5L77ADADDDF26A52B5586
R3PORDF777E7E69E2A045P3B1715704F19AC4
R3POR4A6F153DCEBFA6FF3DDA8E73B5B5FC55
R3POR8335F8B2A00DAD43365C7DBF39C42D72
R3PORDF8D425DEE8ET81C38A9D3BBAC0E24A9
R3PORC655D18564CCT3C03158A7EF92418E15
R3PORCA01E96F1066T376A8F5C95EAADC3E5F
R3PORA19DAE43E7E0IFEBPBC57CC6BFB586B7
R3POR33CC1138C045IEE7PE51CAD91738FCA9
R3POR0DCBAF64F25BEDEAAE3B60C643BC093C
R3PORB94F23B8986DRD45A4A6693102877BB9
R3PORDF70120EA752R0BCD2983EA890FA6A7E
R3POR5D10335A17A2R0FDP813E6675A1A1C18
R3PORD27A64EF172EI3EADC32C415D21AFC8B
R3PORB70D4FE21EE9I2ECD5A67C1954CF3FB8
R3PORFC06FA0C567AL334D3D33B388B62FB1D
R3POR5EB00AE54DD3I64AAFDD58BC55F9351E
R3PORBAE45F97C02DACD3317C79D0F28EF6DD
R3POR17A37730C51ALC67PC0C640B7D78AA4D
R3PORB0BBC015540ER4193AC606A04405E010
R3PORAEE1BD94B50DE2D1P348D3287E6CEDB3
R3POR483A60EABD59EDB3A0F2400B505498E3
R3POR73FCCD52F005T0463EB7EC2029550B74
R3POR06ED189CDFA8R79530F033A76F864C40
R3POR92BACC3FD150T66D3D7D76259AA28653
R3POR25BCBEBBC99DLC1DPF56886555249A00
R3POR522D43863F63IC093D5AE54C9CA49A80
R3PORD65188C6BC3EEE7CP7A966789CB0C0FF
R3PORB13647D032DEE024PA6C2E6C6106B0C4
R3PORAF693EBA695DI17CP6D03426C7422C93
R3POR0B53B2104DD5R1A13B0C10A404B62202
R3POR914F4611AB41E7F9D4218BB7B421EE34
R3POR7BB1866E5288L357364D528264B22591
R3POR1A495D692CE0A507A503A9D166F69FE6
R3POR6FA0F6445DB9ECE8PEBC9B4EAD701800
R3POR25199A3D9C2AT990PC6ACB23194A6D84
R3PORE11E3746D29AL2D533AD634A3A99A6D4
R3POR003FE0038479I5213D583DC909533D8C
R3POR23FE2CE7395AE4F837CB36930D9FCA34
R3PORD8F692F6E5F8ECFDDF423DE4004D7032
R3POR5E5DA278C44FA40FA8B895D34948785D
R3POR0A5C51CCF896TEAAA77E05B04215452C
R3PORF8060718412AE8B9P6BB5C08FDC6FC89
R3POR8F8D7FBAFF39AF15PA0BB34D2BEEE648
R3POR7021DFBF44ECTB5432C5D2105D2528ED
R3PORA2784FCA087BR2C3A4D71DA77E276E61
R3POR4A4C877FB40BEF97310BAB2EBD4A5852
R3POR568481ECA620RABE31A9553FC158AF91
R3POR534A7BE2A578L553A2F46B03C85AF9B0
R3POR4822A096D0BEAA28A59FAD082C97D6F8
R3POREB0465EF0E86IEDF34D6E20A006C5C05
R3PORA4A498E85D51A39BP8D9CDD847351D1D
R3PORE1992209327DA3C6PACEA69F0C1FBB28
R3POR29A06F4A824BIE9239C1C0A8AD9663F8
R3POR6756B1122B0BABAAD71C7B35D7D7E810
R3PORDE7CCB29CEB4L634D6904E75A15950B1
R3POR8A5B76A938D5EEEFD5EAE5AF98260675
R3POR5DE7940AA84DT02FDE2989EA19C39A40
R3POR7BBA0C46FAD8IBB2A882B20F194122FD
R3POR9C61C2A4513AE049PC8D01CDC08519FD
R3POR1E1E61B4B308T813A5C821923C476D75
R3PORE443626C7E08R2A8PDABF3E206CBF9C0
R3POR58CC051C76DBI443P82012DD7B6C8100
R3POR02DDCB8E7D3CL8ECA195170FFD1F904E
R3POR8186BDE4C881T1FAPB5D0D8367E50A76
R3POREBF0697455C0AE2APB51263935713150
R3PORB1E4BE57B7A2LBD1D0A463A65583C9E9
R3PORAF182A29C86CEE4D31F7DBADC22FFBF6
R3POR6751E3A4D7D7R4FC322FC9517C5D3B2F
R3POR8D58D1B64F60LA653253FB033E108FE9
R3PORC4BCD80946F4T508P4C96876B7BCC1D0
R3PORF916C60063EAE3F73E92DEF0FDF7F9F5
R3POR826791448142EA1DDECD98B7B6A645F1
R3POREAA6B5CF1A7ATE97A8D7ED17CD6F8069
R3POR8410FDBA785FL4F4DA0D6BFAFE158FA9
R3POR10EBE6C1EC8EAACED9C1E5A5C44C029A
R3POR9B2D38326CA1RD79A5633A2A4D0499BA
R3POR42E337729C3CID44D88391B33E5313F4
R3PORF137968913E2R927D94895BED5114876
R3POR13A85EEBC079L243ACFE723F76C9EE8F
R3PORE4F60FF3B27BIF9CD63021A27752128B
R3PORB2C16B31D17ER1CF3DEA5D9E3A1C4674
R3PORFBCD4B287E82EBA1D43FB15CA930CA8A
R3POR1A74F9B003DFL4903740C953071CF510
R3PORB668C85E0843E66A3A93B23C623D469D
R3POR06ADD051254FE48A3A28B6B9E65D15AF
R3POR75AF18051001AB473F1BB70F8FB68084
R3POR7C94F279C347L2A4P6E864351AB0380A
R3PORCB5385D4E66FR93DD5ED4468AD6D699C
R3POR90D571645262IF87324D1EF25C03F5E5
R3POR32BB7799EE08E1FBA94BCDB8B6FE8520
R3POR1772601A621ERD24DAF1417D1D91D74B
R3PORD755AAB7915FL214A71341F77B457E2C
R3PORADF4F76029F7IB86DFCFBF56B637F112
R3PORA63BABB6E21AAD7AAFF5D57A7E59A22B
R3POR517FFE7372CEI1FC33B6CF107C1492BC
R3POR655ED060C2AFA71AD5958B0F28F3F208
R3PORDE42D2188300TAFFP7612135618C14DD
R3PORF0AC7942E7BFA307P030B95CBA4ABB13
R3POR243354C56411IB66D6EFBA3683581BED
R3PORD79153EAEFEBA034PA97DE09EA92E6D1
R3POR3EB3C325FE17T7BBADDF810527EB8313
R3POR472A6B044DF9R502A9C29FFB155969B5
R3POR8EC24793AF47T5ABA92169D9C8102440
R3POR18FA87E3C384A1F6ADE06B4525F123B7
R3POR9CEE554AF353R11EA1DD18508BFE3A84
R3POR6F779162295AA5AD3CC807F8CB11B89A
R3PORFFD58C337725TD1C3F01A24A12767897
R3POR1CFE6305384EA2ECD2DF0A8245C3A4B2
R3PORDE01D4D87C48R30AA1A227228D1F06A2
R3POR915CD5D0222BE2C0D422BC7E9AFDF4EC
R3PORF08626D5ED2BT4723A2164D25C91264B
R3POR2CFE888E9B19AF27D13E0BB26C925D70
R3PORAF85E39F36DEL1AC39083D605D2381D0
R3POR6D0EFED453DET29DPBFDA599C3C7CEF3
R3POR69F9D6A3E92CL78BDAECB984946807FB
R3PORF28F994AB8B3AD92PC2785DDAA08D6B2
R3POR72AE0D6B52D3T8A4AEA424F7666A9530
R3POR1687BFFFD05ET6CBPF00E93FC07B51FA
R3PORFF86AEB292E7T807PB6C46D2A555BD2C
R3POR1C3F1A316318E341P9A8EDE03CAAE926
R3POR747160CC12B1E9023CE0D633C85EB774
R3POR0C35E4A78248A39CD43718C9F994B897
R3POR6F6F0C3E7E75T9EF3F259C414B1F2A7E
R3POR03A05009FFEDAAF632D7E031907C426B
R3POR980708B8B6C2A85APB9A58E8204CC810
R3POR4348976C1E53A7673F76ADC4A109D616
R3POR07C3773BEEFBL45FPC3F1F6A3DD437E2
R3PORD258B409879AL10A33B6FA00C494E004
R3PORE3F931DF0DC5LD35AB51E5C947079E64
R3PORBD74E2116AC9IA76A43654AD9F7859FF
R3POR302C520E7BB3LFD3P5E495562B7C091D
R3POR7119A518A01ET0F8P2338C113DE92EF6
R3POR56369A51C60CT049A07C196B7C472B29
R3POR1BD8C5FBD839AA19PF825B02587D9D5B
R3POR26974C31991BADF4P43195E5586A120E
R3POR1ACB2C9A2123REF1AFD03AC327DF568A
R3POR4480F8D6BCF9ABDDA506051361B9DB6C
R3POR31DC4AC61FC5E3B43C87AE9C89944116
R3PORE994BF316375AB853680BC00075E5B59
R3PORA8CFB29F4507AA4F3286D1E6D81FFD1F
R3POR8750B3E789CDT085D6E3E27CA1C62C9A
R3POR20DEC89C468AL5A8A72CC981F16547D7
R3POR8F44760D5098RF65AA183DB11614FC62
R3POR6B44A936B6EFAFA4370CFFEA59F42582
R3POR4A3DE70502B8T992D5B438A1F09227A4
R3PORB1FF5F26E867I7F7DDEB17CB5F4F4A1B
R3POR36EB4D1D48C7R15AA08676C11A873733
R3POR513C6D4FDDA6IC14A4090E7513403258
R3PORA771A409AA37TED5A232B461C2D0A015
R3POR7CD909A8E002EB98D78E479F7814A733
R3POR6CA54E55AC8CA11EDD647617FADEB1E2
R3POR7E2C9D95AE4BAAF638A64A7E73187BCB
R3POR771E9FC27A06R0903671C2F75D532F10
R3PORA778455A4966I74CA7F1770DED955DCE
R3POR72D07B1B4E31AF2532670CD69513D921
R3PORCE58497FEF3EL3393A50BFD359AC2AD0
R3POR2BEC8E16A2C6RFA0P6C74E6CC409356A
R3POR99B066D047CBA2D0P516B9E4E769E1B0
R3PORCFD2989C6C69R89FP1182F0173640E30
R3POR0C56CEAE1671T8FDAF693E84A8E17F0C
R3POR18DEA8E15F76AA0EA38ACBBFAA198ACA
R3PORB02C65423389RD493F3578797F00FFDD
R3PORF30DA7CFB989A0B0P58DC769A968A497
R3PORD8947166E3F3ICDADEAAB6C42A79B8C2
R3POR085DA9358ABDLB36372BC6F378C0E6F2
R3POR14A4507ADF20T86EP2D1232BCD520C1E
R3POR725B4CD2427BT002PF1C91EC6AE9A82F
R3POR0B01FF826BF2TCF837783A85F0117F50
R3PORA6B41A68A029IA22DA0A9A021B5C6DD7
R3POR4B70E7D39ABFA77932F77830A456BC4D
R3POR94290BA6CDC6L7D23B591317795549C4
R3POR9E231A15A119L558P21DEEA39664BC00
R3POR3082097373E0E81AP4079A939E10EB9F
R3PORE24A06795442IFB338F1C9312482509A
R3POR3C18198B5AD8AD98DF6BA6757AAC9292
R3POR9AB9F98844A9I3AFAF0F81EF10D4185C
R3POR079D8C2F4D0CTC9D343830A2028AFF46
R3POR02B15652B300R8F1A7FDF1C3DFCCCDB4
R3POR484FF9947ABAIFA5P8F206467747AC99
R3POR9CEB390CBBA4L6C93D4DD23978E19360
R3POR176B1DAE4695IA99D07AC0A3BA4218E3
R3POR2B36EA53B298RF2AD67D259B2934D5C0
R3POR06C64A055C1AE7793239F746C1EA23A4
R3POR4C0AC7B77F72IF96PBF9C0FBE8CD9CE4
R3PORAF8D84927B64R7BFA0ECBC21C80709F2
R3POR9C2BF3983A67E4F2AA0B6CA5A1CFBE55
R3POR6DCDA0E337D1E0EDA0549B5C16F8FEA1
R3PORD923F61419C1I881D1E9EA40E4FA7C62
R3PORA14F6FC349C0T4EEPDC5B5D4A96AD752
R3POR8D0FFA8C7735R8DA37E19A290E1A3D1E
R3PORBE26863C538ELAD7DC311B5635AAD65F
R3POR07E2700BC94FEB59ACE63C69D4BB1302
R3POR493B56A392CDEA8534E79D1E71EBF47E
R3POR121FF8F2AEF9A0B0P92038DF0722E85B
R3PORD83640334F61E52AD7DB07728A6F4434
R3POR94CA09BFBDCAIE21AEC16FA07978EB4F
R3POR473D5EED426CTC8BP571DB734EB0BC57
R3POR3F55BF46C645L27EA718F79A18C4751A
R3PORED2B4E6378B3L11CP895FB15F53DB5B4
R3PORFB250E3C79C0E8EE30BEF55B8DE168E6
R3POR8980664AC7C2I02CA522FB159DBF313C
R3PORA5C9C673D3B7I35BD8B042C005C0DEC0
R3PORC9E211DA8AAEEBE33E7405D0B8AD34BE
R3POR4E4C14893E05A9943A381E7F6C5663B6
R3PORA9AEDBBBC81CAE6F36DADF7DB11ACFDE
R3PORB3861B1FDD73TB3DPC9EAB812482B14C
R3PORBB4D5DEA9F03R6A83640575EBD9CC313
R3PORC82CFA3C1505A93ED11F2104D052B630
R3PORFAD343A9CBF4R94C3DA86F0A686ECD2F
R3PORE00640CD27E3IB59D348677E75C1F32D
R3POREE7A9D3A5EB9T79DDDC7C5566F5DD909
R3PORD4114DB1B8F4ICF03D6D3695D0AE1733
R3POR18032C4FB8AFA5F8A026FB930A012AE6
R3POR8F53094F2C8CLA80P6A6F141A6A06330
R3POR73324F9E62C3A3F13AFAE5B045A22346
R3POR51BC1E6E0C90IED03695C4AAFB047444
R3PORDBAE70FBE7B6T079D1FAE5DF27DF858A
R3POR88FAD59BD123R8BDAA32BB1E64D90AFD
R3PORF0B1BC586233E0753DA8A977A5385EFB
R3POR4B790065646DACCEP0BEECF3E46A2F33
R3PORA423A3CBA658I8A63AB9D9026FAF676D
R3PORF81DF7A7A230A668P8A4C9ABC52E66F0
R3POR30F3D3EAC138TB7F3F06618D2AF4DC0B
R3PORF9404EB797D0LC42P7F1C9E70E1EE0F6
R3POR68592C240A59R1FC390FA257FE92B46C
R3POR1763BD1C1491R6CFDB7F0D6C374895FA
R3PORC02B16D5F6DCL1153CBD3819F43EAC6D
R3PORE0CA81E18CBBL14FDFFB42D0945F6ED1
R3POR456FDF4803D2T67APA7C2E1581849634
R3PORB1F8C1BA0C84A09F329A21518C7F2F0A
R3POR8C9D8E848D0BI9E4A811117A7D86BB29
R3PORF8E41B1ACDBCAFA835A22BA286B9BABD
R3POR8E95073EB758T330DDBCAB0FC701A279
R3PORD95A419E2B9DT36B3EBE349381FCAD19
R3PORDE2A193E61D0RE28A8789E4D3809F6A2
R3PORD4E6E2971C59L704A245BCF44490C52D
R3POR2741CE22E1C2E077P24CA32E9540DFFF
R3PORC2A418178B8ARE1CAB8D3CD6DB96A57D
R3POR94E8B3142ACDE611DF07035377E448D0
R3POR064C32D28594ED7CP241939758D44FCD
R3PORABBE2314EC11I17DDB463DD4A3B67309
R3POR718BF1196EDDI4DCABF8C76134827101
R3POR4785BFB5926FT0B3A5DAB863EA172318
R3PORAA348DD415FFR712AE6DEE64DF6EDC52
R3POR14C3EC786AC5IFFDDF2984A0DB13FC37
R3POR533A463A956AL02BP2232D1A850D1D1C
R3POR076099346163R938A34976A200AB713A
R3POR33DFD5F03F2EICAA36085E8644E5134F
R3PORC41BF6434CB8I883A8E84FC4DA63E6E6
R3POR02596E2D2B43IB94A49E110BC7BA31B1
R3POR07B926DFAF29A834A1142FD18610B91A
R3POR9AB3ED31872BI373D6C03BBE0DF82DB3
R3PORB5649EC944AFL301P961B1D79E8CF3F9
R3POR6771C5A068CFL7C6A00458823882CE1B
R3PORAE6B66C430ADA617DAD4B33A444079AF
R3POR82D98F42481CI812P9081B3629BED7BF
R3POR5D028EE02843E6ECP32416D8EF19667D
R3POR01480C56CECDR4D7PDD6B3A6866AAF92
R3PORCEB6970248B1T92737F52BA0B23C8C09
R3POR072B41D40AE7L2C130C19B2B70C7DFDD
R3PORE76D31E9C3F4TF18P5FB7CC0478096C3
R3POR5939E65E48A1ADE0344127C55A99CAA3
R3POR6B9F6296A777T9A4P13011A9E442F162
R3POR837C2B525D2EE4EDAB3F88FF11D09F6C
R3POR43275EE667F8A5A5DE0A0663FB91DBFE
R3PORB53579EAF2C5IE1939AC4E14E6FAED4E
R3POR2042218F9CD2AB5FD869E84D006EE320
R3POR5D2A8DA889EBEC51DA73B05640CA7A42
R3POR784C8E07D1C8LE593E0FC6A4BBAE068E
R3POR980D5CCB9D73L87DAF15ABD18FD300D3
R3POR78F3EF544D60EB15A74DC00CF2BC1D49
R3PORB6A54C8B721FI1B531416FB427276B20
R3PORF2C9BC0A3791T92DDE70CF8E4A04C7FA
R3POR4A62F04AE8BAR660P6AD47D27B4AAD46
R3PORD2B10E5F28C9AB7FP06E9356F188BF39
R3PORD2D07353E894IE583137F490C5721CFE
R3POR6392F964790ERA0A37E356CE6FCB81B1
R3POR7DAF849AA917TFA1A6A0288EBDCD28E6
R3POR84D2F6F3A2A1R3E2PF639B23D4FC8B56
R3PORD52B5058C9D1E30DAD093F7F7A240DC1
R3PORF1BFCA34EA49EE58P876A1B561DC9338
R3POR2CF29C859EC5RF9BDF0E9F4DCDC3C2EB
R3POR930234584B36A047A76635526F8AFA39
R3POR50AC698F7652IA5AP9BBD9B01A0FC8C5
R3POR400CECA29C56RB27PA03AAAB86988905
R3POR6BBE98AFAC6AA1EFAEAE9A8B593C7337
R3PORCF041390E3BEI60933F9A0AE7FA49937
R3POR30A4E763DEF8ADE5A3C2390FBAE5CBF1
R3PORCDBB12FA6A97L67CA9775D08DBE226BC
R3POR6B28CEAC0A3DA3D5PA08CCF6C20AEFEC
R3PORC118DD6BC932L512P9CF7476EEEECD0A
R3POR8BF6EAE27E87R7AFAB7A72E950254D35
R3PORD62A94DD29BCRE9BDBDAF3766A288E47
R3PORDA3914B58620R0A033C624CF426287D5
R3POR14D8A3D19E2DEE273A6F84E99EB31912
R3POR765EA5968D8CEF2D38FBA173770DEE69
R3POR0654658A6040I6A1P442770874917E25
R3POR24B0E8A0708CR5443856DC849374839E
R3PORB807B96357A9EED2PF1653BD419155B3
R3PORA570D3353385A44FP62E5B5627B62EAC
R3PORB2B2122B3305RD51P05DC7489939D6BA
R3PORA22948A6CAE0L2ABA7195F99B73F5831
R3POR29F2093CDC0BA495DD99E35A6E1A35D8
R3POR4EF25D112C7CRC8F369B896867F3134C
R3PORF105CE6936BBLDE4AA6B1E67BDEA35E1
R3PORFCFD343432F1I8A9P6FC3E9FE949F515
R3POR32D3F730F261LA8CPD8CA6B481325832
R3POR56110224C7E2RBDED9A554AC1C0E7ED0
R3POR55EBC688B6F8EA36A086DB7FEC5D2F7D
R3POR9BE249ED8834AB63A59E87721805E26D
R3POR19139F810C43L92936BD7F8457BFC03E
R3POR77599B305216L90APFCEDF38AB7F8ADF
R3POR29EA3DFD1A10L4AE338C567F8D9F7B2C
R3PORC4C1656864C4EBC3PD3BB3344778DE58
R3POR014DFEDD7892AA99D6F4494D2B3C117D
R3POR8CB4FEE483EAIDC8P7A9136C129875BD
R3POR876FE27ECC94E668P2834FBF8509005E
R3POR4B4DE52EDF59IF71A64C86BAA72322DC
R3PORB045E29C34CCTFACDF87D4EFDECC0473
R3POR75743D2DF08CR4BBP8C9B8825976E85B
R3POR2A7564D7561EL02939F295740BD6B58E
R3PORFCA6B251288DLFDEPC004AB6E71BCF05
R3POR618A7095BA7ERDF6D445DFF0B8CF46C9
R3PORB76866F9E280I66BPF0E400F84CE7478
R3POR68B957573744IE0BA247DBECE801A0F9
R3POR050B3A2DEEFDT0FDP0738FDB0C99D1AF
R3PORB8FB97FCD7E9T1FBA253E8320ADE4A0F
R3POR5E18C7D05085LDEDP6B03E384A43FF28
R3PORE8FED6880421I5E4D59105642E670BFD
R3PORB6DD42068052I9953EDA6B6707972200
R3PORC895C8026702RDE8374DEC4E8F54F753
R3POR1FA77F40C07DE47BA0651B612EDD68C3
R3PORB90BEEAF2068T1ECAC62E38F5148CAE7
R3PORECF9AE68D1B2LA9DP71866B681CBB1A3
R3PORF4343C8C912ER867D1D801A15E797B7F
R3PORBD3C2EBC91F4R122P0C4E6111F922140
R3POR8207CFF19495A893PF9106169C5A035E
R3PORAE52E1560C22T056PD12597E579D96DB
R3POR2ED7521D1F60IAF53BAD3C3B01009173
R3POR4984A900303DT340P1803E49F018E9DD
R3POR8FA5B715E38CEA8EPF28C8C4E6F4439E
R3POR14071EE1CFD5AB6CD844B6675466A685
R3POR00BC308BAFEFI100P509F08882F0F5CF
R3POR26C4E11DA9BDI631D97A8D8688F1DA11
R3PORC88874A59898LA553320F5C635E94816
R3PORB79227803E1DI0D9PB017C28EFE1EBB7
R3PORDB68AEB06B7AIDD0A25D1246ABE8E5A8
R3POR9BD24F874CE7T0ABD26B1D5ADA0D862E
R3POR16C3662953BDAE67A0A0B1E25F384170
R3PORCCEF5BA1DC9FR72AA50BB94333B04383
R3POR49E8F06CD9ADL0E9A01053F52D642666
R3POR7D1EEEA96601A576PF36D5981A6EFFD6
R3POR61B518EB5C88A9D0P5E17CBC9CB3DDCA
R3POR617567B456E6E567AC71F6B598C4C2E2
R3POR6A46E903AC94L2BFP1D6A9C4F60EA2BD
R3PORAA9A38E32419I31FA00A2EE8F635BA33
R3POR37FD5BFCB924T694341F13129A250F91
R3POR3626776476F6E77EP238E55131061DFD
R3PORBF7139A5B25FTCF5A6740A6B0D107158
R3POR9FF3263A9703E25CA5ADC73932F006EB
R3PORA72963B9614AIC4DA71B0C4A5119C5FA
R3POR8E6ADF6D8169L636D0CAE855272ABECE
R3POR3643EE9492EEAC81D31799EE06E064FF
R3PORA197FD57E136R74DAC226DA9433AF096
R3POR2F63B736DABDT7F2DCAAC4B0CAFCD536
R3POR14B16594251BA959P660C8268F386F90
R3PORCD19A1B8C9D7T6853A5128BFE5C025E6
R3POR4481D0C9E297E9C6P8AB0AF78EA6901C
R3PORF6D1BEBC8DFEA5F73DFB9D883ADB1BEA
R3POR16B1413ACBA3L9EAPD3F6456E04B08CA
R3POR0857C0BE365DT2BAD9A877A1868D7B90
R3POR146C8C6E5FFAA997D44845ABA37D6088
R3PORA75463C816DFR2593214EA7F32C2F4A2
R3POR6254349B1D3BE5A8P318179353E53486
R3POR40EF8540AA71T54CDB3EAA65D3CF7071
R3POR1470C7971A3FAD2FP9966E8488295DD3
R3POR3B71D65E4C96RA853259EBAA64ACEE7D
R3PORD2AA5E278CD9TB1FA1AAB0DF886EA556
R3POR48D83516F61EE758A993F51EAC75D5B2
R3PORDD770EF807D7AEE1D20304BF16F4A95C
R3POR68D2B0B1DD09RA7BDA0D365CD3F8E0C4
R3PORD6A1A359497CIBD0PC2936B15F3B2DC1
R3POR7386741C7395A985PD613A62168686D9
R3POR9150FFDD5C60E69FAAD3CE6246150260
R3POR66670A9D777DR1B4D3BBC0E6B164920C
R3PORE744E352181AEEE2A58EE0A5465B9AA3
R3POR5D7F274A5B36L02539B2090E4B88A067
R3POR97398D869751R5FF36494A1763C2F684
R3PORD012ACF35AACEC1DAB42A1F233EEE515
R3POR925F90B5A42AL986P9BD0FDA476C919B
R3POR74B87058BF15ED0CD867854B7BE1A52D
R3POR635D94D8F1E0T31FPA7602FE4A44B3C8
R3POR9D50D5624F48IE6DA448EDC93224900D
R3POR613EF57BC671R095DFA857F525910DC5
R3PORA5B14EC4DC43I09AD3FAE37DA4B65543
R3POR387195BBE0B2EC3C32201F1149220496
R3POR5065A200E975L92930C9C98AB0BA1AEB
R3POR71014BC6934AI6B0A6C2D6DD53F64271
R3POR2A5833E5C7D4R1723E1B602C3D0646ED
R3POR8E8B51E883EBIDD7D523EAA465D127F8
R3POR754115A1F8C8E6FDP8D8D9437B47A3EF
R3PORFB5376D68C4CT92731AF24F8EBE510A5
R3PORB3526E32D149ED14D38ABE3709511D03
R3PORF50168613F5EAE0BPCCFBE24E183D0AF
R3PORC07AD9FD3FACIC29ACC2926BD4E06D2A
R3POR69C9D3BC3B52RC78332345A1FEC37781
R3PORF1027A8B1F2AL9B5P07C70552F60D47E
R3PORCB46FA77D49AL3C0PC2EAECC7B3E97C4
R3PORC091F37B6C27A2D0DF22F6525E2E8032
R3POR32B9DD8C7D94A980P93B93B4EB1C35F9
R3POR598EB774B97ARC15PCF370A76C537C1F
R3POR111A13A12F5BT85FA41436327EF642B9
R3POR4CE1A15230DBREA3ADD7F400C0CB4423
R3POR9E85306C505BE3F4PC1FFD9C8C3B880E
R3POR97326662F4C9L3BCD61A2D250DA50101
R3PORA1AE2854B157R056DE05040ACCE71005
R3POR7F94027F71ECT43E3D68185B610D777B
R3POR58D4E1F7E6B1I93FA68EA715735C49CA
R3POR88CBF1D93FEATA49DB58EC10B2258D6C
R3POR7E671BE9EE2BI3E538F10A3DE38EA6C4
R3POR7B13CBE36178TB0ED6BD337051D49465
R3PORB78597E3A156L9D1D4C3181B817DB7C8
R3POR282EFC1E3ADBR2F2DA4F1FD33C743F8A
R3PORD6E1CE3AC798E666329B986ADC6807AF
R3PORFB082AD1B673IDAFAA2DC2BBAD8AB276
R3PORCB4AEFDD5714A8C0D3CEDA3815B9A873
R3POR921A46706774LB96D11D428CF3F3F7B3
R3PORC57E9463D33DR35931F7830310DE6631
R3POR9AFBF2035B74I74BDECA8D15484B3CCF
R3POR94F4CC6AE192T1D1P4C4FF7416ED04E4
R3POR134BA0D92C4DAD0FDF676CEB8AD03DA4
R3PORD7CBD7DA0FD8I32E307C5679FC73909F
R3POR1EDEED4C5F10IE7APB6D689882E747A2
R3POR205FE3A2AC60A750P900BA30DF6BFBB5
R3POR5B16D4772224L6A9P1895E48218DB269
R3PORB7FDD33760E0TAF6P46BA7F6F2059DAC
R3PORC17E4352420CTF42304794940D541B65
R3POR631E78CF3E3EE3ED32368B23C97A5DA9
R3POR2E433B49BBEEIC15PF45ECBE9A2A4378
R3POR2C1DD8C00145L25BA332FA15189C65A7
R3POR2E42BBB1DAD8TB62P2816D8FFD58C6BF
R3PORCB29A3E101CDR15DA2F87F098BA7F819
R3PORDED75065AFFALAC1PF4AB1A37FDB4147
R3POR39380B60DABEL6E3A9D386C09168AD06
R3PORF606A1FCB096LDFAAA082F8F5FC05819
R3POR8B66451129FCEC1839C7C3B34BEA3F69
R3POR8ABB4BDE0BACEAC236636629A1EBDCEC
R3PORFDED1DDBF9D1I4B6AF096279BB634973
R3PORD3FB081181F1RB09D93531369F799D2C
R3PORE447DC19F80BL29D31CC9DA52A44E8DF
R3POR26C16EAEFF32AB6F3AEBB76A886DFA21
R3PORA995869DF2FEL8ACP971A69B0FC3DA0C
R3POR0C88C0671B24E6BAP9BD4E9D97797D35
R3POR94E20C3DADDDI2BDA8F3410496DFBDA0
R3POREF865B3B76F8A551D336710EBB5B5D5E
R3PORCAD1AB6A1718A635344221210077C755
R3PORC6DF1F01A919LD08DE4B890D3C6D791B
R3POR7A43F1A23993I0FE302B28781F70E51B
R3POR59214050FA19AC4BD15E6220650DCEC9
R3POR7292BA4CEB5BTB64P2983590034C2527
R3POR124A863D473AR7C83ED594FA0FB5EF47
R3POR02F5BE03F283L2CFP4BDDFAFB2D2D701
R3PORCE848EEB3410R7D0D8B909D7C6A4F32A
R3POR9C3691D2C163L3FED0C5B90012A2E434
R3PORF72E3AC8ED34A698342185C6A0914802
R3POR16F91F3B5457LAA8P1EA09CEDA7B799B
R3PORBCE3A3A9AE65R203335D00B6B2CFCA4E
R3POR45A065287892L9A6388668BC949E4585
R3PORC99D74743B72R9D6A090F6B4A51C1B4E
R3PORF989A0154194E04CDA1204B4DF536285
R3POR97276188FA68R05CA8D86ADAF52FC4D5
R3POR9268CDF5C793TEE338CA5CAAF3E1D414
R3PORAE05908B880DI865370C69FED6F1A0CD
R3POR177F375EE390TBD4P4606CFF2BA67927
R3POR9AAB34A4AC28A5BA32917333EADE22C2
R3PORCDC2EA535425TB25AA0A725E66AA2AE7
R3POR3020319E3E9BR83732CF84A459DB62E3
R3POR8749424889DDE94FD6FECBC8F701FFDE
R3PORF08A6F427732A9E3ADC441509A67A134
R3PORB4FC02CB6338L517P165FEF6EBB303B6
R3PORC5094BC0B306L130D62528EAAE6F7355
R3POR0B5189E76F76TB7FD070BE5DB5FF4272
R3POR5F2BFBA4E54FR941D6EBEF82550C179C
R3POR2B7D31C884C9L056DAED37964697D95E
R3PORE136048136FDEAA831BC980A25C79005
R3POR64E48D7C5716E4CE3CF2F09B3EFA5196
R3PORC2DC85BDCAEDLC79P4D49636274D3E45
R3POR011A505C752BRB3BA030ABF19BF09EED
R3POR8A8142228B55LD7ED0B6B3BC234FBA32
R3POR7B209C60D93CIED93F4130FE9E09BBC8
R3POR15B01E75783CI9EE387404D570D0E524
R3POR041193713C3FA2F0PF20E247FB90DA28
R3POR85DE4F28B6F4I5563CE48E912A10B7C6
R3POR238729E968AFA63FP0DDA143CD51CFFD
R3POR0960961C4A1ALA16ABB210A4EFAD3241
R3POR656ADBAC24D8A47F32452E12F3F30FCF
R3POR73CA3B16F4C9R99B39949D0AD6B19FF6
R3POR7FD72C0937BBE714DBCB764ADEDE9569
R3PORE814428CC0E0R2F8PBF24C31DD3EFCB8
R3PORAD30C82EC2AEL8F33870C61B4EE0E518
R3POR9DF3751E887DI5CADF88CA554627DC46
R3PORDB1327500188L666D50AEFFB9D24F034
R3POREE46A256901DID87PA160EFF78A7AD75
R3POR1FB91D6D4C68AE39P0A698EBFC9AE7A7
R3POR6216F2C4BFC9A4C5D5849B44BC2CCC9C
R3POR3D3A773640DEIC473BD09B2BC68937B8
R3POR04C426AF046EIC1BPB2F94C21243B94B
R3POR4B3D0542D52AE267A8CC5915D1CB7539
R3POR89479C6C2FD9L3DAD5B5ACDFA19F97CB
R3POR989480B73291L28533C7B8B728EBC0C0
R3POR7338D3DFF793R95CD9AF64F80F2CF558
R3POR2995E1904113AC33391B3DF09B4EB0B0
R3POR77A3501FB033I0F3P3D3AD84BF8847D3
R3POR48BA50C12045E0EBDA3019348E415E40
R3PORC9C020C84826E99DDA3DB0E6E6BFD631
R3PORB1E64D35D89FE7D9A15BF1AF47285E01
R3POR9F5D61DEF8DDAB6FP0F1F532265EA5A4
R3PORBF2F215C9728TCE8A732713BCE15C1D7
R3PORCEA10EFABC71EE7639B944C07B842104
R3PORE016C32A95B1IA27A6D49AEF70D9D032
R3PORABCA990CB498AFC83E91143DA3E2EF35
R3POR0075659AA5FDRB34A77DA844A12B62B5
R3PORFF501FCBAD0DI4923F97B96E22B0D881
R3POR5D69930A64B9IA24PCCCEC1A2AF75C88
R3PORF7C763010C60IA00ABAAC8928E2CFBAE
R3POR59A40EEDD229LA7EA7191DB07AE9F9FF
R3POR10EDD8631A65EEEC3D90EE85E019B33E
R3POR0243D4187172R600PDDB239E016C7308
R3PORFBD8547C8BBET80EA0FE2681CB5C9DEF
R3PORAD8166634030A5B3PE7D7BE211FB83EE
R3POR6F2ADDFC3387E98533197A63780DA779
R3POR7E77EE5A3D3EE1F03490B6419D16E484
R3PORCE075E6BC875RBC7A87DBBC2A6A18297
R3POR07458CB80203A6473A151933322D5D98
R3POR8157BB606AEFAEE4ADEB5022219DC689
R3POR9E88010F52E2A1F4A6C4C4BFAE95138E
R3POR96C80FC34707E3D0P287FCDB0838ACD7
R3PORA6BE685AB8CFI543D05F0CE834510C0D
R3POR9F94B67FA171LE3E346B2FBCE0D0F942
R3POR362D35B11037IE30PD2AB1F0591D96C9
R3POR7FA72DADDB28I19DP090C5A6C418B2B1
R3POR50D4CD660B58ID623E409EA3E0394255
R3POR4D7AAF0BEE10LCDBD0180A923AF035E1
R3POR66F7A83C9050T11FPCBD39D01DCEB39D
R3PORDAFA2AF5C309ACB8P052FFBCC5CA3389
R3POR1AD8A3D967E8I7F2A711381BBEF41A2B
R3POR885B821E5FB7E287PCD0B5CF55501CE6
R3PORA74DB7B2EF6ELDE3D6663EFC9C396443
R3POR11BCA778ABE7L3F5A59FE1A2EBAA6DD5
R3POR0848BD31790BE3D9D5AD570E1859192B
R3POR0FA4116FA6BAR6963001BA836FBCDC60
R3POR8DB5D94CE791R60330DF6BB824E65D7B
R3POR267CD2772326IDB0PC3385430AFD6293
R3PORFAA55B956B12R20DAD5855346883AD48
R3PORE6630EAEE445IC62A90A1E9343AECE79
R3POR9D155CBC2EA2R17CDEBF5A06F9B8EC39
R3PORD51A23596545R1BEAD1ADB714D5FC43B
R3POR16240FE83AE6E5F7P25F22CD26588D6F
R3PORC8D3FEF195E9LDA9D79C2E62BE94E06D
R3POR326A551BE618R6CCD941ECE84173747D
R3POR0EAAF06585F1L765PFAF7888E0DE014E
R3POR374813662460AB35A0C7FD5670D92342
R3POR0B7B284AB457TC9EDD5B9A1B6DFDD9B1
R3PORBA9D4BE32D68E574P007FA5CF0F1F52E
R3PORC1F9A60FB87ETED7A863559AF45B8C76
R3PORD866EAEC9C33T753D36D4FBD3C318941
R3POR834FD269307DI93CPCC66CFC8B3BFCA3
R3PORB0CD6B55C2A1T35E3866220FF80239AC
R3POR171913234DAEE14BP2445A982F1C2F9A
R3POR45980617FA30R36FD29CF4CC5D0E4853
R3POR1B361044858BT4EAP2D7A428EF29FD88
R3POR44EBA6A68A2AT3F1AB30BB2685F503C5
R3PORE52E0B98040EED5AD59F2819770CB90F
R3POR36575D3F2C0AT632P96314C2FB9F7A02
R3PORFAC2617A378DL565AF61AB2678412955
R3POR6C60FA6BF962EAD5P7880AE02A7C026C
R3PORC5FF8E444470I9AAD43D2F12064A6C50
R3PORF5BA364973D4A2953696E93B04365364
R3POR3B7A8AE967FAR41C3F49671DBEE2B50A
R3POR641191588300A89CPB03236D6AA5CF52
R3PORE6D6EDB59402EB46A6D63775B1B0F451
R3PORE99F89241145ADDAP1B8E8338F908A18
R3POR7055A745EB76I94DA7BE4E7F5E771098
R3PORAD237E66D42AE576AD92C0238EF5FB21
R3POR05706638BE9CI5503EF338B0D623D4CE
R3PORF1FAF0CC1904I8D4PD40769446F8258B
R3PORC4A124E84D39EE71A617666198E8E68A
R3POR0BB4C1C2F8BCR1DBP46DED154386CC12
R3PORA27D9807BBFDE96B35BD8D0ADABF0A06
R3POR9CB60BCA8484RB513ACFEF15EB377BAC
R3POR45D8A61EA71DLC64D7481BFDF5D63DC2
R3POR1B5E535FC09ERDF7A540EFB97881C168
R3POR544A6FA07A56REAA3481FA3E67884EEB
R3PORBE3B35EC965DR00EA5119A08BBEF7EB3
R3PORB84E52435696I4E13278C7704694B020
R3POR0043016E2CFDTE76PB59B040612BFDA4
R3POR89B5E9CB8F55IF51P202BBF67AE8186E
R3PORF43FA055F692LC0BPC494074D50B7214
R3PORA736CC8C91ADT48030F3F424F9733EC8
R3PORF916E49901E6RB1FP04B1038022B0389
R3POR400A48AB4077IE4BP78F8BFCEE651EC6
R3PORC608B295D45EIA2E3D59E1F3AED43125
R3POR3555FD2836F0E188D60FF386454C29F7
R3POR1F688153FCF7L84ADFAFEAB0F28DE0D7
R3POR4217A6CC0B4EEFADD892022C5DB58F83
R3PORB12A6590203BTA6BAB4191BDDCD21A7C
R3POR63869DAEE11ERC8D39EC8295483C1DB8
R3POR2ADAB4D7B083TE9CPCE4093E0A7F8669
R3POREFBF6EB9A95EA1F23BDBA0CA8946606D
R3POR04B436872602L129PE4EF72BF2B1B3E6
R3POR99A595F4E3E8EAB0D9F01A5BBCCE3B76
R3POR3BA16C2698D8A42BA7F491613A81FD25
R3POR3429A6FB0027LDA0D29E9B2B8FD8913B
R3PORC1A4760E1D01E091A54A814B8878FB96
R3POR40BB63130F39ID99D859CD144DCE6653
R3PORC8DD8D8ABB70TEA4PC9C450C480C91E1
R3PORA9F6F8EF3896TE7231764388205362E1
R3PORD0518639C432I6143F503E602456F492
R3POR7EB24D0D0E56I00CPD97D7407869556A
R3POR7E62661DBCDEI85BPC6BFB543B7D1194
R3PORA318A641174DED03D8272CE9D195A8CA
R3POR1307F1310292L5383EB95499CF0DB04D
R3PORFE313B5DF90ARBC7D6834E4C31968662
R3PORB07A569A8737EB45PFEDAFDF5AB1918B
R3POR8C17DF38F65FA5A6A502B2BC6CBE7955
R3POR4B6E8D0597BAAFAE3AC5A92DBBA2BD5D
R3PORA75C80CF96E6I3D8A050CB1B80076F53
R3PORC2F64866CB8DTD0EA622E9EB287161F3
R3POR39B27551613DIDBBP3A8ACB1D162C323
R3POR8757D1D317CDEF4EP786AC9573268832
R3POR55260EFB0DE0A549D58B40678B0D0557
R3PORCC6BEE4CB2D2I4C6DA0B5E7DF37CBAD1
R3POR88A3D9975BC8T427D5A1870304FD6DE7
R3PORBD5837780320RBDDA80AF48696838D9B
R3PORBA980813BBCDAB5BAFD99FC339680CD6
R3POR5B1545E82DB1A9E2DEB7395348D5EB1B
R3PORDFE9D1A56B69LC84P9452A5445117EF0
R3POR8BA94CF4100DEC46PD1DEF724E076BA8
R3PORD49D47AFAF7DAFD2PDC9B97D63E31820
R3POR477718E17BE6L922355143D442F1B536
R3PORB524BABB0EF8I72E3DB6CCE1F750976C
R3PORD88AA1A517EDA982A1ECC52E452196FB
R3PORA717EBB6E832E55CD06CFD1584D6BCB3
R3POR2E931059855FA11B389B70D2C11E1542
R3POR20EEDDE9C9B9R84ED6F3B197A6DA05C0
R3POR3BD474704F45R5A3A5B375AC71750DE5
R3PORA64F4E88BD75A7DDD091B3542C4AC8F7
R3PORA3A72E51CDB9TAFCD737C922BB3D84CE
R3POR635927607D6DL866A9FEF9A330E52150
R3POR764D7265B183E69AD17FB40AE7126A64
R3POR9FA255E596CAI2733259278E2A007A8C
R3PORD226277F474CADFCD52E9155F21F1C2C
R3POR49CFDC96D4E5L2AF321C3E56F47DD536
R3POR6472FC752C0ET087335222037F2D0131
R3PORE4464754F987R6BFD8D980ADD049428D
R3POR1A151582383ALBEAP95D30270ACC2A27
R3PORE59C38026333A6B2P07568E2E750C0C0
R3POR9555D865097AR737DFEBD7930985F04A
R3POR1961319E806CTB4EDED83C259BBA3F44
R3POR8742E5E04C11AE02PA4A84F84753501A
R3POR0F39A97FDA62TD47D0ED65E44EEB1868
R3POR24B2ECB72EDDIC7136B7E5FEB30F51A9
R3POR97A5CB639BB1IB91AA77F3F3AC615F7E
R3POR0A201E1F4857LA5EP473EF54A0F9AF38
R3PORB972E1419E4AT5EEA77B582DA2ECB566
R3POR511ED442C406A8BFP0C8D39F210E3DA9
R3POR70150E7F6ECBT4AA3A0886DDB3A30A5F
R3POR7580496AA34DTF123AFA74517E628DDA
R3PORB94D1BDBAB1DE85138AB7F9915327FDB
R3POR3E55461A141ET9A936369F54BBFDB330
R3PORC9A2D9A703DBA1B7D261B1636EDCAF43
R3POR559E9E31CBDBR009P6038566E270D536
R3PORA27865178176LB4FD11E2D8C3FD26518
R3POR3AF6405EC1A6EEE5PB6A443F5EDF3363
R3PORF731EECCEFC2R12835DE2678A3E9BCA1
R3POR060D92D87039EAEDD3B0630EB0E4F358
R3POR52E65A662478T1D6DB15472FE6A51E3D
R3POR4A045831BAAFTB4FA69FBD950DCB4B9E
R3POR24347A541A2BR33BPF13BCD771061B2E
R3POR8C21A826397AL2E1A053B874220F2C39
R3PORFE0D401D4A92I699PC7FB75A5037A38A
R3PORE27128907DDDR865326034A2FC45B48C
R3PORE1138F3F26BCTE57DDC60091D409E900
R3PORE53CE7899F37E66BAB3866714C10EC8E
R3POR01415C40853EI9E9P1B661C350F7C6E6
R3POR9F44106A25E2L45934FF5A785DB02656
R3PORDA24581D2C96T91DA62C190F94D7FE9D
R3PORE031837EC5EBL0AEDA0564473A2C57B8
R3POR1E3949BEC359L971D8369080A8B5513A
R3POR79A7A912EB86I16EDF08877BEA4F6EA7
R3PORA3BF09EFB944IDC233BAFDEDD98438F8
R3PORA466C0E8B28DL462A42105B5F2B2065B
R3PORC2E3BB087AD8R4F5D476A2C5C75D2C79
R3POR7602861FB5BDI13DPF649847F80AA43C
R3POR3D0E0E164570T565P496613437256B87
R3POR5C5BC267B78DAD8FA3046C24D9559CA1
R3POR86302D9E05CAR3FCP827ABBEC2C59BED
R3POR63E4DA94A265A10CP535B0B69DDF9F48
R3POR499ED4D0D7CBI6F4P19439B53265BD96
R3POR2D86D2816E8AAD23PE63AD882B9AE71E
R3PORA28A4E56D035IA64333D926EB639A11F
R3POR681C48F1B5F6E71BAB728E6FF4EC18F7
R3PORFC5379A3C30ER60435A19FE02D835CAF
R3PORC3D6A9E72A9BL83EP4B9E6136B109A56
R3PORA8F44F4BE2DCTEC6P5FCCB5D47056FD8
R3PORE9B9D2D72CBBI92EPD42EF9516027D6B
R3PORBBA7E10FA028E602A3311B80EFD51120
R3POR2D1CECAB1DA2EEE3AEA8C78F49D4E668
R3POR7EEFE9D07563T5B4D2FDFEB5E62E63DF
R3PORFF8039E66AC3I35FA4E0C79C56F69764
R3PORBC741C8379F7I38FPB1F98C49881C830
R3POR64831790FCE1T53438C523C40CAF69A9
R3PORF527DD16C892E0EAP93662F82861C12F
R3PORDE2C9462D717L046PD87AAB8372F02EE
R3POR1F2C306C62F8I281PC46C9B87DA59300
R3POR39C95085F946T0CCD0ADB3DC8F6AAE31
R3POR7E96EE93174BEAE1PCF0D3E8EC062A2C
R3POR590A65BC9DA0ID36P2B72BB22221516F
R3PORD71F51F76FACR5773DF781C27C480F69
R3POR733EB8100720A931DC0B8CB0F0A014D2
R3PORAC2AA6F73E68IA23DC09299ADE5ED11D
R3POR88083351C218T0EA349E3F66CCAB8782
R3PORC47FC70A811AA91F38E01AEE6FC25C11
R3POR534958044545A3893C34E076D3E18F47
R3POR777EA1E7AC7CL410AFD89F1E041C24AA
R3PORBB8DE57F6E7BLB83D39F761F6724C442
R3POR78C9AB11E60CE863D03D902015C689FC
R3POR2094675CA827A102A0584A28D5650C08
R3POR98DFF36E9BD9TD6EAC2A1333F2FF563A
R3PORC4F5916D8569EDBEA75BCF37BDBFF254
R3PORE47AB97EB991E08038489CAA8393B60B
R3PORCDE65BC63DA7E52BP344566D6A556915
R3POR2DB9A76BC2E8I7F8A6BDC24807B8A646
R3PORD2CC237CF405RCEDD0C08B9AEFB376C1
R3PORD94F54661CECAEFEAF5D18B244F8C968
R3POR03FE44FAB157I730P3262AFE4DC9D828
R3POR8543D9BDDDD2I6B93DAFFD0909068EA4
R3POR8F5557C70E40ADCF34195C9E305085D0
R3POR38E91BA60461EDAEDD67D30AAFD8CA83
R3POR0CC763FA7D9ERFB3P9DB5F7E235A5CBF
R3PORBBFBEE90DD34LA433E3244F424BEFBA7
R3PORB57F78FDED50ED18AA21504EEC8DF70D
R3POR546C2935DC13T176D23DF8E1B7D1D248
R3PORF37ADAC0656AR629D71D03226169756C
R3PORCA7246A2D035I265A54E52AAD522E493
R3POR086A23682D73EC68DE12FEBC0031B618
R3POR62BDF7F5B5E2L1A2PCD85E3F116F63D2
R3PORCD8A22FF9A89A1F230FF29FD7FF59F0F
R3POR569FED9A4A2ER449PCAF94F46147D364
R3POR67049A96EC0CR7903949CFA702EB58D8
R3POR31B28DB58ADBE3A3A81A5480060408D5
R3POR9666334CBA6BI338A232582123A727CE
R3POREE85AA1BBFC7LD58AC1F34701DE5B035
R3PORCF5013B5314EE526D06628D4DE2F8D10
R3PORBC183F9BD640ECC9P90470474D387BA7
R3PORC998AB4B8D2BR1ABP5E5584936D7BB8C
R3POR92BC77301EE7A354AE5277B698CFB1FE
R3POR0D06E255ACFDL567PD38168B3485C654
R3POR3964BC2A2A81T659D6DCBBBE12659FC2
R3PORBE078284A837L540D7C0899577EDDAA6
R3POR9797CDB6D8F1IDCEAB197A402582EDAF
R3POR288E707E98B5A884D8CEA25AFE9B3C64
R3POR47F5F3FF48A4A055A6EECB6CA0251971
R3PORF94C11FFEB4FI831389604F4410F113E
R3POR125DEBA0275EABEF39182B94C20D7ABB
R3PORD4B33E41AA48AC5DA80711CB801AFD26
R3PORF67A1E55679CR05B350B11690C14D49C
R3POR287FC5D5767FTE0CPFAA967F8A1D23C4
R3POR80C44204B0F8T0E1A8E3D45EED4C2D46
R3POR2549D5CCF8B2L224P4C5051AE921B9B8
R3POR18049EB95058LEE5A0D16BD5BAD80DA7
R3PORADF5B22E022CTB1FP832CC68B9F71690
R3PORE847C4E34D0EL55EDA0D61D0B7C1F2FF
R3POR2BA87989CE02A05CD8CEBF7D02901DCA
R3PORF942CB89CD71LF683D7CB2D3F23187E4
R3POR703FD812ECB8T683D78E06132BA2F056
R3POR967BA37EF93AL235P34ED6F9019DED57
R3POR935EDAB159B1ID0EA85613B0FC5FDAF6
R3PORF38B94B65713IC7C330D949E0A96296A
R3PORDBE9DCD778A6R53AP2EEA93C6F2C03E5
R3PORA98264B0E3D9L1D5D952C6B53A7368A0
R3POR8DB19E981A74R1A8A649045ABE5B1EEB
R3POR757B5388103DT21BP92C1CDA2009941A
R3POR5C1D2A5D161AE1F138F30DC79AB6334A
R3POR54DEAD9BACD8IF12PA4229C97B16FAC5
R3PORC9F4644AA089I9FCPD7BBB110A00BA5B
R3POR54A4375AACBDI054AD79258C5227B652
R3PORA2C92CBBD1D4E47DA409B79A39F66D70
R3PORFE7C4EFD79B8EC77D3BB128B94025F04
R3POR7EE2B1DB1816L703P8858BAD014FD75E
R3PORBB1B4D9ABA02R066DE0512ACCD139384
R3PORCF291F360DF1EFE43F5079B9BE66940D
R3PORC14918234E10AA05P534541B6938D465
R3PORE8E22F172AE2A278PB651EC3CB9C8169
R3POR97E32039D89FA90BDFBE9934A737491B
R3POR55E65872E616A2D6D298EE25F0A66A01
R3POR2F629548677ELE61P51C122F02CB9F61
R3POR9487C88DB900I41BDEBCDDEB843C059F
R3POR7B3DC2B5277DL1B934E20984903F3E4C
R3PORC90DF667CA38T260A2EA10F2B444BD2E
R3POR53AD15662ADDL6D6D9C753380F321889
R3PORB99E6C1D8E72R50A3DEF7AD04AFA3D6D
R3POR9962C59316DEIDE6D89E7A453BAAD8EE
R3POR9350D27643B4ACEFD4CB22ADDB7D63AB
R3PORF991292E5B98R27FAB8F38189884BDD9
R3POR15BF98A1A424IB8CPE59D9050B60D25A
R3POR54B216DDFD57LA623763C7FAC78C6842
R3POR36954DF19009IE03AF6B78D6458B20E4
R3POR7D3B6787926FLBF3DF0912AFCD7775D1
R3POR9F83A88B4AAET9D2A7C72818D80A9CD4
R3PORDE1B7CDEE23FRB45A5A885E1CB46BB94
R3POR50B9B9DC0330R7B33D321265AAC0B85D
R3PORF621934EE335LC0EA37F4986A1D23920
R3POR2D199E7290A9L204A97067691F1609AF
R3PORF6869FCC8315R376A58DCC18B7033261
R3PORF1C5EE4049F4A4A3339641D0AD6A9678
R3PORCBADAE9EBBF9LD41AAC3D9230FA240A8
R3POR950EBC255999L9C4A099D2AA9A2B434B
R3POR4F659990EEABT8973BF26E08F05F5B7D
R3POR3B7C08A31035AD3BAD1C1A6790BB4027
R3POR2120DA3A2891TAB2ADBEAFFCD1D8BFD9
R3POR7E6CE9E6568ET9FDP3C3497092D0D6A8
R3POR101D4682B8CDL4C0AB493B75E6205D4A
R3PORDA220344AAE9L2503F37D03176D86924
R3POR508A3744ADFEE4AE325FF60B233128D4
R3POR65BD6F242790L8FA3F4C0AA3CF59A5F4
R3POR6884AF898415A475A301C89691F81041
R3POR06B9959F3723LD9AD50AF224E62345D3
R3PORDCE1FF1A018EIC34DB313565532EB13E
R3POR54F6F5C203BEAE08D81DA4A2CBF4EA8D
R3POR339D1B3351D9AC75P8FB3F15778F7532
R3POR49B72C72BCA3AEB33E51B97BA88D851A
R3POR58641F45CCCDA83FD6FA8A215DB71CC4
R3PORFD44657C177CI984AFA3C3453CEAD94E
R3POR764C499CA7F6T3C9A2EF41B670A7EE0A
R3PORB21A8570F784R5F8D04DF380C16D57DA
R3PORA773E9239B49TC533094D776049B7E2A
R3PORE151731FADC6TF43ABEA06C9B098EF5A
R3PORB68C98516CD8AB2BA4F8703296001FF6
R3POR3DAC25632C4EL7C4A52E7D5D4D09788E
R3PORE5A675131C8AL203A09AA0694DB215FF
R3PORC610C98305D4I3B53C5730DC2C5177DB
R3POR13FBE8BA1180T57CD618E3579944689C
R3POR78D326B8BA6EL3FAA4F41914551AA8AE
R3POR63AE2E224CA7E7183645AECAD8D5B105
R3PORAE438A115BFBTC35AED7FC54649A3375
R3POR51E2E6B2B1F3A60BA5C5FEA0ADF2DA28
R3PORF35FA171C4E5LF59AE517AA73DF38839
R3POR1DD588B90123E4D7AD69CA102D9F8C5D
R3POR2133C7B31B0DR0FDA5E5941C1DF5EBA1
R3PORA4CCB997DBD2T4203D4E60CBE6B8F555
R3POR2DC62A568BC3L07EA97DAB69EE8D28C4
R3PORF6083C26660AT3EBP00695A6740D4C1F
R3POR50D6C047A1C6TA2CP7702205F6F95900
R3POR07EC27148D2BL728AB4B57B4C145C2FC
R3POR7CC585925E8AR14AD06B9C2AE4F2DA1A
R3POR1B9AAD9E91C4IE91A67978AE6517A267
R3POR3350373C1880T03CD3EC168A63E9CB7D
R3PORE2AD04C7A8A8I2263EC1D46F300D84B0
R3PORD4F1364869C5LF5A358DE4197B302BC4
R3POR23E3672C2E4CR8F0PC8737534FFB06BD
R3POR79322AB365C1R223AA46BDCDA04BAF51
R3POR14F2DD69010DLA3FD3D9111234569FBA
R3POR5E5D0C515FDDI8D7DF940D233334D65A
R3POR3948E28D0EA8EA43A47F5E172D3EC663
R3POR37C3603AA32DA806A6E0FA1A7A2AC50B
R3POR4ED5E828185FR0B0A0EB071E244F38CE
R3PORD7C6DEEE4085I90436130D963FF95120
R3PORBB55B6E22BF7ABDEP2834C5E79C02702
R3PORBF8B56EE43A9ECA2AD11AAAD06560C28
R3POR4F9474D0ADF5ABBFP39FCA1BE9B2F471
R3PORD1E306362379ECD134104F293C52FFDA
R3PORBEE63F0A899EA9B0DDAC93FD11185035
R3POR695920050491TE06D70C1E18DEB37144
R3POR30862583905AI0A3P477684D38720DA7
R3PORA7D6258C3760LAD8D74CE31B4E83E657
R3POR40660B0C78D4RBD8A6256DC2174A8C12
R3POR8E587806C0DDTD64A11FE755FEE4509D
R3PORF1B811B16DFDTBD5AD6278E2BDEADE5B
R3PORE9C02FF58AF6RE71P50BC306F3295B57
R3POR852462727CB2LB69PB7E0F9B524287A2
R3PORDB75D1FE0BDDE96DD41463030FC3DEFE
R3POR89BCAE4B63D2I2C13077B52DD6158278
R3POR52F922CD16EER79BA3DAEE2BE45BFBE9
R3PORD6D21E91EC93L03DP5CCDA02C4133FA4
R3POR11FFD4CCD85EA2253283D66DB2E7D130
R3POR00C590D8FFA7T872P6D292D72BAB5741
R3POR2380BA19A804TFD6AA677B14D8AF54B4
R3PORC5D866BBBCD6T845PDCC612117307236
R3POR003B4A3ADAA9T668AF49B276EB505FE0
R3POR11268132E5F7LF56D703C3BDE1F320EB
R3PORB3D210283EDAA8F3P25C06223DF56879
R3PORDAAB2FC38B19RF13DE4B2754A6904F38
R3PORD578D1D24000I9B03B185B7B295AF530
R3POR23E6ED66213AE0E5ADE05EE43680E6E6
R3POR5B792AD4E9D2R603A42FC6898427E3F8
R3POR963F3DA757D3L7B8D2C19C5C0396E5D3
R3PORB5ED78ACFA82R0D5AF4CA4BFDB52DDBF
R3PORADA540096359L907P1F7FABB953B89BD
R3PORF40F61915BABR429PD9B25C1C84EF133
R3POR295FA5046CFAT1BE307560E73591E94A
R3PORBAB5674C3E54IBFFPC1EFBCFCAE42903
R3PORE0C9C8411467EFA432955E0CD985EF87
R3PORED27FCBE4B2DE347AECCB1604C68F140
R3POR95A8351DA625LA4EP21CD214F9E790DF
R3POR272AA06F9A3BE47DAE533E6F40CC3ED3
R3POR4CD3AF95662ATEDEAEE70D6D16A95F7C
R3POR35364F07A326EA50A442609D0228D0AE
R3POR2054C5392227R7BF3ED02C9116CD82EC
R3POR3C8EA8918599E070P9E5233C3EE63C8C
R3POR7B9DF60DA7BAAAAF38574744D3C469B7
R3PORA7D7BAFA8BEAA3BB34CDDB1B3715255D
R3POR8A138993C091TEFED67CA0B9ED68120D
R3POR455B882E978EIDA7A41746A42EAC943A
R3POR439EF3071CF2R8803C1A01C4FDD3F73F
R3PORA1A2F491ECC8ED22DB3E47D33B6C55B1
R3PORFF96C555C68FLD14A95548B3F8FE95BA
R3POR1F39BBA91828IFF6A6D5335B8ED6A22F
R3POR57E8BF81B9C1TF8636FAD4C0AB122EB6
R3POR26CB31AB6965TC26P6B175316CE7AA20
R3POR8F80241BA69AT356AF373FB68C6C6ADA
R3POR4A3B24D7D4F2EC12P213D9628BF989EE
R3POR1EC3F89A607ALFB0D7D419E8C664259E
R3POR524C905EB4B3A1CCA9AC190DF98D1560
R3POR982144802B77L21E3D15C102AFB3A655
R3POR06F186EDD436L2ED307B16F0F1543F01
R3POR32D345141889I4F9PDC8474B048D2DBF
R3PORA70BF89276A2R5463AFA1ABDEE9241C7
R3PORA7B5816AA9CEE78BD8CB8FEF8F4DA044
R3POR48C15A2A1560A9BCP91D72B5AB974E35
R3POR185751333FC5L082P1C92AB6263C7C37
R3PORF78356FD47A6I5E6P8F51C502ED70111
R3PORECE24A830F2DE8413D4180307B4E86CD
R3PORD791FC83223CE4B9DF80E053D7B3C800
R3POR9AFD84786975TC9ED39C7C76F5D67360
R3POR0E5EF0C86E51ECC1D7C42290F3BFE556
R3POR60E13E09AF39AEAFP1D1EA41EDC16021
R3PORD155B4217896IDEEA1B288D2F3200E35
R3PORA27B361EE326I509P99E8431A36FCF96
R3PORF9DF22369E79A22DAEEE54D637F23917
R3POR9737C5E30CBATA98A54B49C2C59F76E5
R3PORBBA22D6B1A96R923PBD8419819B16E69
R3PORC6409D713374TE72375FEA9346735091
R3POR4DC2161F4795T2E8DD69A8692542F240
R3PORCF3F4D790AD2E07435001C0DE5D9A221
R3POR7CA4D888099EL321D836BA17964C1976
R3POR9727DFC6D669LAEFP3A7F1E8AA9BCB14
R3POR211CFA8398EBTE9D3F2D04CB666AF331
R3PORB4F30EB6F8BDT8C638E624F0346B3ECA
R3PORAEF9588FBB93EB85D16A23CA70C277EE
R3POR51345F7F9155I286AABBFC3D57F85663
R3POR6903A9B8866BTAF23E11CA167438881F
R3POR3F2740ACB4C9T1B832E5A79CF1DF336F
R3POR1A90AFFF3A84T6E7A2EBEE386A61FADE
R3POR5515B3288333R843AECA46436A498F6B
R3PORE17683A8D681ICD2DDEA2F2367C57F4E
R3PORC9A28C858606ADA8382DEC57B86A0D8C
R3POR41FEB142757AEA09PF046D858CE542FA
R3POR3F9F5EDBD3E0T91BD1DCAC4449FFEFD1
R3PORE08346803DE7E4E4D8CCAAFAE26174D8
R3PORFE87E6C6DA85TF87D8D50BA7F06C4D07
R3POR3587142B75E2A6A9D9DD808210AE426F
R3PORBC480A7AC04FREB9306653B394F79418
R3PORAA5D99C7793AAF1533C4A7487829EB6E
R3POR018E3EB6BF40AD94PD4577F8BB54D6D9
R3POR674ED9FE5E36RA4F37C90C945223B6B2
R3POREAE3D411B5F8R5B3A294D25A43834FDB
R3POR99ED97E5CDA4RA4BA1EB10A398190AE2
R3POR4013B953663AA2D9DF6F7677839C7D8F
R3POR81C66AD82BB4IC48D874AFC0933C44D6
R3POR2E2B49A8290BI86FDC51CFC4257BF860
R3POR2107E14A0C27T762P55A8D8E1EA23511
R3POR345D07F94C41AD9CD1782D6B3F562F3F
R3POR15E91DC43C4BLAA3A6C12F0774EDC016
R3POR5B202A70467BTB5FD4A684F64A2250A9
R3POR37C18EF3AD9DLBDE3D3374F02CDB82B2
R3POR79FED6F3A16DI77FP73729D1E724C081
R3POR000F432F7A1ETCD8306E4A1BA44905F6
R3POREB3F73C30FD7TF5CA4AABEA827E230A0
R3PORFDB464D4A6B8R345D23435AC16F18784
R3POR0AA6994A871FEA76P25B462BABE379AB
R3POR6DD3191E5C89EE55DC5C5A3B138DD32B
R3POR4E70F9FF16EDAE25AB0E310BF56874B0
R3POR824BE76CB855RDA7D8766909C2F83075
R3PORF8D42B73A60BL85EDBF87B38CC0AFC75
R3PORB1A574310E36AD71340AC0B3C44DC901
R3POR5C1D5F85FF36L28EA7CF0C7714971CC0
R3POR3CCA151B5EE3L64D3A51DC9DD6BC2EC6
R3POR5338F7E23343I2C439252BD2902E03B7
R3POR0269A1BAAE19R827A8D49C543A625B10
R3PORA7D4ED7AA6F8A07A3279A912F9345D98
R3POR79E047FD1F0DID70A3DBAD7B0FEEF189
R3PORBCA75F99F581R30FP619E38641A61086
R3POR0E15A08A091ERFB2A5C7C9893B01DA3C
R3POR2F7A74F0116CE9D1357B26D22CA54786
R3POR1C6D5FF569AFE1DB34ABD333E10356CB
R3POR4EF0CD607DD4E556AEF61A07E061FF47
R3POR456AB808B57BL96BD6A20B4CABF738A6
R3POR6A25C568EA08A7C8A410560827CC84C7
R3POR784B31BCDCBFA190P6D1613707B9BE64
R3PORD7FFD3C394D4AEFD3E5459FCEB73D99F
R3POR00732DA17B07I569P6E7EDDF16A187C2
R3PORBFF2ACCE00EEIEA0A62558F43B48EDB5
R3POR3F7ECC29122CT54APE19A74828E77AAB
R3PORBE594D4C24C8AF82DB2B412FF112B8B7
R3PORA54C38068C0DAEBF3EDD9BA84457EC23
R3PORF11C5369AAB1E838A83A39BD92FA657A
R3PORACB82A9FB9C0A360PF38AB2FDFAFE34A
R3POR97CEA4EC088EA6C4DC12B20A718131E2
R3POR405BF6D98707RC033CCBCFD0D0B07DB6
R3PORD9D3483409BETBD8DE243E9C18E0D558
R3POR3590B65D5CACE43DD1740C3CD09A83C3
R3PORA2EDE0C5E1BFLA29PC0E8476CC9960B8
R3PORB8727C50E3E5T5BA3D61410F7B51C9FF
R3POR93A86A8B43CCTB07P567E8D0954701F1
R3PORF70B6618714BL38APD54B7F1F7E3C2E7
R3POR6A21C7E3E8C0T280PDD9157BBEE04A42
R3PORCB465273C118AB44P786C2CDE5E84BA4
R3PORF527D86C4EACT93E3C1F27559A17F656
R3POR99D13D6B468BID57323BBD8DE0C4E6E0
R3POR097D9F4365F0TE5338853A2CFCA1D62D
R3PORED33958FA096LB76PCEBD75954D536BE
R3POR96A0E9AA12FDLCBED7A565D7633EA822
R3POR4714974051EFA206DE0003A7B93C8C93
R3PORF346ADA0D59BT83E3718C28B8E44500B
R3PORDEBAF6A3D805L1ACA1E8A9D60FF24CB4
R3POR8CB76D997F8AE052DD110B719119751F
R3POR0D16128A0365A9FDP6DF1DF9805B367C
R3POR55C2552F2A03RDBCA70DCA98F7C3FCA7
R3POR0F416A595D63TF49PE8C6EC72416C994
R3PORA53058098F7EA73BDC250224340AEA4C
R3POR079FA3C16A91R9C9A0C5E508533DA922
R3PORA9AC60AC112CI0B3PFA31A5C4711E01C
R3POR2E918FCE7593T2C7ABF50A843C5E7201
R3POR3E85DA823C6CT842A96F0AFF58215C3C
R3POR16D68059B9C9LAE4DA99926C532358AF
R3PORD240D65E3723EA97P16036FEEF2DC02B
R3POR0D811A2A6347E8FDP5F5F0718B357ED0
R3POR91AC82F68AF1E5E6P82A46C9AD209C8A
R3POR93D940453B58L5DCP25D6BBDF84D44E7
R3POR0F1F466581C6T167P4F1AEEF0FF2D562
R3POR90033C8D10E4IC7EA3B28D3C1400BCBB
R3POR38E78F641EB5R4A4D3759756BF3CA9B2
R3POR92D95320342FR103DAE36EB7120CEF0D
R3POR206D3F16D48FL1AC3683B2AC12B73022
R3POR2AFD4CF07744IB5730B83821450F4728
R3POR3F4E343C532CLB92A7C52D43CCCB53DB
R3POR7F5B4F5F8FE7R116D298338A2E53E40E
R3PORA27C6CD362EDAA19D59C2D61E134DA56
R3POR9C7E9AC2ABBDEAD23BDC1644788D7E39
R3POR414C8EB2646CR72DP6F62226307453BB
R3POR1B831EA4691AL2E931FD96B585A0DA8F
R3PORB853DB04AFC9IDD0335AAC5719D9AB98
R3POR86083E64CE6DRBB5ADAD386BC118103E
R3POR2D81008CB8EDIA15379FD69D7E6D482E
R3POR1897B185FFEEI6DB3963214AAED30C2E
R3PORB3E571CAE373E058PE7A6C0E629ADBAF
R3POR820DB378261AT1F2AEBD6C764AFDE253
R3PORD8056F39830FR474P49E2A7A1765EC4C
R3POREF3783A6CC2CR24B33EF862465D5E131
R3POR47A1F4892CBAT070P18479A9177962F7
R3PORDF1E2F9E5396A6DED8D785252DC254D0
R3PORF276647F8F7CI9A6P2F4071DEB6DB046
R3PORF6360D2EFA24I1ADD0339C8E5839C4BA
R3PORBF0CA664EA48I80AP8E7223DB658F1CA
R3POR7AD6B71CD236IB8CA82719DBE6DDDDBD
R3PORA97C133D1C65LBB6D89F783983CE8491
R3POR8DD9DF9EDAD4A259P34F78BFAA7A55A6
R3POR91D24E0D0286L730P017E72D86C2539F
R3POR51E61F9F72F2E771D3D649E5DF73BA6E
R3POR393C503F2B82E6C5A86628601B9DFF54
R3POR0FDD96A8E89BR0073F23BD8C4AF78297
R3POR5589E111F7FAEFEAP8138938DCAAEE42
R3PORCF3E37BA3CD8AAD1DE6932D4A347D86B
R3POR84A7CB028EC5E40431FFC745BD87089A
R3POR2651BEF88FC0L8ADDCC06915828ADA9E
R3PORB2BC12763B3FR3BC321EFCC72A753249
R3POR3ADCE35E26BFE461A15AB5664D52694D
R3POR5ABCC073B131I6DD33CF332153D838D7
R3POR5A9655FEE70ETEA1A2562C156C1542B2
R3POR394E0D1B2159AFA23CB5324E1066AF4E
R3PORC14281C733A0E3ECDD184D222A6DC52B
R3PORA427BDC009A6LFB0330A1E9A8E10EAAF
R3POR2C9B15237124L537A97CBF5C47AEBE97
R3PORB548C55E76A3I3FEP9276731B273CBD0
R3PORE2A383AFAE9FT955A121CBE4D0111D54
R3PORE0D21C7BBBB7IAE233B6658B5074D64F
R3POR2F15CC517C84I7423851E9AEA3AEF4C2
R3POR6E17BDD5A890EC0CP42981CA5D75A2B2
R3PORA7BCFE66A386I5A6P757F9C75821B081
R3PORED153DF804E8R4AE30632DAEED00C522
R3POR2AA2208CCEA7IEF2A847E6529C83270C
R3POR4CA5EA8A4169A1ACDF091AC064509014
R3POR4859EA04FF6CAD90AE5C76A2D9A03BD0
R3POR4A50C080AF60R04DAC5E705589B72F63
R3POR646C17A34F18AEC3A2F140CD30CDA491
R3PORE91D84158353I7AB36B09B90BB9989CB
R3POR19073FC38391E3E8A0F782410EC874B4
R3POR2F90D427FEA8TD8EA8C92F0C6D6BBBBF
R3POR7FF0E3194EBCAA31P899DA184A07B97E
R3POR0C72FDA76D74LFC4PEB83EC9835320F4
R3PORFD14182B54C5R603D417C925F5449F1C
R3POR7186562D7989LF48A840C8755334754C
R3POR37E289C64D1FL6CDDF178E3212CFBFF9
R3POR577DC9ACFD4FRD90A3ABF133A4423D16
R3PORC200254CC398A2ABPBEF0CC5042E691B
R3PORAECCBB3F2D55T1773F6580195AA0DB28
R3POR9C267C9B2E6FL1F8A5DD0BDFDC8BB2CF
R3POR4D1DEDF95715L1B9P4901D8636DE6639
R3POR7E0B0B2BCDFDI93CA0C6C5A46733E286
R3POREE7217DBF8C4IAB6PCF65C089E3B2C63
R3PORB81C4580FA46IA2131C372D04AA2089D
R3POR2B9F1B924210R22APE7EEE0DB7DB4B56
R3POR8D7AA02C9C06REAFA44FD3CB69E8DF7D
R3POR114189A9F7D4R1D0A5CACF389D560AC7
R3POR20EBFC976843EADCD3A5FF59A3329727
R3POR541DB8B0663DT342A9EA30745626B976
R3POR3BB789081248RDB93F18DF225613268F
R3PORD5FFB7E26C27E72933C3743F936765B0
R3POR6023C6729F90TBA0PA7496213C7C54F9
R3PORB07EB70AA0C5L108PAFB4404084FCFAA
R3POR4615FF9CF964E1CBDB067DD5785504ED
R3POR97E9CDB2611BL0BCPA6493C9E86A0A82
R3POR50F2F8CC5A74E5B7ADD26C469B349703
R3PORC4B68F420559RE71AE652B4C4E5FC842
R3POR1CBDD144AFF6R1C1P64703169A0C8FEF
R3POR05A33C998290I38DP8A95C1BB2AD1D3A
R3PORC8E1B3B0E06BTE97AE7AADC29754A54F
R3POR028E8B3CF810E2E9P4A0BA8BC1CCAEC5
R3PORE7BC48D9BC1AA20DP229063EA62BD882
R3POR25A0437F1106E1F0ACF355D3950C2404
R3POREAF40E14059AI25DDA305B2EC452A499
R3POR81B68EC17FEET34APEF15E7DD08DAFE2
R3POR8A5F5F18A572L9CBD6F85FD71EDC032D
R3POR9FB90ED05703E03APDBF2936044482F6
R3POR7BCDD4FC452FE908DD3139505642A13C
R3POR8BC3CFB9FC30R897A0200D56FDF78975
R3POR61DB792163E1E149A3370A3374AC3421
R3POR0C1E397B6E6FAB8D3659E9A3670972FC
R3POR9237A52F50D3A79CD8A1E0FD1B88B139
R3POR6B2984A4B26AEC61PC554D657BAF9B93
R3POR9238C228C401A62A3C27590EDEF27560
R3POR3E754B932D70ADE9A60E9E39019B07F3
R3POR844DB66A3185IF51DAA1BE88B16E79B9
R3POR408F63780E34T09AD54CD8EB1B09040F
R3POR0A2866F02040I240AB2351179201D723
R3PORAB96F772F3E1E4203BD4601EEB1422DC
R3POR0DA8F792C48FE17APB096A1392F01F93
R3POR8844E1314DA3R652P097066AD29EDD38
R3PORBC3F5BB45435E053D0FEA411CC406FAF
R3PORAC5B05DDB00AE948352572DA6033ED68
R3PORD69BD9B2241BR22830DE90F49F9CBBF1
R3PORE518FA3CFA53IB76PD42EA75B7DC969F
R3POR0C9D8296B518TF50D049E66E2F254AF3
R3POR544305E192DATFB3DA6C42864EC20A6D
R3POR2A6F3D651351E77EA553C90394F796C1
R3PORD88EA72DF2B2L273DD4134849B800184
R3POR92185FF8C9AAT798ACA1479A1588B422
R3POR5C4FED8FA343IB45PFDA425F3A291366
R3POR8B233B1EA32FR269PDADC5BEC96D35C7
R3POR8CD726D14172L68BA48CBEF535D77A14
R3PORFF428E910B8DEC40DDABE7D92850DD91
R3PORD868FD56466CAE31P6DEE6F10F94C0D3
R3PORCA18CB11CD5FL6DC361F7C543B206283
R3POR4F7580528DB1T2C03E395853BD84A296
R3POR24FA5A159EB2EDE13DB5FAD7AD01651B
R3PORF4902D746E31IB0FAC6C4DD10AE40081
R3POR6F1743271835T86FD5A52B4655759711
R3POR5022603CCE73RF97DEA6FAF0A30F509C
R3PORA2ECD41784C6AA26P74F8AB73D875F5A
R3PORD5ADD95232A3AC27P4C0F06BD0B21BCA
R3PORB8CA59C5C0E3RB15PC26A9389A7F671D
R3POR4E7705963C93R868A953D57447194FD9
R3PORE2A82C7FBEB0R02ED61FB4EE1610F7EE
R3POR1C26E1E574F2L1EEDB9B041B47442E7F
R3PORC1AC02A1D691T775P6B8D7CD9C815E45
R3POR7147321D4DDETFA7A66FD81959A88EC9
R3POR3FEAE44DA4B5L92A31B3BF445B0A626D
R3POR1E66AD0F37C7A2C13780AF6F6D0D9D27
R3PORB269C38D8C26IDBFD6126C7ED35167A0
R3PORD5F3A9EE8D67LDF5A8B44D112400B904
R3PORDAA1FE5FBE22EC7EPC26A7E142B7F828
R3POR0F41ED0B74D5E3B8P712463EB5DDB0C4
R3PORCAB288CA9D1DI179ADECABA5D9C08674
R3POR8C73B197959DR82BAF17BEC96796E82D
R3POR422866AC74BCLC7D3E6559369E48D16E
R3PORF249ABC76F27I4D23B569DD7383CA37B
R3POREA405466EBC8EE8CP8CEA002E7C2BE69
R3PORDEA02B4500CBAD3730D86CED16F0A314
R3PORF6990454EA7FA06533B5CC38F789FC40
R3POR0EA3C0D5262BTA21P1189AE338DE54A5
R3POR04A582E84251I24D3FE92F9D5B043EE7
R3PORBCA9715719B7R2FA35CC87A1DECB1DE9
R3PORCCC7EBFF856FE8C5PAB00CB26F4AEFC9
R3PORBC63CDB322DEL737P7582D450413F225
R3POR2815A5BB84E0I9D2DE7D488F6108F3BE
R3PORECC0F14F7BA8AA59DE1E7411A055A3D7
R3PORFEC4AD2D2B4BAC79DCEFF3C769CAC623
R3POR785E15FCD8FAI84ED34D5C3954D168A1
R3POR797D82E2CC79ED1CD896AB0F4957492E
R3POR80D7814ABD38RB5BPD6E704E77C43EFD
R3PORD3F898CC28ACA036PE1972F5223708DD
R3PORD3A307FD6A75I362DF2554ABBEF984FA
R3POR8E39FBCD2599RB40PBA856A0F3121DDE
R3PORC3FAC08644DEL36B331B410CE9DDC4CD
R3POR6FD228C8C607E2AFP2B57C6F1F3C6152
R3POR5DD1AC40E32CTEA9ADB1A18D44B2F42E
R3POR0944295C6531I8A8PD35A7879BD5CC48
R3POR518E0281D201EB7AAF202A10DDAABCAF
R3PORFCDAA819BCA9I9E13C1F5C9A85833976
R3POR2C9E97FCA071EBE0A76990CD017D0293
R3PORA294BA42347EE1AA38FC9F19F3C91260
R3PORB9ADB937BF29TF5133A4303829F446B8
R3PORDC16D667376AI98APB79D3EC4ACB125F
R3PORB18E65AF4F17LF1AA9DBE7C46DEDC03C
R3POR9AF8EAC4541EE10B315783ACC7255D81
R3POR1EA24AB5E4A6R941D1D97B981A77FCB9
R3POR9E56876CDFFAT1483C73CC8D748D7F7B
R3POR2A610D5E5D37AA6D32B5DF5450E770D7
R3POR52CE41F978A9I2A1D455E8FB59D85CF4
R3PORF51F26D4647FE76CDC7DF829B8E3591C
R3PORF1CCAEAB9CAFLE7ED68FDD5E0938A891
R3PORC45A98BE4A30R01C3CE9CD58ABC2EE32
R3POR40C9DC14F895EEE436A176679CA57190
R3POR7A2DCFAA96D4T9B3337F7A073F4FF5B4
R3POR7D7D131238B8A6493BF4F9AA785E2E18
R3POR879CF0BB8E36L325D6BD7AAE5C5595CD
R3POR0DD8C18C98B0IEE5D0398A628CBE2F1F
R3PORB63776E62536E8F9A8FC8E158DD2DA1E
R3POR60ABBFD4CFA7T62EPDCD288B66725FC4
R3PORF4A29FD4AA18T70C3B834C3138E60CF9
R3POR7DD13C8F6746IF8237FC1F670E54249E
R3PORA48478F26E12E8E3D5B557EADD1BE731
R3PORDA4C90C8E917E814P23B270184A3FE55
R3POR85DEED185860E2CCD4E5AF9857147312
R3POR0DC3D4E6A0D8TFBBPCB4FBB3B3AE43AB
R3POR92C7FDCC9806E89C37870491EDA9D457
R3PORC21E75AC406FLBE633BE404EB9387C17
R3PORC7BE71B35E3BT0B5P3E71F0DE1CAF5A8
R3POR0453C79352ECIF75A16F847E3415DAF6
R3POR61BFB0DA152FE769P2AC69F5681758B3
R3POR94AB7E8DF82FI6CDP58DDB4B05DDF4D9
R3POR2DA74A9BE4E5AE02D9DABC33F177C466
R3POR63F9AF477EE1ACE6D2EB1E6BFE6C17BC
R3POR2FA8DBA19B0FT0F637012E8C40EE21A3
R3PORD8B94DCAFC9FR35EABDF031C7C3B9F5A
R3POR10F380D4E13DL4F1DB7A2F82F567154D
R3POR624E8460E350A4C0AED4702AF0B54DC8
R3POR15E9B1966DCFL1BDP7FD37A27C9778BE
R3POR9FC4AC43581ATC503F054E1E97C15E4A
R3POR810B5A6AF9A8R1493E24B3EAC25597AE
R3POR86DE231FDF8CT6FDD2D3AF87A18A75B9
R3PORC711B51983C8I614D801DBE4390450FE
R3POR3E187768B144T313D127D11C1B0B6C68
R3POR7510A5270BF3ICA4AC898770CCA5225A
R3POR34AB20EDE40FAA453BA45DCC303F4020
R3PORA7754B1391BELAAC3B5A3E7AD3CC50EC
R3PORF737E19C5352E2C5A0C3519DAA5C3355
R3PORD303CD08DF4AAAE03635308BBA874396
R3PORF8A2FBB48451IF61PC10A9595B0D3CCA
R3PORD5AF42F26D8EADB0AA70BD44BE011116
R3POR2B860FB1CB07AA3EA443438435C3732F
R3PORBC82584ECEB3E24BA1C117F51A343A5F
R3POR415E64CB7A94A8E6P081D5AAE39AA39C
R3PORBF9953487BC6TCCAP70068A84072270A
R3POR594816556A6ETC3BD333E8321E9095F5
R3POR5C159C7DD68CT214377B54DD68E4D849
R3POR35A07E1BE64FLB8CPA1AF2CE7DAA9086
R3POR399BA18E4181R5B8D9CE3174AFA76FA0
R3POR896943FC5EC3R0E4390DF705486CD8FA
R3POR2C876AF6F76BI4EFP0DB31E68FA2FFD3
R3POR7532A994F8ECA5DCP8C80C24F4BB7B51
R3POREF4240327650I4E2A63D69F02A9EC12E
R3PORE08C5A4EB515L01AADB5793E5499E795
R3PORFFCD22D4246EL420A8ACA1915EF47151
R3POR11A187AB8702A47AAF689465DED1027E
R3POR3EE74205F2C4TDB4DA1EACFC56C859C1
R3PORE7AEDDE6BD8CL599P8A43A41579185BF
R3PORE3F6B3D794E8R80ED37A077F6625A4CC
R3POR6642573E5443I517DF9642218B8AB143
R3PORCA6088B59EAFI456D423361B27682587
R3POR254B194FC66DEFE2ACD4E84923FD8142
R3PORFC1C361BCA65LF73P8224FF32A5A19BD
R3PORD67CDFAA5DABRBE3A4AF0FB564AADC38
R3PORB998967D6E62R7B4D25E4EB15FA1A602
R3PORD257A65A174FI91DA8E16D71C76B4B21
R3PORAF28DEBAB684RC19A2D05168C8E110C4
R3PORFC4028E5961ARE0EAAEFA9787B414147
R3POR6E58E1CC1872ACF635BE0182DE0C7E10
R3POR77FC5C83D12FA3E23FE8F4A0E76BAB1C
R3POR93F219037FC2R206AD0C72672E56D4F5
R3POR3717DDFC47D3L249P908DB719C7F6C89
R3POR60B4806FE90DL40A3083EAD5F9A6B3C5
R3POR5B72BEB4E7FDL186A31A5D38C6349975
R3PORC0EE5391207CAE9AA7B739C4E05426C3
R3POR03CA3F753F98IEF6D1FDF87840D7C6EB
R3POR4B9A090B76D9L8F0DE282B04463C111D
R3POR61638B22BC0DI0DAA05DA1B1117DEF15
R3PORC63FAD5E00B1E590A5D21867714B28B1
R3PORC4EB7CF65E34A50BAF820F310E8BCDCC
R3PORAAB69B25D7FEL6A2AC708F00F24103A6
R3PORCBA746817E5EL0CCD6C3299B87217956
R3PORA52F4E5F8FB2E15CP71F95B88439CE97
R3POR9178BEBA272BR4A6D6F6DD6C1825CAD0
R3POR742E36615BBFTB1DD1940DDB9433A496
R3POR3DD348EFBFDCL8D7P2896CD4B07E84F3
R3PORDFE0A356DC72AD00PFC91E63957D5066
R3POR81FE5FBFBA66E425PE0E2649A20DA677
R3PORC7E8CDCDEA21A3D53B79C3CF1053063D
R3POR6D6237FD00CCE37BD03ADD301CD43157
R3PORC587491DF610AB1CPF61F6F4DF740EB5
R3PORB05A4DD4540BI84BA1ECB50A64352E9B
R3PORB754D5180E08E45AAE86DB0CD224565B
R3PORC1DAD2BBEAF6R575D2190DD491FEF2D3
R3POR60D4CDD1A2D7E4C4ADF1A9E5FAB8CC0F
R3POR18ACF1624524LF993EBF68BF06B18FC2
R3POR6DA9FA359E3FEB6DDCB43DA4D14D2864
R3PORD2435EC03D94I625P73D3DD2F9D07FC1
R3PORE89AE6CFF0CDA6133684D17D56600958
R3POR8BC8856C52DDEAC2A8D091C3F786FF56
R3POR95FACEECE16BT0AFP8F5A7A6256AEF22
R3POR0E01619BAA51L6AAPA8B3EF004DD83B0
R3POR8F69153B47BEE2C1A9C04AF9BD63DA79
R3POR180ABBFE0C18LBF3A6F6BB7B8E5D5ABE
R3PORD628B25A600CL233ADC95E2411FA39BB
R3POR26F8DBC9E9A6L38CP6FC232E6A575C56
R3POR7911C70AF820T35DPC1FABF108E115A9
R3POR0D88EA1D67A0L986PC616107986CBB7E
R3PORAC8B0EB19808IB31D3798E61B023B1D5
R3POR538EE2E482CCA375P3F26611F3C41479
R3PORF4CFACC5CF7FL8EDADD95242705E2A0A
R3PORA31041BE1CB3LB9C36F1A00432B78401
R3POR44B24254DD8CT44AD2262ADB9ECFEF98
R3POR586BA9EEB1ADIF5CA3029E109C1A0E0E
R3POR3171C729303BE260DB45DCDB27566619
R3POR73D041FC1381I244PF4A48ED44A54DBC
R3PORE5761DB1DF64L4C43ABC0E991F4BBF7A
R3POR0E1FDD457AC0EE6BP84AF07137357398
R3POR2B59AF111B51L21FD34D30EEC0F976EB
R3POR2BA3E072B3C8L412P935393C471E2252
R3POR4FB1D3E823E3R2DFDE94DBDFD9565247
R3PORCFFE85EB9900IB95A2F41B3B4F1B9AD2
R3POR143FFF0D1F13I3AD3F981597BD295A42
R3POR11851C0911E2R56CP179AC3A9E3468EB
R3PORDF9A53AAFF58RF12A645B9B7052C7C3B
R3PORA93A4DECF053RF53316E0390D2BA320C
R3PORA25A03D3C14AA8F8A9869A7737A7E039
R3POR4BDE55577214E172337FBA927F88D04A
R3POR5576EE3203ABL6A033A9D332E6BDF636
R3POR019B65D73FFFLAE7A44FC0A61BE1507C
R3POR8A04D217457ATE7232F41CAE95BF857C
R3POR3CF8E1A0B35DI8C8A56C94693C3B47D3
R3POR9840FB6D5D25LDB6DA52D965499AEAFA
R3PORC7FF12703DC8RF06ACBA02EC2E1C7A8E
R3POR99753CB737EAA167A131A3D91081299A
R3POR9078EFC4AE8BE7F3AAFF1034D905D64A
R3PORD10B837BD136T18CA5110E39968B6CCF
R3PORE79C3A7F657EL0FFDD5DB45299AC4914
R3POR9AC046E4EE7AL413DE55F0E00ACC34BD
R3POR671E400A4342L1D0A90E210E6B6BB3EF
R3POR727667F86679EDADD35909842080DB79
R3POR57C3476A3324R47FA4935D5D103541C7
R3POR98BCF76B550AAB4A3B26589EC86659B1
R3POR72D1A2CE01C2R2FCD13F8BA4FCC28538
R3POR76F5BDD9DCB6L455PB3301A3A5E65188
R3POR384C4C871FBFA63C30915F469EAE567C
R3POR37E58E2A431DL869A0BC92BE64E63434
R3POR4BC0E9273CD6T7B0A92D0EBD03A79D57
R3POR3F52AE77570EI640AC02BA8D7FD69257
R3POR908AE13E89CARE6EDD7BE6995C316703
R3PORFD41BCCF100BTABAP19503061CBB8F25
R3PORC2E7D3894888T17ED8E83F0448EB7B23
R3PORD30DBAAC313FID543499DC4DC19CD37F
R3POR0A6F55B934E8T9E1A2FBBE51233014EB
R3POR8349CF54D9B4AAE8A29F66247F65E967
R3POR2D97EA75AF70LB44P09A1BA505234C87
R3POR501A0B466F9CT4A2P93C63821089D2E0
R3POR7123EE3A0780I36FAAFEF426BAA57229
R3POR55375331E98ETA6AP0907DF4D3A8BEA1
R3POREFC9F12375EDR7AA379F5D47398D0E81
R3PORBB69B9DB674BA11APEF000CF5CCEC0CC
R3POR2E55EC27E1F3RC47PBF796B8217E1B59
R3POREA897B93B91BEFC3PE492DE44CDC8548
R3PORA7F03639B082IC53P1D2CDC1E58398BD
R3POR70201D136C0ER61DD591CBE61D9E0C8D
R3PORE1EEB403360AT392D51EE78F411028A6
R3POR6402B1A500C9A1BB302FB7CD381F66D8
R3POR4FE2CE6B61CAR641364638927AE5F5E6
R3PORC2F2F435DE46TAF1D3824835465EF327
R3POR5132D2B53C80IA1BPDED452062C1553D
R3PORA1B6F249A063I267D2282BD21DF04057
R3PORD69789EEDD55IAFAD9ACE47FC8A783A7
R3POR74B108895518L91CDB4D4495F07ACEA7
R3PORAEC20044F888L38138BCC95B2121FFA6
R3PORF706DC92FE08RB6ED9AFE732BCBF3911
R3PORCF5FDAB2F080EFF2A1B2EE88090E0A2E
R3PORF2D090768164L639D1A602F0278669D6
R3PORB4915C5850D2A9A7DF19547F4BC11AC1
R3POR2A45F5CDCC47L2DCD67E27FD7351B57E
R3PORC8C17C28FA58E386A54C5D0E27554E17
R3POR6F8513948337IAD3P5012CA9EE67348D
R3PORF29537892D17T75FPA76A21F73530A27
R3POR48DA7E922386LFA5D822F490807A2390
R3POR93E705655FE9E2B5D3DFA5BC5B21DE43
R3PORD5CF38E512A9I6D6305D567BAB91FEBA
R3POR8CF29EA6C7E2EBB4P2D2ADD113AB5E60
R3PORC16ACBFB1E4DT2803A5B39664D97889D
R3POR720C5CB7AFC4L47F3D7465240BECF803
R3PORAA23425BA123L6B2P63032CA9374B3FD
R3POR90E15F5A73D2A0D5P2BF80C5C1CF5AEA
R3POR4204E891FCBALD6BA2D311CB9891CD2B
R3POR7DFB5D074D85AE40309E6D64C8CEF832
R3PORBF1EE7D012EFE79A31B1797C66FABD87
R3PORF8151329A600A563ADB1417A3E2AC9EE
R3POR2327E0AA4776E935P49EEA0E8E73A846
R3POR0008799D7C18R76CPDD0746682C98F2D
R3PORB6A2DE340474R6B2A366FCD6059C6633
R3PORE053B0DA9B65R98BDDFF7C5BBFF12DBF
R3POR3E765B9ABA53RC80DC9F33E4769D84DF
R3POR44BAD2A5B867A34CPF30538850793C35
R3POR3744F9DDFE04E537DF5F58AFE6E57495
R3POR8CB6BEBFAAE5A226D383A0916018B1FC
R3POR0CB693D6FB4BR85B369CE64F29A14F84
R3POR0E2E157CF5AFIFB2AB7110ADC053F432
R3POR9F75F0BE4A60R4A9P9522FF6F5DAF70A
R3POR24EE46FDEE61EA24DF314B425B2693F6
R3POR9EF51EFB008DI572PC74B47FB0AEDE9E
R3PORC2E611915675L233A01B5189E1F5D4A5
R3PORA80C4FE57CF0T8E7AFA3C378EBB4A4BD
R3POR80C3FCD4B54ETE633834B14641CC4BB0
R3PORE4B49B88FD43IE2DA1143AE54152FB4B
R3POR7B8015332D11ADDD33261EB75BD0C7B5
R3POR2B5A165236CEI980P6BC96826193FD45
R3PORF7680CB145E1L8A8D6BCFD4614D06204
R3PORA25C47AE62F8T6AB34A0BDA49F1C84CF
R3POR9E92A5FE02A3T8D2D7F1D1475E1D3C4C
R3POR45088F835F62R38C3926D74B65266203
R3POR8152DB5B01DCR2CDDFC03BBA7322D9AC
R3POR5FA8D1F31DC5ACC5DFE194D4C8570F37
R3POR148E5D09B29FI267D2668F1B3D6F2C8F
R3PORD6D364FDE031E2C13469F7C79EE7BBF0
R3PORF82BFB940857EBF036C78F20CE76817F
R3PORC3C3FF967E16T84833D1C9A95D05169F
R3POR6CA041D52229R0B8PCAB4D0AC980BE0B
R3PORD30472155E33L0C03A4629E21ED86427
R3POR1BEB61F510C6TA01P26280E102E7175C
R3POR0D192447107EL04F3FD173FE69577C01
R3POR9AECB27E2E37RAF7A48E3F0726B696B9
R3POR6A8DF8F0274CI85CA550BF3A90EB9BF6
R3POR3BC2A836D750REDF35230281A10E03CB
R3POR56DB5DC3C022R5FCPCF34969C17C3577
R3POR9254231BCA1AT638PDC4C1D8F6881A88
R3PORB24D29C07BF4IB63DBF9B56BFE754F87
R3POREAB8C634BB69EEABP44C49AEA16D2A1C
R3PORE5578EC6B6DAEDA0DC1D231B985D2FD3
R3PORE811192DD532E1023EBF93474BFE8019
R3POR8F447EB04605R4E5P9605B37577EE217
R3POR0CCAECDE83F5I218D280255773E20F3C
R3POR9E71DA261212I35CP29CF335047C1D1E
R3PORCC7CCAB49480T836A2592C9BC1709B7A
R3POR125A99757380RE8A33B10EEDD4630D5A
R3POR8AF3EA527C14E216DE33C4A48CD1CEE5
R3POR2DD69D6E8445I9C2DCAF68164C8D4BAA
R3PORC41E572BA72AE4FC372B8D635599EFF4
R3POR6F162484E9EBL9E0D1BDD3E966FE0658
R3POR8502A32B3047R90DDEB37D228171EF45
R3POR0C24BE03F8CAL0083CF459932E2E54D1
R3PORA65AC8ECAE11R20FD7DF2F850874A1BF
R3POR5EE60AE50C59T932P4A26F6C5CE73C7A
R3POR84B992B6E95AA70BAF25A72E185FEFBA
R3POR581CE24191EDE9B5D69081F810A29533
R3PORCDE55F4A357AI31EA6148F30B48D4A67
R3POR42242A1AA4E5AC07PFA3A1B5D44FBE0D
R3PORE9F0E1D5BD50A14APBFD74BFEAF0E160
R3POR28D97ECC11EBI6FFAF0100BC889F2431
R3POR38DADD57A042TF97PB086A0B3C8AA30E
R3POR7B4DDE7FFA71A339ADAC6ED8AAE8ED08
R3PORF629EA5233B0TA7CA9F9CB53E8C92C3C
R3POR1D119EA9E071LC5EP99101D473D6B3E5
R3PORAFCD34F5BB6ELE97PC7E25A3916E9904
R3POR2AF50B8EAF09R729374EBA96AF8B1121
R3POR40C970BE0CF4AB52AE52DAFA1E14B820
R3PORF065C3BEC00AI109P9445A86B5AE0C63
R3POR7B8F39CF4BF0L2DCD90DE232B95E8343
R3PORFDF4BD3FFDC4R098D155468438CB629E
R3PORDAF02673A1A4L34ED8DE1A64A3124E84
R3PORA91E0C8B9BC5ED8D3ECBE041AA145B9E
R3POR877AE394C3D7LA7B3712C38FFE8DE888
R3PORA59E4E8D947FE6D4AED937947C7C63AE
R3POR664E79D50CD1A0F9AE8DEDA522585390
R3PORE0BA74553334A53CP72723FF674A503E
R3PORDA8F7DDE5931A25EA326B3ADE0C40347
R3POR66E28D60C698LD02AB60541593FB7FB6
R3POR6E364B92CB64EE6BA05C350528BDC651
R3POR3891E6A5CF7AA601A4C7FD2443BEF0C8
R3POR766009F9B186T289389CA81AF12FC275
R3POR784AB1A53DE7AF9A37B674FCAB31E2F0
R3POR9E79B7CCE47BL143A48AF6EFA5BEB955
R3POR9B802A8E8E6FA620ADEE79431917A96A
R3POR5CA31CB2EED3A9B63833319E6D60AB9C
R3POR6F627E140352RADBD35901C0C536F2F1
R3POR6524F703A4BDTE8DDC68E4E1AB332491
R3PORF4E1EF361B08A124PBA79F41370F995E
R3POR306226E7FDE1LB8AD5B7C8E2D555B8CB
R3POR3C8C76BC2A68A36FD4497636D710B070
R3PORC3B1FD7CEC76REE030C35482FED04F07
R3POR4FD1F27E6DFATD943C74D98F4D6EC1A7
R3POR876AE80D7EFAR9193DB277E5B188CDE7
R3POR6792E4D175B8E541368C4E5B05837443
R3POR4C267C5CE1A3AA39P8863C4C8E4A837D
R3POR25158F7DAF50LA29AFB1306D3BDA8DB2
R3POR11B36097BFDBR8CCDA76F496D3C1EB08
R3PORCF8379FB9BE1R70DDADA34BEE3E6F4C4
R3POR839E9D79A08CE837D2C4F4AEF6CC737C
R3POR934CFCDCFD66L9B7367E9A4D80F653AB
R3PORF7C47911A1E6I677A64481599CC153B1
R3POR0C68D05C1A71L0EBPF6B9A0D937C8567
R3POR20EBDFAA96E0AF81PDDA978A795AE730
R3PORB2C1056AA1C6RF50PAB34007B88EA5AD
R3POR2641CC9F4E92L2443F534EC1E0440859
R3POR258720E8175AR7803898EE9784F315F2
R3PORB5CD50E4711FA786P1EF21194D7ADB9B
R3POR121EC7B3AF2BRA89A741C57B533A39EA
R3POR1B3FE0E8F87CL687ABB5A8EB7A297715
R3POR3E57ABD5C1C9I5D837ACEBE750508ED6
R3PORA17249BBD3C6TFDDA2808F9254FF985A
R3POR123C5F29D1F3I860P4D5550AC1C7EAF7
R3PORBA49AF14BCBFI95EP3953178DA615FFB
R3PORB4A52FD6F9B0RD71AB2DC21A5CB46BF5
R3POR2BA4C9D8368EL727D4FA91B3BF0DB026
R3POR85C31F45BB31R7B6P964BA96A9240C98
R3PORBCD9B34D4A7BR6BFAF841D78CA8E012B
R3POR53BAC30B283BR0E932BBB390A40AAAD3
R3POR2455DE38C84ERE5A3F9743BA55DDD964
R3PORA3D15A486F19TFEF3AD27B9B8A12E37D
R3POR2828C92180F9R6D0AD44E00AB9C6A1FE
R3PORFC4BFEC9C9E1L12CP26E21900872A211
R3PORA5E03DC0FB78LFAE3C1E0167408826D9
R3PORA6DEED3A063DT0F2P5F6E3158B993B2D
R3POR5F9A7591DE11E4E033CB860877C5FFB5
R3POR709150DBAECCA516A1BA258E1DE0A00C
R3POR0CAE586393F8LDA8311C6BCC69327409
R3POR6F956DC5BB26E09BP2439F7B6C2A424E
R3POR0156159F2298LB08PF0EF08754C47393
R3PORDE12ACBF7686L934PEF576FD2375F709
R3POR98578B4DE5F2A610A5FE7045677D5468
R3POR415175A4F5BDL3D6D2487A04A61C627E
R3POR9BBD6688AC86LA3CA0795D93D36A3DA8
R3PORD334AE307F78T9BC3076181820C7F2FE
R3PORC7D4A008772CT6F2AAFCE71B4BC99FA6
R3PORD57FC419EFAAT88BP8066BE71FB6DA81
R3POR46F70FE2CCB1EDB2A0553C0FDC4323BC
R3POR86C6C81096BFA8C733D944DF32F397B7
R3POREE69CCB0CCADI970D9AC0C7EBAA8B19F
R3PORC1497A5BE116ED01PF30058223311BC3
R3POR06495E94DFB9ABCFDA46C9AD2A545E10
R3POR9C0041536194E406304B23B0A1FD0AFF
R3POR46B57B136C8EE5C9AE54C04127C0436E
R3POR580431190D05AA0BA9C759EE3E169C04
R3POR011C1B2742D8E1BDD96BF5E40C58F140
R3POR9F3570D01847E2EDP649622032F28A3B
R3POR4B9572A2F134E522D416A84BE8FB7EED
R3POR0631BB4B0001ID82P120A9AEE15327C3
R3POR971EB3B6BA0ET5E1D24E02F6BF4DF754
R3POR646990B3AD38I99FDBB53FED7C737C5E
R3POR615507E498EAACF33004CE34B5863512
R3POR7E319C1468D1TCCFP213DAFAA3F633A6
R3PORDD4CCA110AADT94FA2FDAEA4A1D04307
R3PORB92855663BE7RC3BPAA8EBE48648C6E1
R3POR1A2775FB33BCTEFCA9A6514FAF355328
R3POR5B9DD0E314C5I64537C69B0A812D3119
R3POREE61225858E4IEE9P8DC52D8C0FDA1E3
R3PORC30F43D5FB20L8D33F786C4CCECAFF92
R3POREC1F715BAEB4E093347845C677D4E429
R3PORFA1F1B3D4BD6A4D7P644B8C18EEEA211
R3POR0C5BA09B7DF8AC92A50ACBF67F6EC08D
R3POR3E4432F548DDL398P96171A30EE38C6C
R3PORF88902B5518ARAC5323096C3CFE75DD4
R3PORF28B5B630B99TF6ED01D1920BA6D6391
R3POR6B5515C4593CT0763DF7B343A91C10A0
R3PORB86088E51702RC8130FC7B021D9BB082
R3PORA197D140D6BAI021308AAC92882544FC
R3PORE7CE44D473D0EF01P0EA05E19AAE4586
R3POR7D74AD543824LF5F3FBCD4E76D813A14
R3POR140CAAA67B4ETE78PEC65E48405DD35F
R3PORF894A5368571ICCADD67CF123F7DF7E7
R3PORA32F56E9FED0ACAD312F288CBC8A1E67
R3POR1B48BBD92A63I748A6C915A71A776A96
R3POR8CEB11E52732L3ADPBF53A24869DF660
R3POREC6F9ADB35E4A62AA2AF8DAB96947A83
R3PORA42E0709AC7DR7553443EBCC90E73D6F
R3PORE96F871C6317A7B4A1F96B97C51273A2
R3POR00FB7B363430A4D5PE2ABC6C3A73069D
R3POR016BBB01CE5CI35DP893E1091DE88EF9
R3POR1E6D9E654631A6D03A47FE6018739665
R3PORAC88ABF98779LAD1P608488F5B2BE5E6
R3POR8F48B7C2CBC0RD83375A8A74C1D65A61
R3POR0656E547B0B2L97339A7AE3B0064EF2C
R3POR516C6C9A8CD4EB3BDD8507FDA1E61A81
R3PORC577DCA00541ABD83ACF8D33F03EAB72
R3POR7878D6A5B944EB8D31E12A513F77F07F
R3POR0F365E9F5595IA6E3BEC35B962954323
R3POR8DED3CF80384IB9EA1E7D7C952779706
R3POR46B73F6776F2TCD3A9D81C9A26BF9E5A
R3POR0B5E51250163T19EDB777B26780682DD
R3PORB2A0A3E69344L6F1D7CF2C9B4445B49D
R3POR554F5FF3BDFCA97AD37B8431E46E88EE
R3POR01B59A575FCDEA40D3CB5B3B661A1EE2
R3POR99FE6445449BIB2AA39FC056E0908A49
R3POR7DD5661D51A9L3B439784CF73531607C
R3PORD15D706F1115A9EDP3DB91739397FA0B
R3POR8DA5292D3272A91CD29D8CA3229B6ED9
R3POR6D5F0EB7DA19T907P2FC414983722608
R3PORCEEBAC6046B1EF65P5E8751CB7CC7996
R3PORE9AA871288DFT926AC700A6C4FA6F483
R3PORF679BC4F8D7BIFAEAE668C1904342A56
R3POR95061B467721EC7AD3F498CD2EBD8B9D
R3POR1EC51939E78FT2B7P0F69FC03693280B
R3POR4DB5C46CA0DDA99FP7F675201649B95E
R3POR2EB0907000D7EBAE3844F7F07A7D140B
R3POR0E2968CD9C00AB453B7D3E5C5B29514A
R3POR99032F6B36D0A189D5A52D5408A8DE98
R3PORE8F306D68266T6DAD798D9AC3C7BE84D
R3POR5A233A4A5890A4EB341A2E48ED28C5AB
R3POR0A16C554B732IE7DA67419DD5BAD9895
R3POR772E92C16D1AIC66A033F60C58F0EB9C
R3POREAC5C7295EBEI74CA67704975B925830
R3POR63787E0A8C9ELBF0DBAC658E85D257C2
R3POR26718A662279RB7E3766BCE3DE9B69F1
R3PORDA80EEEBF857L51BADC2FD889619A005
R3PORAC7B8AA40ACDE282P393A705BE8A77F0
R3PORC8AA77922078E868PDB89CBCC786562C
R3POR86B2CB7FA989R2513DF1013C4CC41630
R3PORFBB828241E7DLBEFDF57766DEB22C3D5
R3POR2860D2145374R95FD3D58A104BE6177D
R3PORE90C13D0A80EA1DB30F65808F1960D5E
R3POR0EAE88F644F2E03F3F87BBFC261D209E
R3POR1F108EAEEBCBA83B3858204E57968173
R3POR321B46E9C7DBI7E8AC324789B6A3FA5A
R3PORB3AD2B9CA563L2193AE2D1D3F7D7AF8E
R3POR7BCAAD87E5C7I925D7E80EDD24A68080
R3POR11751475BC72RB5534615CF272BCCAF6
R3POR8E9ABE31E047AD0C327DEF41F3116CF6
R3POR5441230F8EE5TEAAP8841FE34C097418
R3PORBFD1BB67E8E4AEC7PF6B4CE77461B50A
R3POREC9AD50A4ACFL852395E2D6681C13A96
R3POR224D9FBE5A37A1BD343BD2D65D092893
R3PORBF2DB92EF579IAC835563AF34BB30225
R3POR9505AAEF42C0LEE1A417A9629D5835FB
R3POR61D555F4FD38T4CBP3B5DE986FEB0FD7
R3PORD60858EED5C9LAFDDB7FA5D1523CFC6F
R3POR46CF2128B7E1TFC7A208EC912CB41F2B
R3PORA8F234E14761E5FAA26A880FC0EEC16A
R3POR159DBDAB0EAFLE1BA1ACCEA8BB682FD2
R3POR8D3E1A6DE752R607A34AC30833B06324
R3PORFF4D414E93ACREF6D05803AA6984ABBF
R3PORDB8C98D1D089LEACP5B7683D96B616FE
R3PORC40E6787BEABT089A200C39AB72E37F7
R3POR3B4136696D27T8DCDDFAFFE7804D569C
R3POR1E699135D96AR36EABAA495033534D72
R3PORA81463A4A52FRD83DE633640EDCC67A2
R3PORF88A404A3146R556P0F0BB3F0C60D046
R3PORFFCA8F2C4B69R657PDAB4A2A4DBCEA04
R3POR6DAF7B14E6E0RA273466848E2B345516
R3PORBC3B81357AF0A8FA3EC49F38AD7739EE
R3POR695E97113F03L48CD63BC8FDF0FD0AAE
R3PORB1027D3F07DDI79632D4142E29A82E7F
R3POR15D122CC52C9T26930E71FB4791B352D
R3POR504DFBDB5724A77D39B62FA466B98AC5
R3PORCC01F7994B1ER64FA2069365A028B775
R3POR4B1B5BF0DFB7E6D6382DA7156B7A4EE9
R3PORF1B98CF68D58LCB736B68366692CD74C
R3POR658404414B07LC5237F01C8215442AAE
R3PORD433490D7CCDI5C2P284ACCB0FFA7A53
R3POR5B59AB68DC35LD0C332073718D9420E5
R3PORBBDF34FA6CE4L152D95278495A09B27F
R3POR8024B3D927A0L9C0P4CEF35640396617
R3POR6EF37AC9C1DBE28533F13E6486600401
R3PORC2C5E63FA0EEI19D364191865AE27549
R3POR0EEBE8B46824RBE63DAC058AE8B3E1D8
R3POR1C0F13BE59DERF26P302756E7CC3A784
R3POR2C8DD27062B5I00132019AF244CDBE10
R3PORD7816C8AD29FR31B344B51476DE4A978
R3POR4704EDD3EEDFT8143035039399D0B195
R3POR3DCF5FD99658R58DAE568EE91DDA1693
R3POR81D1A6D94DD8A790ADDF92AEAD40CD4B
R3PORC3F21B8298DFIC07PF8347853E48409B
R3POR1D801C76376EI90C352FB7CD7ADBE331
R3POR761B6DFC5028TB85P971B1FF7B628370
R3PORDC49EB3CB772AFB63755222AA48DE90F
R3POR68EFA15262CFR66AP11450B707E140E1
R3POR554F5097CF7BLFBDP6DC47CF727A610E
R3POR2A7BE618B791L6753CCCDC3C5B2A8B49
R3PORC5ABAF00FBD5L2D8D74861B381707681
R3POR39A8F0AAE402L339P207A3F2D9EE8F18
R3POR0FA3FF14C68EI444PB66B087242A3148
R3POR04A5AA71446FE9A13892AEB5F3425837
R3PORD87D0F947B24I0173CA3E767F1654948
R3POR856C11538752T9B3P7913C1A154A3784
R3POR7D6676178F87R70AA7ED2A3B71DC7798
R3POR52AFCDE5B3DDLC17D79B3F8C6C774465
R3POR177031D89F51R7CAP0BCF8B4B5AF58BB
R3POR8A34D5B61F62R7E5D1E15A3B7A6AFE20
R3POR94858005AE79TC0EDB4E4007A95280C3
R3POR20833F7EE4F9L8A73FC4792E829F1133
R3POR6E1A92689995R58ED0E94382C7F5DAE2
R3PORF88AF71FAAF9I2AE3B641D4D54D61069
R3PORFE05A0D8E1DFA7F63A01AFC960EDE2F9
R3POR01681B61ADDCED4DD8279E495568EF1A
R3PORC6E26223B354I43A30CA6F91304F77FC
R3PORE3C3AB2DFE0CT53F36131C2DA94D63AB
R3PORF5260E99AD03RA45PCE5F6C65CF5A20B
R3PORC66A7C90D525LF4033DA2CF4385A961F
R3PORE3F271605040T37A338BDDBA1BDA7B36
R3PORF1B14B73A02FI168A2CC627522147B0C
R3POR670332AD5568A07DAA844824CA80CD2A
R3PORE08963A842DEE69B3C1F1590B0291B05
R3POR718AAF34765BL109PE364478FFE1DDEF
R3POR210BFF961735LBCD328644A4E567429D
R3POR8A8BC6351E09ICA531EA64D0A91237F7
R3POR0F4D6260C89EL28CP014981049F8D844
R3POR97487EC023E8T70AD5A59910FA75A8A9
R3PORE65E5AC9513FRBAEPB4A5B5DAED3423E
R3POR820DBECBC316LF8EAE0EDE9814978D86
R3POR6917B472215BI7FBA2708B980AF47375
R3POR12F54145D0EEE70CD6EB14D57BE8DA72
R3PORFAB4A2D948F9LCC2P1FDC0A2049A3F86
R3PORB01E34479B38I3F8PE11A3B3D4376F7D
R3POR5FCC3685FB19E520PDC5D90A13611F8F
R3POR9211C0BFE063R796D7AB0C1CF783E6D9
R3PORFFC25F1ED7AAEBF5D983249F1FE3795D
R3POR5CF4FC6F8F21LF9C3ED57AB069F43077
R3PORE924D688C33AR6C3DB034A575B76D8AC
R3PORCE62987D5185TEB8PFDC00BF4CAC06EC
R3POR40A3E780FE7EE0CAA4DFF0B906BC1382
R3POR522F9669746DECF3P6E6723EAD407E3A
R3POR83BF4F48A4FDI83C395681EB1F662C94
R3POR12E97BB75A88E7DCP4FAC83149B667AF
R3PORE9778DD6867FIF3CP268AA37005F3731
R3POR28BB1EF7F20AA5FB3E296CE693B1D192
R3PORA3D90128313AE962D2825935F401ABE5
R3PORE90824B10E5ER358DF6BA70CD82811AF
R3POR02396D1850A6AB57D7C66F03445F3D28
R3POR422A13E40EB3LC84D804C925D52D1092
R3POR31ECBC2BB51AT423P501789950AB48D4
R3PORD3192F93BC0AR64BP81416DA2CFE9164
R3POR17E04600276AEC08PF40B015F428512C
R3POR6B09B08744B6ABDD3428AE82AE187696
R3POR9C2FFF39F395R36C3FA0542634DC4F91
R3POR9D36A1191FC3I444D19462629267465B
R3POR532E6A2398E8A1153046869FC36E7683
R3POR684BC8E7AD0AA6E8DEB63502619BDDBB
R3POR52D64A58EA27LD4F3972E5D581F6C8CA
R3POR54D19E16C9ADIBCFP14A84CE15F781AD
R3PORB924EF2E5538EB663581EACF1CE3FF12
R3PORA4B0A5248B05T09833B318B7BE822613
R3PORE3C21FB9FD6BEC3CA6C8669DA3B7328C
R3POREDF2DED12E50I5C531860D96FA865094
R3POR26CFEF6F1827RD6B3767D2AC7075421F
R3PORD5C07DE990F8TF7E36049D7F2DEF4523
