R4PSR8F1B5CD27943I4D5ABE3EE0646BB5F1D
R4PSRB78DF7801D18L01D3842CCCCA65F4BFC
R4PSR375D5E4F1986E239DF59BC7FF039C47B
R4PSRDA7B428224B5L8E7A8206254443F8E87
R4PSR6A53FD251155T979DEFAFB3BD5E3C9A8
R4PSR8715F17EB262TB72PE255C25C22239E1
R4PSRAD11EED47208A4BAP3A021589A737259
R4PSRF387F5B04484LF51AC8C04CE649F3720
R4PSRD9FFEF2BA7BAEC47D5F56AC46E4E661A
R4PSRB8ACC0CC31E5RF52AF864D8E3F886AF3
R4PSR750BE36C8E7DLDDBD706219F35F0D690
R4PSR157DE51B2697EA413EC30B0D0D370AB8
R4PSR192BE9736065A225P0D2302200DCEDEA
R4PSRDC80568E083BRAD2DCC297996EEF7E4C
R4PSRFE67F35ACAD0A45CPC0BA6D2DD863FB1
R4PSR53E450D496A2LF9CAF6DE6427E1D3758
R4PSRC513A3F95234R211P10B9AF97FBDBA3C
R4PSRD972C1C81B6FR929P88F11FE0CF151E7
R4PSR492498F57F50L8BCA4AB353342619091
R4PSRA168355BD496AF5DA555083606ACD004
R4PSR47B3394269CCA8C9A3107CAA0F0393AB
R4PSR66967D463B1FA669AA573B8090549C46
R4PSREAC17A51E2BFE6C7A98F08F732C44AB0
R4PSR64D4BFF13123LAFA38588CAC7FED6C51
R4PSR243374F2E467L85BPE317C8BD1487BAA
R4PSRD08CB2FA4D26IA77PBF241DCC716DE6A
R4PSR70280C3C4A6DTFB2P5CE3B098C1C872E
R4PSR7997265FACF3I4B5P2EB9C95D13C39E5
R4PSRBD4B98FF23DAT6B2PBD6E4FC4E321E6A
R4PSR662F9699B407A988D6E92530D9FBD54E
R4PSRBF4799E8E317RA5FD2F9C5A6B65314EF
R4PSR59A30EE5F107TF1EDE560270CC4A0B31
R4PSR4FF8AF2A510AIE9CPDE4C8F2D17D5B89
R4PSRA839152C3A5FRE93D402B614D44D081B
R4PSRECBB6661CBBATC22AB731F8FEDB8E7C9
R4PSRC1DE1089DEF5R7CBA4352E873A1EB30A
R4PSR6C09D138230EICD5DD457F8AFC8FDA42
R4PSR1765A015AEE7IE02P10ECC62714FF30C
R4PSRCF903D845EF1A59135410B389A7CC7D0
R4PSR2594E0786D83T5F3A7824BCE91144D65
R4PSR3A02A4DC7C96A920P8BA64426893E653
R4PSRD59E01E6AC38E05ADDE0A470ADEBB35D
R4PSR7B09DFED9A18A040P6B3A19A33C86010
R4PSR0E9C98B6C4E8I72EP37DC86328836D6E
R4PSRA22B75E0B26CE810PF68CE264DADEC04
R4PSREB6DBB849B8ELB63D0F8D4F50F8D8BDD
R4PSRDEDCAD68524AL75AA73CE479B4D4C98D
R4PSR857B2C0758E2RD53A05753FB51C4ABA0
R4PSR0C898E0122DDIB83ADD24956D8D19EA4
R4PSR65467C907C03A2F831A36C49945DDB6C
R4PSRA3B0AA27EDE6E285393ACC90D90538AE
R4PSR6BC433D844E0AF38A3B6EB222FFB7B54
R4PSRB419C5EFBE97LE99A07FEEDE4B359F87
R4PSR791490A5D790IC433ECDBC577950E2C2
R4PSR130CAA317A8DEE6E3E7856CD14D4A010
R4PSRC68D0CF62864R254D9C15BA0DDAB2619
R4PSR91DCB767D6EAI8FCP1F51EE6781F4AC5
R4PSREC8D9F3B0FCDI3B0P453BB9A130371CB
R4PSR841A37933C61R1CEDB6E4289653D7417
R4PSR3C79B9B9181ARC45A9CD2850345B240F
R4PSRECC4440759CARFC735482655C78FC40F
R4PSR9D955814106AL771A7C169F11C806BDA
R4PSRC70906FE6397A53AP62612BA6073B84C
R4PSRAEFD9A57BD2DAAA732BE06B1F90389BC
R4PSR9BF3C83AC4C7LC04P197122410E5A57F
R4PSRF61A73169AB8R3C432E82E1F92BE616F
R4PSR66C9477ED757I1ECA338E1F475F22E45
R4PSR2DAE1117984AL0F4PAB14911850B6F44
R4PSR263C667D47C6AB00PDD3E70ED38EE6E1
R4PSR5D7E9B0B3A74LD27P2EDFA93B3EB1CB0
R4PSR42A05793DA29R0CB369FEB9ED2D65C7B
R4PSRE54D6FD5727CE345336A15D560D7D27D
R4PSR7E3DBE17B671E6E4D114FF1F60241180
R4PSR16CCE371B894AC06DBE44991B1BA4DB1
R4PSRDEAD5579B1B5R39BA834389E6D98333C
R4PSR0BB69EC8DE36AA2BP2ECC4DEDEDF3AED
R4PSRC962F1D3EA10TDDADE75723802BEB06A
R4PSR60CA96E0BC7BIFE9A63789506573165D
R4PSR7DF0E7FA7E57E213D39F4934A6BD9BB0
R4PSRF3CD1F2816D9AA6FPA932533394ED4EB
R4PSR2FA60FC0EC9FL668A25B533ECB767C1D
R4PSR3398B80AE7AFIE44P5EF890DF8EE1CA1
R4PSR84A2737C40F8A5E6A656DEC1683799F3
R4PSR7BAB6228BEF8TE21AD0B188D048C921A
R4PSR28DB4A2A8B0ERB76A76AA0A3C41D05DD
R4PSR22007A5FDCF0I5CFD91897258E43DB5E
R4PSR48B54FE8E1C7A9D533FE390D458798D7
R4PSR1F9EDEAE73E2T7F3AF5FE16DE1CA11DC
R4PSR390872497057E06FABCFABF34C5EC879
R4PSR8390A14FA8A1LCD839989D74759858D1
R4PSRD669424FE91EL0DA3DDCB996FD102A3D
R4PSR23DB74E62B86I6F9D03C1FABB6A982E6
R4PSRFBD4F6D1D685T84932EC6EE6E44ED709
R4PSR25FAE5572FE7AEBEP420EAB6D88D3828
R4PSR3FCCAAB1890DAD78P1CC3F7DD7981CF2
R4PSR9EDDB757AC11LC7532E287E4F12A2035
R4PSR12CBAA0AA3D8L514P01C45BD1E9FD7A5
R4PSR06444FE78763AA9EA567D360D8715551
R4PSRAA6C91EF03CEEC33AE473D2F401540ED
R4PSR2E401261A648RB5CP6148C85CF5C1B43
R4PSR60D449D5B5D0EAE0A1C7B95A6FAA32CA
R4PSR491FFA995564R936P42D8C78594CF01E
R4PSR2C889120F695L000P47FB7A20A1FC295
R4PSR64010E5D955FR6BDP6A491958DCFD535
R4PSR4DD91F867A0FL9763FC83279E6403F48
R4PSRC1C9A231B782TF06DE0E4E12B77E9B7D
R4PSR92758443BE7DT3E4A09B305247D9CBC9
R4PSRBAD98F359D16R8F9A100EC6A8CC98B07
R4PSR76276C43409AT024PF8BFD5C2A4EF16E
R4PSR2D9FF483FD61E2C6A74E2C2EA9E6924C
R4PSR337470323764L1D6D61C9751BE334EBB
R4PSR23352A1FD6FCRF96P73CE1B9318894A7
R4PSR560F8CFD8D8BEAC737FFE43FE9ADBC89
R4PSRE893F79FC3C8TB3B3A9C55E3E5422953
R4PSR39AFC6DE3FB8IBC8D5DFE9B5E9A650CB
R4PSRA5A3E9536AD3AB9BPAA76DC74371FA55
R4PSR7B49FC144B8EE750PAE8208187F7CFAB
R4PSR8C5E15AE4D74LA6BA7864490BA053EE8
R4PSRE23FAF364F93ECC6DC242C6F0712F5AA
R4PSREAAA3A1A0967T101D493F60387B2E329
R4PSR4DE86EA7E515T00BP71916B142487B71
R4PSRBD9552D7DD30IE1FP8652BD11D5F8256
R4PSR7FAD06EAD0ACI444DC4E74BB4C257894
R4PSRE074B59A3D7BE8ADAAECC52C70FB4999
R4PSRE14D40FDB423A1C2DF1B6943955E81DB
R4PSRF418BDE6D0F7T6E1A7986EB8E58361B8
R4PSR3B325D487BDCIBA9D2C8FBC01617C944
R4PSRCBB8F9D86A7AT0C7P0DB1EB36AB6C733
R4PSREE07395AF64EL31E34C868D9EA4ECA16
R4PSREDA500C81A78I7563B91B9680FBA35C8
R4PSR83DB03A01D7CR68CP05576E2623BDDC7
R4PSR4E22C897816ATB28A7AAC9610AA3C6CA
R4PSR4BB08C4D0522EE7FP063E04725C7F938
R4PSR44B8F97BC304I6FBP1A72AABF8BA3AF3
R4PSR128F37A539E4T4B2P58E05599FC6EB13
R4PSRF915699958B0TB2BDDCAB760D7C670C1
R4PSRF1E1E69537F2TF093B8FF6BADC3CD670
R4PSR77A9A3C40E21E39730C14B7CE1F39B5A
R4PSR8553CDF35E9FI608D864452FD3D1A299
R4PSR932361C4B404LF7FD051ADAC13CDB582
R4PSR34E7E892590DL36DP6B4608E416B39B5
R4PSR252F74D2C12ERCFBP07B9654A10C44B0
R4PSR15121A664BC5TFE6P3EC77908A6F1CC4
R4PSR0863AFFC60EFE8FADD5023A35AA0824D
R4PSR1B253F76F9B6E1DFD2722885176BF641
R4PSRB837F80C7038A332A30B72DCAE4C41D7
R4PSR6728F5430513I5A03E09C3F4B0A7FDB4
R4PSR045DBF7826A1LBF5P13BAAE0027D3886
R4PSRD77F59D62DFAT55EA55CC7B9F8477F95
R4PSR44E99D4B4728A80CP33EADBD9C30FE81
R4PSR1AA8C04167FEI029P8242E7E7B37A980
R4PSR257B56C7E9BAT723366575C9CEBF5D4D
R4PSR301DA45804B5LF8AD7C45B79CA6B7C57
R4PSRF929A9D11A43I2E2A14E42C0E718D325
R4PSRFA62E8786170A8FCADF96ED85CDEBBEF
R4PSR5B95BD70C4F9T0BFDE7C32E8A09AC8C2
R4PSR30FA628A443FL428P36C5EEFBA865E5B
R4PSRA45F94DB2900TEFAA0679CA339925DCD
R4PSRE1D929A8FFEEI7E5336E545136D6DE4E
R4PSR828CF6A5E478A6813A7666DE8C363B7F
R4PSR013A5A906A25LDF5PC2D03AA796912B8
R4PSRF02B1C8157DFEE36AF48ECC57B961AA1
R4PSR2681D5FCE3ECL762PA771A03DE2B56A4
R4PSR0FBCF758964ET48DP15A2CFA3A25E285
R4PSRAA2F0C911AE8A558P90E519B03966BA0
R4PSR19193D0F131AI812D1C8AE0A3DFE0B7C
R4PSR44B7755E6EC1I5E23AFC6040EF512880
R4PSR69AC72ADB006I4A33A5566C0F97EFE5A
R4PSRD11120B23CB7L306A62B03A09F7E47BF
R4PSR072A32FDFB3AA53335C6DBC6E9B15373
R4PSR62004DD5CCC3AE1BAC1C60D370C1179A
R4PSR41DA3AA46AE5EFD9PDD9573D6E49C899
R4PSRF740413F7158TF9633D3D54E3DA519E7
R4PSR9F4E99142C00L1A6A3BD41BF337AE4CB
R4PSR4E292E8CC052TB1EP8369EDEF2CB2A54
R4PSR15B597901372L99333F7FE4E9CAE1444
R4PSR17C1C927F33FIC02DA7D52CA030720B9
R4PSR0C3386413C5AA6A4P48D17D0F358D335
R4PSR28D82A0C181ERBF53F9CA64527D27A56
R4PSR219655CA5142IE9E3E9FCF4A75CC8E34
R4PSR3ED65A622451ABB1P0460EB730BDD282
R4PSRDB2095F5D850I06E3FF6C63AA17A7E60
R4PSR906270B4A2C8LF0FA118AE97CF9E85C0
R4PSRC27392DAFA0BT591A55C9BC85A0C3645
R4PSR46313B269520LA47DEFF58A9AC58854D
R4PSR070C45358071TF7EAF03761751BE1FBE
R4PSR2F2DC460D5EBTAC53BD2D0D187AFB455
R4PSR806CFAD2A945I14BPE3ECB87B5BC7002
R4PSR6C5F5C077A46EE0BD8D1630D565BD3C2
R4PSR72DB3141D81BA381A3D28A2A398FEBCF
R4PSR37D367802ABCA7A7P1DA60901F55BA8F
R4PSR1822B29476CBT3093F8D01ED3B10F707
R4PSR3A1740439281IF913E8DDF3CA7826679
R4PSREAC605638DB9R962D94010D92EB14582
R4PSRCF35426503DFI760A31507AB0FDEE0E9
R4PSR75D9FE3C9240LEE9AD47EF1990D5F8ED
R4PSRA4C09D8E031AADF7A1F88E2582F5993F
R4PSRA9ECF166FFBDEB86P3EBE4C57CE19DCF
R4PSRC8C51704C75CL69BA31B94C48FFBD3D2
R4PSR7A2264D659DBR252P5497FE5F9091B6E
R4PSRFD9C5AE04E6CR293A8A8260AF04473CD
R4PSRD2919E546FBCE871D04C6BBDF89D9635
R4PSRA5375E697577E8E0P4920FB066F70CEF
R4PSR10F4569F0A95T2A2PF3D8D93C02EAAF2
R4PSR6A4CD9BFB31DI703ACE79AC70475E14A
R4PSRE79C7D35DB0DI459AEF55DD7CA0E8AE1
R4PSRC94E257A1FF6T025P3C0F1D02EDD477D
R4PSRA2CF9DBE2CE1L1823510F78B36E5FE09
R4PSRBDB059160CF5A0CBDC50123A06E87A42
R4PSR80804CC6AE46E2A736FB465CE051D601
R4PSRBB0B48C725F6A0E139B5BDB6CE55D0BC
R4PSRA6462906A422LFF7P198D7F7EC2B90E7
R4PSR08EBDF8EFC7CR147A706F793FADDCFAF
R4PSR44ABE351EADFAC23P5BDF712AD2A579A
R4PSRB045AB7437CEEB3FP954C56E8C4B6B1A
R4PSR793AF6410F90IA02A8E93A7D3343042E
R4PSRC7E87840CE86L140D973EB0CBDCCEF1A
R4PSR0BC4EDEEDEA8E4E3DAACE0A2DA2CC371
R4PSR14D955297221LBADD2C14A74090C0561
R4PSR7E8F26E159A5I49FAB4D4FB24C74EA46
R4PSREA1E753AD540EDA6PB6101C00A82A004
R4PSR5F1542F265EEL9D2372A0CD57F4BC7BF
R4PSR4953BBB7912CT914AC2D8F0D49DFE196
R4PSRC2E8D55A164FT290P264BFB94908CCCF
R4PSRF9257315DCEFE332P64097A335641E56
R4PSR31835EFE30E8A3413A4B4D7278690FB2
R4PSRA9BD160DD09FAFD1ABBB34C8CA1D913C
R4PSR2551B8E87C15T5A1P9BA29549D888990
R4PSR14B24620B11EA1F4PAA06C6A81637F23
R4PSR65A9ADA5A85AI6E7PDE8DA6A90F205E6
R4PSRCBFDB492908EE34DA1E73D6483C2B98E
R4PSRFCE3CDCE208CRC02A09A3EA6C7407BB7
R4PSRD733D813C2ECI3D23A3BFC2FD5078D5F
R4PSR5B4F6BA8563ARC193626487F5246C531
R4PSRF6CC545DF077EFE2D2963E9DE722FDD2
R4PSR14249358BFD1T20CD769EA78B58C0678
R4PSR3D09EABF04C3TA5FPBEBB49DEFD41CBF
R4PSR521B2FC8A93BLBE4P98A1BFAEBEA0019
R4PSRFD0709F0C938E9D3364778EE1BE7707C
R4PSR1750DF1B51ACEBAEA391BF62714F2774
R4PSR6B8B2ACB1862E57CP804D8B25937EDF7
R4PSR4517A7FB6AD7A61530AE0C98BB1F2347
R4PSR477CD66A1C21EC1ADF150B2248E8B0AF
R4PSR8F22D584B662R0C13A67026C9CDFD2EF
R4PSRB360CB1BA0BFI62437C30B768CB31BFF
R4PSRD02B49F6BE52R5853EB3E16D79AEA502
R4PSRE42137C05049I5AAP93AE7F4B3BF6EE8
R4PSRF895FD0B8E86AA27P368BD24E407811A
R4PSRB233DB66A691RD4BDD65BCC0DA486910
R4PSR327436F17C55L35EDA0928178987E73E
R4PSR17016D5C1670A0A3A0D8FC1B266B8497
R4PSR2DFBD6400D3ERC6F350233CF2F9B95C9
R4PSR19CB20268D5BE421PA788EE2F96E4A69
R4PSR949D2A26A191LB11398FF3641ABDE4B3
R4PSREF9062D0DEB2IC6CD2F12C6B9413F502
R4PSR1EC148BDF275IAE7AB4653FF274E8E0D
R4PSREE3128D80121T184D9FD7C5E5CB8EB7B
R4PSR0353BD20E1F9ID48DDCAC7BC2BE23EC5
R4PSR439C738136AAR4B0D6D376777C1D592B
R4PSR381A86BE8E82T4A6A7E4343A08F2A24F
R4PSR8E3AB1E41EFAI3ADDDD8BF269FCCE92B
R4PSRFAAF06325D6CE69EDCEE24ECDDDBA852
R4PSRC01D44C5489DR134PA11B38A8DC8DB8A
R4PSR93509BD002D5A2D8A8DE566964D88086
R4PSRF6CA2661DDE2T274A8C8AA1CFDF41802
R4PSR78BB5B3640C6T460P38A37781392A129
R4PSRED6D59142332L9BC3D7B3E1F2F938381
R4PSR9625947C41C4R501PD4D0380CBBA3571
R4PSRF925F791EA53A68FD6FA3D63030F556F
R4PSR2584233DF98DT492A327F82E0FCB4510
R4PSR1B9E867A8D9CTCE633053741448D970C
R4PSR357E472A830CE6913EEC525B0A02546E
R4PSR38155C084292R5EBA3E127D4B1382C52
R4PSRE7ADE2DFF3B7E4EAA8C244D693532410
R4PSR89A719ECBBC2E080DBF0EE3248511CA0
R4PSRB6411C75D2FET29EDA5897C140A9EEFA
R4PSR3E4548058A3EACC0DE91EF1FB8BE2511
R4PSR20C945EF7FC0A72AP83153B2DCD5C05B
R4PSR868141D4D946LB2ED19FED7E8E73E9B7
R4PSRA94AF5AA1DB2T4E93D8F26AB011B6F96
R4PSR84020F601FA5T4AEPD76C8F3006F354C
R4PSR87742431C22DA684D14410E25DAA296C
R4PSRF5473040980DLC8CD358C5109AF7B1A4
R4PSR103959432B84IBFDD0CF27062ACCDA45
R4PSR51EEBABEB387E7A3A76B4E694FFC6D43
R4PSR1E975EAE3D3DI184PB6D058C3FCA5B13
R4PSRFB81334ABA07A22BP7A9A54671BE8D35
R4PSR2C3A5D33A870I77BAF6E7620BE5BB7C4
R4PSRDCACA24090BCEED2A1A83E5CF6703228
R4PSRA35CA240F9A0I136PE5E2D4388B706F0
R4PSRF98D6A9F91D3T1A9A1A13184739D05E0
R4PSRCB47A3BF1364A0C0P27AAE4951E747A3
R4PSR3D63CCEB73CFTB22D5ED86F54AF5E47C
R4PSR0145B2929665T7CEA99F7C8BF94B4AB9
R4PSRF173B2827E81I0923D869D1FF2932FE8
R4PSR89F9659B2997I9E6A07A3D3BA8D73893
R4PSR870B8AA25A26I7853DC0181DD6426890
R4PSR8F16B8896CCBI934D5F0387BF88F162F
R4PSR9FB9FCD5B971EEE3DE5C7227D8C96B56
R4PSR908E99E98FD4RB9BPAD4A89BFEDA5257
R4PSR4AFFD56782F0RF3DABA38972777BD5B3
R4PSR22F6F23114E3EE20D9167293C96E6B45
R4PSR36DDE55E890EA0193A0F835FEBA950DE
R4PSRD70D6BA7A984E9AC387826BBACE29981
R4PSR2F09EC4FB1A6LFDBA4720E65545F7B02
R4PSR52391447FE52EF5333B31262E184C03A
R4PSRE1198844D5C8I453D682E91A6E512BC0
R4PSR5B9EC992C360A834D3EFE085658EE1D8
R4PSRCE5E564A48EARE8FD8F826EACDBEE97C
R4PSR636E20353CB6ED13A7206E2DA9C51A20
R4PSR86FD87B5996EEF42P53F4C87CED44FC4
R4PSR1CE9661DB928LBA23EA4FFD211B2F96A
R4PSR8F59FF4B9B28I1C5PDD7E7D9DE6F39A0
R4PSRE1C093E4FC31IF06DB84AF824375A342
R4PSRE3A313B9C077L846DDA273F088173E3E
R4PSR56C9BEED4C0EAD5ADA0CC9B46E869FFE
R4PSRB8EF1A4FD1BET38A3E226162350002F6
R4PSR6682E702B995R483PC7342C8592F6DC6
R4PSRD376B97EAC9DRF40PEC64A61B5770437
R4PSRA6D009AFC32CEAFE31E406741AE7B982
R4PSR3F100F87BDD3E391P7BCF36521C5B5FF
R4PSR522748E013CCTDF83662925A3DA3761B
R4PSR42C9CF498342R02FA0624C265BAFD56C
R4PSR66C5B58FDCFEID4BAADBAC16A3996714
R4PSR763DDFDBF6A4E1733C9D95054BCE004D
R4PSRA3DAC77894AAA8EDAC80D2767F990137
R4PSR0FC8E7F92ED8T3F53EAB9BD08D92A01B
R4PSR278868994E2FI6ADDBF36F5D2AD7F6FD
R4PSR98937CEE1A62IB1AA582E2180E1A466E
R4PSR07EAD7831CBELCF5D8A07159AA6D84BE
R4PSR17ECF1AC571AAEC638498716BD3CA269
R4PSRAFEA90174352EB353C9E51E2D56E18F5
R4PSRCA21C9654C69L072A1D60A39A3A61756
R4PSRB6B68049F8A5R6B1A321412E2A86B595
R4PSRDEE2CECCD1F5T38FD09339D75906FD14
R4PSR681BCDF3AB40A20EP6B91EE2D67C0F2F
R4PSR8846A32479A3A6C0311D4323DC2598F9
R4PSR3973C32FAC5EA6BBA5798D4F45FE13B3
R4PSR304A6E2F99D1ED1CA4DD5FC64790838D
R4PSR86B34E5013B9RCBFA7CEBD041BC678BE
R4PSR0D3B8EBFC663T887P972B57E457ED1C0
R4PSRD39E6ECCA010RC8838C0DE50DE10D44B
R4PSR6B2901AB6790IBA436844CF7A1528F18
R4PSR04E7F427DFC0IADED4355E9F0ECA9DAA
R4PSRF6F4DF0F6082I299DD1460992CFC3240
R4PSRDD90B356442ARF57P44E505C1F2D4C19
R4PSR68FF88680A7ATDA73ABF7120BAE3181E
R4PSR8408F85B8B01T22339948DF8B0834382
R4PSR8FCA99A314AFE767DA8137474C930ACC
R4PSRE022B79FECEFT2D433E177E1086DEA99
R4PSRDE863C3DADF3L283PC597C61D1E36662
R4PSR0F45D0B34D1ALAC7P6DBCD95BB737966
R4PSR12F3F0429E90A722P66444E238618A1A
R4PSRFB7F31860561I25EDF30C35D9398E10D
R4PSRFACF477D4E27A74FA527025C8A1425CC
R4PSRFFFB62813B1DEF02A1189D0436C4B379
R4PSR9F16AAB4EFF5T25F39C3A794960E8E18
R4PSR4EAA9EAB59E0L477345E34B83A738645
R4PSR7782BF1C6B16RB11P6B9F53BD6B098B6
R4PSR411B0A2507FDT50BA754101CD54B0641
R4PSRE20C6DA420DDE9293FF52C5F658ADD4E
R4PSR48BA964E841DR3CDA8F72491D5429D1C
R4PSR3D69FAFF6543EFB7D561B341B5C67FED
R4PSR16814F813179A3E3P01818FB9476D3B2
R4PSRC2B92BFFB4F9L34436AD2A36F12B4CD3
R4PSR1F87349FF718I5FDP463D3A048E792D2
R4PSR6559D25B24E9T350PDFACB69D147FCEF
R4PSR62E54F4CF76DT3A1DC7936C42AB2C9EC
R4PSR90D975A6CE2CL233A71F634803DFDEB9
R4PSR6E205E3E8E74RE0CA524D0894C9C34C4
R4PSR59A9FA590C25R7AFP1DE332DEC29F27B
R4PSR87E1D05988F5AD9DD2C275D04E4B9913
R4PSR2BED3509C352I5B3P3B663F7DC11DE29
R4PSRD28B131B3CCDLDCBPAAABF222BBE1DEC
R4PSRACDDCACA26C0I31CDFAFAAAC75959301
R4PSRAB57D11069FDA165P2203D77FFD0529C
R4PSR2C2044E5D951L91DD510A1DE27D35BFF
R4PSREBE393DE13F6T429354AA0CE268365A2
R4PSR91E05005E5A5I00234E4F488D38BDA1D
R4PSRC2FC6EE3ED0BT15E3E6B55CD9044DB1D
R4PSRD2DC1F77611CR72DA7384986A14BE681
R4PSRDD10012F810DRF10DEB203E18482459A
R4PSRE7897D360562AE6CD2A2FC3EFEC1EE46
R4PSR1BD3F58909AFR8FFPAA02A295019855F
R4PSRB979A67B3833RF02ADB86C564520E918
R4PSR16D2344478D4I7AEDE5A82B3AE65DB32
R4PSRC49A3C6EB23DLD743E3669FA92EAF4C2
R4PSRD4E3B3BBE79FE967A043464EA7DEA46D
R4PSR232D5BA58A48LDEE3EFF9D8F1E6DB34B
R4PSRCA25273C40DDI322P77AE1EE4DF6A0B0
R4PSR6DF8B0E4C605RC41P474B2CF190D1910
R4PSR882CF6DAB9FBE5DFA05E98DCA9FB9030
R4PSR17D0ED163344LD22390E911B435DFFB7
R4PSRF4F6EF431487AB7638EB10DEA2219C3E
R4PSR4A5D5E3B2561T741AE9E4BD113F43453
R4PSR86273447C9D5L91336169F63B6F6AEAB
R4PSRB26D8E1C0921RF0BPCC6610BE2FF4AD5
R4PSR6EF08E76DA10LD8FA1211D2B0E6203A8
R4PSRA29EC7119EBDI98436B62EB744A9A0DF
R4PSRFBA8EDC8AA1AAD5BA971026C63482385
R4PSRE679244C8C22IB52A458A43BE5646F7E
R4PSR0E7441AA537EI1D5A75281A174789549
R4PSR5B43CD991193IB593F2C4915F3CF69E6
R4PSR1AD255DE3528RA9A31977A17D69A3B96
R4PSRC303C2959440EE2DP5A771444E8AEE8E
R4PSR9022A8D3C45CE783A53ADC75A34F1C3A
R4PSR6192DFAEFB82E9ABA13981AA2539A99E
R4PSR2B754AC0600DLD90P879E6ED90D418DB
R4PSR55DC1FFD43C2IB033249C682A82D5D37
R4PSR445954A9504AEAFDPDC39F2335A8C43C
R4PSR8A685CBC5D1EE145D5DC215A0F195400
R4PSRCD92EC4F0D21R6B2P0CAC82925740F22
R4PSRA98FE89B0840EF3BP911DAF05BE35410
R4PSR8AA96B1F68FDR5F2PBABA387F53E88C1
R4PSRF923CD7AF6FFA373PFE3A582B958AA24
R4PSR65C6A559A7F7E492PD5143B3849F13C8
R4PSRC0A888D7166CA11DP9366CCAFC3CE0B6
R4PSRC862F3294844L8E6PE54B3501F9BF8EE
R4PSR7B0B16E2C4A2T79DPDF80F359D0727E9
R4PSR436E96F04342A7A9D1584812A9908808
R4PSRE7809CA26B5AA81FA76FC4D0EECEC536
R4PSRDE4D8B3E2A46E81433CCECF91AD92AB3
R4PSR2F3D1F3589C9LA2B36997FBD734891FD
R4PSR0C9D19B655E1A675PD7DC27941ED58B5
R4PSRE32991224D1DI10BD42881E7F3F84E9E
R4PSR58C76DA385E5I0CE35E47C8D3FD84DB2
R4PSR8B50F39A4D6CEAF4A45CD74D8267D347
R4PSR398608905D92EDD5388DFF8E71F6EECA
R4PSR484532EFA7E5T40DA5098C088DC172A4
R4PSR2F5FAF935FA5LC50A36402089703A3BE
R4PSR3A809A751222TFED30646AB4B7D976DB
R4PSR6E1BFDEC317ELCC3AA639072EDACF628
R4PSR3D1D89AA39B5LBF5P7CE8C4265E494D3
R4PSR6862AA8D18EFTA5D3371683E04C76156
R4PSR6C2117D4FEFBRE25D9EC6E8307CC6B74
R4PSRB9BCC8681643T31FA613B9A86552456F
R4PSRD6D1EA8C77EDE8AAPEE86A100CEE8BCA
R4PSR6E7EC0D5CE05E574372FADEE97CDFD12
R4PSR28ACCDEFF020R05CP6B094DFE3DA8C59
R4PSR8E5E715747A3A6C7P55ED9E92C720E94
R4PSRD4237A071592TEF3D288A093455304D4
R4PSR739120D2C717I4A4AD2F23EC14894406
R4PSRA71C274C5C7DTE90D52451A53C025AC1
R4PSRC9EF2256FC5EI22F3B9CBB66995634C7
R4PSRCA8E84C58CD1TD36A211A61CE536A7CA
R4PSR1F6E0027491CR5A5P211F7DC9EC01B50
R4PSR8B0ACEC8B37AA9CAP201BB1DC1CEEBB3
R4PSR7D61106CE5B1RA293D0835DE9C823D26
R4PSRF376E50FDA88E27FDA989ADFA00DE0DC
R4PSRE218F97F5834L171PB83993EDD9B9F0B
R4PSR503DE5A0EBD9E631A3A4F9E05570510C
R4PSRCD414840C028A8BE31C2383C520E7CE0
R4PSR2A194F756E63T6C43D804D1C65E72732
R4PSR56289E09D8FFAE52PC7C772020310143
R4PSR94C50429750FT7CDDFCF991252641B65
R4PSR84B1087A90BAE5563382610356B0C985
R4PSR6D1C5F2E38B4E882AD9EFB42657E1524
R4PSR7010D8D2EBBCIA643065657F3D1BB788
R4PSR9CF0EA45703FE4C539F4E05E943652FF
R4PSR11441B02D808TAF7PD3F78B3999420E0
R4PSR901F5DD681B1IEA8A63ACFB8A9B43486
R4PSRC2A674D331B4LD73A1C9170D8FD59776
R4PSRB04538E726A0RA2DA7860DAA7995466B
R4PSR528091768E61AF9CD514C001A4865336
R4PSRE9603840C24AAF96D36EC9D65B961386
R4PSR95AB8610ADBCE10D3F63A320EDF51553
R4PSRFF02C057EE8FTAE2387805DDE4E81272
R4PSRD6D71438BAFAT568A392598F92C48DED
R4PSRA22C8F2FE499TC493A3175D1B0EE5C0D
R4PSR712AF248E2AAT04A31EED565DBF9ACBD
R4PSR39133102E336T3483B87AD4767DFC648
R4PSR649D1063BFAEIBAADA8C09FAAA9183C3
R4PSRB96D8B746330A2153C7EB7E6936985BB
R4PSR2539A6076E26E86BD3E3AF9D594FEF31
R4PSR3AF112A5C2E3L13ED2F4E77AC2CCA718
R4PSR837A60796391I3A73E6CABA59838BE16
R4PSR14FD6ED76439L2FA3B43A94ECA2AE033
R4PSRCB5FFADDE8ECA680D97399B0A37649BC
R4PSR4C19C1E2A6F0E7B2333A55884E32E2A6
R4PSRB8356B315AF9TB71PBA4B0D94EAF63E2
R4PSRB6B491A884D6I320A90DDC1F21F39241
R4PSR5F8B45E9A797T73CP7F924BB983A3F85
R4PSRA30B6A53D526E6E8A22C51F1573D29FC
R4PSR7282B338705CR0E9A994F599435D7EC4
R4PSRFCE09D5F0E19R12DP48924359C4F2B62
R4PSRECFAC55C70E5AAE5A65ECD8B263A7620
R4PSRF2D5664FDF69E36BP07477E315524C05
R4PSR063A909F04A8LDAADAD26E793748E9FC
R4PSRD7CA19681CA0R9ABDC64C7E3131A7214
R4PSR48E61C66B96CEC01399A44F235F5EC39
R4PSR2AB2763D08C6R5D530EFE01170B8EEA4
R4PSRBB4A3DA6A98DTD963DC974F098F3E656
R4PSR7DE0B8A70861A51BAD7A077AB06C7F30
R4PSR3AB5C497DB48IB9CAB373087410C66D5
R4PSRC9F304D14F4BT808PCCA429DCFEE3969
R4PSR8AB7BA76D118T1E3P74F90D3A3F2E7E6
R4PSRCCDB0E538668RBFCAE6E3B17AF8781A8
R4PSRAC00E728DECAAEA2D18ED992CD05875C
R4PSR98660ED0042BL1FCA21FB7085EC8B8AC
R4PSR5A05925C96D0I78C3E4A66769F201BA2
R4PSR9334F54FC8B7L33APE819AC7AFDC480C
R4PSR0001691F4AF7EDEC32EE78CA90BB04D7
R4PSR9E1F6B4A5581T5FA3FFA1B4E45B32C72
R4PSR84140A96F702L36BP436A731F45F7D83
R4PSRD2A4D96D52D2A01A3336D8D8EAD8E3ED
R4PSRAE3C6B8D6BCEIDC1A349A277B73D72B3
R4PSR8D333959B5E7E65C3812BA6FF155CA5C
R4PSR0F1A978FFD48AB2033FF061FC830008F
R4PSR3E43DBF5A9C6L10CPB9673F1896A7115
R4PSR14B214A90332L51AA10CFBC55ABAC91D
R4PSRBDA5721A1445RB33D7F22977F1641932
R4PSR45F8CE6FCD4AA3163A0E778FDDCFD2DB
R4PSR792CC7A9E460L545P9CD9EB7AF915ECD
R4PSRE2330E0D5418LB2FP71156CA6068AF19
R4PSR847ED7741D19T98C3F432059403C0193
R4PSR610229128496E9F1P1BB664F58A95C95
R4PSRB3D7A62810AETE0B34F5D48EB5F2A020
R4PSR4D480450B9B2R3C4PEE77FE5A044F34A
R4PSRFFB7CB8F8C8CI7B2P0C80676F3928A62
R4PSR747D1F77585BRF13PDEEA526B85905CB
R4PSR0433A2571382I04EDB6A18BB607DFE9B
R4PSR42AB00A4B84DA3C1DB88A12D8F191DD7
R4PSR8D9483F19D2BIE5DD99BC5EEAB2245D7
R4PSRA7EDAB7CF920A45BA805DD104EE5E86F
R4PSR6C36B6B64A10R65FD8B0382E49A7E120
R4PSR76BD7BE89453ID94PC5562842EB61084
R4PSREE79363FDDD5L2CCPD9E777198BBA9F4
R4PSR9476F62AA429IC89P1D983735C8F2584
R4PSR9C3E39794172R37331D10830DA06EC89
R4PSR44A207737141A31FAC1CDA51A4370B77
R4PSREDE49F64B693L6F6ADE56D3B4B7379FA
R4PSRD242552A25FAE8FFD0FE394B1D29694D
R4PSR517B20D2155EIB54P0C61D47179D0BB2
R4PSR42047A64CDECE350AC5E07483A408677
R4PSREB1B23D6E39DID22P1D67E6D8082FC3E
R4PSR6E043FF02DF3L7C33D6D8D1ECE7E58F9
R4PSR0B0EAA3F22C7TACFPD2E8A096879F804
R4PSR3FBFBD07E833R7373633BF9800A8AFB3
R4PSR76890B005DC7I250D6C50AE0F31D7E97
R4PSRAE12D9AF233DRB95PE4B758B887C3DED
R4PSR96F4A28DB44BR034PFE056E358EF56F5
R4PSRC263BAC6E0F9T2BBD628F789DD6ACBE3
R4PSR9DA53ECC0303ACC233062FD3E8DC809F
R4PSR22F12A0561F1I581PAD18E23FBD89AF4
R4PSR2524758EACF7L04FAAD626BC92ACDEB2
R4PSR1AD9404FC9B7E77CD4893A3A30B748CA
R4PSRE3BD9C4524A8IB42A6E348A9216EEBD8
R4PSRA2E0945787D0LBAADD864903F66DF3C4
R4PSR9207FD22F7CARF37P9B59928CE805C2A
R4PSR9A13B35476B9RF7AAABE75B3AE2C017D
R4PSR37FC42BD0B69T4303E6380D354DB0156
R4PSRE5F758C06B20AFE0DFA69B92739566E0
R4PSRD112C365DF0FA5FDP89A0943E89122DC
R4PSR3BB9FD06CF79LF63D79CBC4D43F46C62
R4PSRBA2552333B09IB36P56AC9607F2425E2
R4PSR3DB5C92EC2D1A770354FE48A9FF8E1FF
R4PSR6C18EA566A5FA39C3F768C315D2B5B08
R4PSREAC17D0AF7F1LFE83258EBFD2B8D6445
R4PSR685B8DA85681T51DD5B0A0C91096F1D6
R4PSRA6C20178D165L6BFD9F3800C34457C45
R4PSRC4962C84DA0CA12C3790CE2C56AFB3D6
R4PSRA2C330EB8467AD9EP7C54150457841C6
R4PSR12B586C8ACD9T574318411274D032D3A
R4PSRA74CCFFA0715T010P26E2CD59FAE84FD
R4PSR0180717A4DE3R2EBA51B589DE0FB14AB
R4PSR1A9DDA226BCCTC63P0B05C8748B008E4
R4PSRF2498361609BA96APC4A02C3DA612770
R4PSRB971A1F485D2IBFCA06CDFD5B4E116D0
R4PSRB334DACC2DBEIA36DBB9ED80A585DC08
R4PSR8675E90C734BI5A2A6EEF7B9614AB35D
R4PSR2BEAACDD29A0R34BD284B1AC1FCBA0F0
R4PSREDC207C373DCTD20A0A1DC269E848C4A
R4PSRF739B594E68FIF143757D2A76572B3AA
R4PSR3F2A642A87A8RCFCPE5D3C94477BAD38
R4PSRF6DC4F5D40AAL4703C468EE4FF3C7CD9
R4PSRF51F93FBB690TA6F3EE6E8E40E760438
R4PSRB64D30959B00L21BP837C096844A4F58
R4PSRE12B02D4E9E0RFC53C2A96CA504A892F
R4PSRD88093AF95E8A2E7D7307E547FD2B7E5
R4PSR9BDF6B6D488DE58035BA8111EC5256EE
R4PSR69AE0541D9ACL99337B5234C78082F99
R4PSRA75CC4EBF030R9F6PB5A58A6FE2BBF49
R4PSR50CFF14D4BDBLC97DB5A8E0230531E44
R4PSRB74D66B0008FRE2B3BB30319F1EA5D05
R4PSRC99DFD441A17E631P25DB281D7A37905
R4PSRE3DD8E2FCBDCLC233BC2DC77FC039386
R4PSR62632C33DC29E019AB6DE680E49FA00D
R4PSR2DAA4903FBF5T8603B4A4582BEA48D61
R4PSR2B61466DAE73LBFE3EEAAB5EAF100091
R4PSR05FBC39A27FBAD3DAD2D7BB2EAA30444
R4PSR22C955145820T963PD69F446C32F3767
R4PSRE883BB463D10R4193A460C1F32A5A59B
R4PSRD4A28FBFF9CDE116D0CC1DDD3288E713
R4PSR5E0445DBF606TFB3DC5D1E796B092342
R4PSR7760639C9D30LF89D08EFE52685A5DFC
R4PSR52A7EA7C06A6L149PC5E0BC0632EA9DA
R4PSRFC2A0BD3A64AE883A24E20EB7E3103D5
R4PSRAC4E2A8C4B91EEDCP4083C3333644A4B
R4PSR4D7DB205E2EFLCE7D5AD32F886458285
R4PSR1B77376B632CE589PD03C02A9AE6B045
R4PSR12B148A0CDCCR327A8A8DAF5337BD6AB
R4PSRC628B58E2F2CT9C1DD82EB2B3D4D0911
R4PSR0CC83BD9BAAFLDB23A57ECDA60DD6179
R4PSRF686888753B6LB3BA49EBFF53E634013
R4PSR0432A0B7B70DL0ABAE183670642EBA05
R4PSRB835A39F501AT051P026FE837C901570
R4PSRE09067FA2CD4E84AAD1721092522D10D
R4PSRC7FD244C92F4IC62373422E826FE9E8F
R4PSRA1A6EBE2C2EFA08AA67BF1820A52C92C
R4PSR1442E168C856E64130E2C2C9CD7D5D28
R4PSR2BCD472E2F23RE38AA7BA9B262EB3ADF
R4PSRD1A4F068BFBCE18CD85C1C730ADEB823
R4PSRD6F3A9AB1042TFCDPB89993F528D9A55
R4PSR7A8B84C8BCA4R9863437BB563ACC9C38
R4PSR31E8FE877215LC223288744079F2CD20
R4PSR97083E8A4466AEDC391F91E5D3AA4D24
R4PSR6BBCE001B63AR1B9DB0DC2B05007EBA0
R4PSR14CFB4CD8B64I633D60303064D91B711
R4PSR8523E1773825LEB9A003DDEF53D007EC
R4PSRE392E22C8689L819PC0748581AF89C95
R4PSR16FB83AC315EAFD3ACB8F7FE8025B682
R4PSR320ADF9185D2A9013C2B7E84F8C00DBA
R4PSRA458556631CAI762A6B1B2F5F4B526AD
R4PSRE14FD8EFC996R42CPDBF865006BD1CA6
R4PSR708ECFD4223BA991DC4A549D232CE3C8
R4PSREF5CAF778C06R008D3E5F8C9DFDC96D2
R4PSR03E3BC14364DR8DEPD0B0428D53A9344
R4PSR5C4DA58E7617E765DDF7376BC75B1415
R4PSRFE8A67BB5798EF05D8BF1915FF72E56D
R4PSR4DBEA7228115L40CPDEBFF508AE37655
R4PSR5B93EC133E6AEEEBD237D58E4146B29C
R4PSR726C35A3FB14IBBEA69E034757237E0B
R4PSR2C569BEE262CRFB5DF1919966F86F173
R4PSR95C2012FB3C7T565A3F6E7519791B8E6
R4PSRFAA9438D30DBE1C0P4C690AD43224397
R4PSR5AD86B1F917FA434DE71086D5A504DD4
R4PSRF01D7FA10771TEF930B40692DC13944F
R4PSR698E860E839CR68F3F9318F2C3431434
R4PSRDB4FD7B02319AF6138871ED92E67CB70
R4PSREFF6246C0E3DT77FD978055EE47BADF4
R4PSR8AE1F0C8D1D7RAC2P59849D271964ED6
R4PSR771ACBB47E11T58DA12E9EFF5E41C1E7
R4PSRD018E9B5E540E85136314D90D33719F5
R4PSR8FA5E72159D9A6FB3B6C215C4B8C9692
R4PSR6E38B6DCE899RF16394AF2702A5AF2D9
R4PSR56BCB44EBDB4R123DF826CE2D9547176
R4PSRAE0D2A68C5BFE6D7P5C45798249C5623
R4PSR6106E958BBC8TB90D7426B872F9AC262
R4PSR569217E85C1AI0653FAB3281E059687C
R4PSRDEC9AC1EF67DT403A60344E7519E85A9
R4PSRD4D6DBB1F973RF3E3808E54829D23877
R4PSR41551BF9FCE7TA66A945566359646BF6
R4PSREA8C7C88C283E00ED32A98009137D78C
R4PSR3DCE8DAC54B4I07EPD30E2A7030BD53E
R4PSR91B0F2D3DD7ARBB4AC8F60CABF2D4EBD
R4PSR08B3337AAA25ICF7399EAC50703F872D
R4PSRFD30092A3BCDEED130E1031B84F082FD
R4PSRA01A9EF5892FE7EFPBA522854739CB15
R4PSRAFEDBACE0755AD4AD4392DF80FB34659
R4PSRBE95ED5E5D1FI04AP3084105BFA7CCFB
R4PSRF8EC9CBA466EAE44D6854773AF627266
R4PSR2F009E9C294ARF7BPDDCC56292E75895
R4PSR612FF3A66B30IB053422CF5F69A8C4DE
R4PSR5B1700313C39EC48A3693F4FD40C5D9E
R4PSR978A59F6E538I230P63C31F904B0C08A
R4PSRF4CC5B9DE65AL106A671ACF26E5D2B77
R4PSR934355368EB3RF67ADEF8E2162731E40
R4PSREAD128497CAFT5273A11A31C33904672
R4PSRA540BBC0660EAD7C397203F862A7D814
R4PSR29AB2FD9DE80R508AEE9CF6133560C72
R4PSRCBC5F71E304DT322P3685B0A984D27D4
R4PSR86415C0F8D86E2203C17D6F4FBAD193B
R4PSRE1A4E830904DREF3P0E92DA99B138ACE
R4PSRCE91992D8079T738A8DEDA9F29751A55
R4PSR26D7EF1E5342LD2CD6E41AC11D56B1B4
R4PSR2587278BE58ARF78D84E25E05ED664C5
R4PSR3D07E0457444I8DAPC31F1A5FA36554A
R4PSRB7699C2AD2DCA2A23C9A598638036DCC
R4PSR3713216D7478ADE1D81D84DD05AC6FCF
R4PSR2F17A0DE64FDRF36P382632B8A76CDEF
R4PSR49479C2EEAB7E7F9D222E770C08D1095
R4PSRFF35001000C9AEE7PE66090DEB03CEB1
R4PSR36DF751EE63AL2AF3F9EB11B043F09FF
R4PSR89EE18FCCBC3I1EA307F1470E3EC5B90
R4PSR3984EB89BC6FRCC3A413CC6050DC614D
R4PSRD92582FBDADFA4AEP90A4E6CFF572665
R4PSR4D8D8218D1A3E4913615E43928AF2CBE
R4PSRA40DFC08438EA96APF31874A65ABCE73
R4PSR6A6B279B8D70R7EEP2FDB2F2F9F55C43
R4PSRC085D416FF53IF753B1744D3B0D61D35
R4PSRB041A848D39AAB5BP1082B56B12B8F1B
R4PSRC586C74F10E3E6CD398B31FEF27A6E15
R4PSR8D42B8554DB4I36FD7DF56C55C159863
R4PSR339DE25984B4I1AED583EEC322D9A511
R4PSRCAD311A25E97E446P2C00B4B9FA0F4BD
R4PSR4171AEC6977FA195PD0FCAFB1C2D1821
R4PSREEEE569B870FI880PF9E2AEDFBB8EB0D
R4PSRD8195EB37B6ERFF3D9FE768871D0CF53
R4PSR3E0B2B4B4EAFLE3DA52AF4BFD176E2C9
R4PSRD66B65260BBAEEA0D26CC7C4109EC7B7
R4PSR52F31C851F4AIE64P69BBEF0720C1AFF
R4PSRCB48B915CB4CA942AC5C97F1D49E0AAF
R4PSR4B48CB73B9ECRD4FAFAFF4008149CC93
R4PSR0489D641AB4ALB8A3CC3E83A8AC03B4E
R4PSRD988162B070AR506P2C9BBE5A8B7620C
R4PSR0E1E07716B71EB79D3A22E124D2EA125
R4PSRACF244893E0BL2D4A6EB5C78A8218220
R4PSRF2CC52A9AB98I647A8557C52681D9CBB
R4PSR744DF8E0E6A2TE25D77191E5C0285119
R4PSR9F8E30825DDAIC3APDF6A30E3FB97706
R4PSR4D6AF2E4F0B6I65BAD7F180BB5544BF1
R4PSR9F23988D0A02E19BA0174DC542C57AA6
R4PSRC5B1D0C7D656A6A8D499F3B9078661F7
R4PSRAD9DC6D8F328L2E2D2214213BFA93D2A
R4PSR26542A91BB8AABB6A0A2D3E3AD53956C
R4PSR3169AE42E773R4A6A61D0DA960C2D2BA
R4PSR2FE78328673EA93E3E50490739915205
R4PSREAE21E06D232A25A3F7DE247E0BE38DD
R4PSRB659B0F613E7T6C2P5210553B7B5B0B6
R4PSRD77781E66956L1263B409DF9E254E7EF
R4PSRE5CCAD409AB0L4F8AA1016CF7611C0C7
R4PSR53FFBD871803ED55D8E2422FBF4C3FA7
R4PSR7544885E0A1DI2F6D15EDC8110377807
R4PSREF5C48A6DC7ETD99D91C7F1D7B656276
R4PSRE143B1DB8BD3RB84A9FC555EA6A81536
R4PSR721AA3F4CA43AB49PEFC39A53E5C2CEC
R4PSRFE166AC773B9ECA33C0ECFFA805652D2
R4PSRB5B4E2951DDFLEF4DEBD5A7508D51A51
R4PSR8693AF4D3869E506D839F0E926A5501C
R4PSR996270ADA111R79BP51AE0DB8D049348
R4PSRABD2FD6C15A1R402P70E2FD575CD1FEA
R4PSR13CB057A19BBE4F33D2E26C508BDF2C3
R4PSR16FD77905D29E95D3AE9B23E26AEAAEC
R4PSRAAEF444B5014TAE3P76C998D28331485
R4PSRE974B4CAFF53I980A5EBCFB886BB2A7D
R4PSRB034E0ED4A41T7DAP66AA279A9A17297
R4PSR04943859DC62IE0D3BDDF0150093A646
R4PSR2442DC8B771BE74B3ED81B2F746AA68D
R4PSRD93A87BA3FE3RB12D38C4E6A06CE831F
R4PSR364A9853E070E4A833547F731D51D7CF
R4PSRACE93808F48FRE6F3D966775858996D6
R4PSR8C266D23F794TB81P28834D2CD4C78A8
R4PSRC468F2638CA7I8EC3D74663571F592C9
R4PSR6228340643BEE782A2F4CABEF12245EC
R4PSR4C00C78529B7R235P05A2F3537B5B279
R4PSRC372161CEFAFLC85D19EC56BC34B4FEB
R4PSR8B55A48F50F8A969A80EB244024F61BD
R4PSR8009C04E45F7IAC3AC1BA0285BCB66A4
R4PSR3DBB0F3BAF52IA3BAF42E114014D8465
R4PSRB1F1C5BB838AIDB63342E87996C110ED
R4PSRD418AEFC3671A5EBA255F99CE9FC9B7A
R4PSR3D514CD08A2CEED4P69B7265D844CE1F
R4PSR72A438C223F0TCB1P78FFE10ACFB9383
R4PSREF9AAE35277DL43A31BD84B064C485D3
R4PSRECBEFC4F4EE8IF69D74CE7F18BC0AFB4
R4PSR0260BA5291FEI194P4A20F83F881FCB6
R4PSR3730AE65A898EEA83E4E6C869ACB82FB
R4PSRE9CC1F2216E5I6FF35289D7C805B6021
R4PSRD9498750CA52T694374227907AC9E707
R4PSR14069AB52F3FLC14A6D31410BF2441A9
R4PSR6918E57A897BRC933893EF608B345075
R4PSR7053050628F1EC52D881DB6A40B1C234
R4PSR6CB7BE466760T93E37C60687A0DA08E4
R4PSRDC065BDEE61FEEABDB32DF945D1DEED2
R4PSR3589A401AA8BE13B361C613EE7D8565D
R4PSRC7473A79E425R1A0P5BB0A5AA8D5CD54
R4PSRF2A170E35809R040A46DF8A0D26A37D1
R4PSR0C08FE633D89A1F3D2213E02C310CD6D
R4PSR44FB1ECA3A5EI725367549989D829CCE
R4PSR93C7732F7898A54EA512C753BE6F9367
R4PSRFFB1081C41C8I77FA0414B6BB5A8B9C7
R4PSR7835F655382ER258A5BF7E82506FAECD
R4PSRD9BDEAB658C8RBE2P194BA7BDCD30F60
R4PSR0BCDCFB52502T778AACBB80ECDA6CD22
R4PSRA7A2D2DD3D05R899D421A881A3E76105
R4PSR2DE2A70AD229T6DDD82243561EFBB51E
R4PSR49AABB55B14ARFEAAAD5AE7451D3FEDB
R4PSR335510E9A797TB75PA09220E3DF20D43
R4PSR27D5C716BB05L82DPE02091E6135248F
R4PSR71EA60101EBEID5EA3EABF8686BD5BC6
R4PSR056760B11507E6CF3CBB1843CB9F0B0F
R4PSRF68E8D2A2BB6AC7A3D09E2158DA16D59
R4PSR8B23C13026B4LDD1D6395B5DC3182B0E
R4PSRB827572A18A5T71DD3D2D4CBA1640FB5
R4PSR685A1F795E85TEA033348601405CEE11
R4PSR54A1F5348C45IF64DD08607BFAC1E9C7
R4PSRAE0374AA9992I7E7D6C615CD5F48185D
R4PSR41B63CE16C70A118P2AE873B74E8F322
R4PSRD580178F6D59LFA4AEEFA4679AE85A57
R4PSR69172575F933R304A357962FE5A37B46
R4PSRD64FF5214B0EI04B30D8D52574771918
R4PSR80099904F508RFCFD0A2D9037EA46C7E
R4PSR7C901DB88D32A94CA0B2BFD78C826707
R4PSRE69BA6FFBF13EDAAD6DA4E3224185F60
R4PSR8AE0F8B7177BA7AB3B4B8C4AD15272B7
R4PSR9B74E53C842ELE71A8FAB4EFF2C1BC8D
R4PSRA676D89B717FA66CP04CD7F6A174F29B
R4PSRCCB48B44A73FL912D260AA02321D7E6C
R4PSRD9E84F5D0B0BI7C1337FB8D76541FCE5
R4PSR5962730805DCECBA38F108063C4D88C9
R4PSR30CDD6D47EC0I6EAPFDEF574821638B5
R4PSR0131CF5EEF5EAB7BDAAF65AABA65DA33
R4PSRBF7F6A426E16I59CPDDBAD9ACE3539C3
R4PSRE85C9D47480BT1B03636500DDF74BC71
R4PSR3BF061035B53E3203D9D1FB4285AA3FE
R4PSRA81BEAB51C73LB4FPD556732A4C9DE01
R4PSRF67706DA9711R1AEDF8EC8004B904EB7
R4PSR4E31D504846BA9D5AA12939884331004
R4PSR9AA921644BB1E71139AF9DCE161EE26D
R4PSR8A01F6C1D149T48433DD1F49BFC8F64D
R4PSRB1C067F373D3L9D738D1A56633E5A60F
R4PSRA1BE268D0FE3A532PAF330D48E0BA2A7
R4PSRF687D57FB243I076D35F9A0C45962384
R4PSR016E5AEADCAEL818DAEBF45553E447CF
R4PSR51CE35705AC5E5703128041B9BEBC7C4
R4PSR898E22C51A6FECE9A448360FC243020B
R4PSR90738BCFCE83E807D34D521465943BA7
R4PSR298BB89D68A0I286AF77A2026F346237
R4PSR335B05E9B520A411D319B6F879934FF0
R4PSRF3BD27A689CCT11FDBD5B7EB7F656C7E
R4PSR4F50784063D3AD4AD166CBA1E862BEF0
R4PSR549654AC41BEE53B300C7341030257AC
R4PSRF2E4AD996AE5EEE2PA1F47FB44B400FF
R4PSR408A0C3B5636EDD0DEAE1921D1D7C859
R4PSR2882BC3EF42FR7DB3A9D06C336E967B2
R4PSR657321870DB7L6B5A8F52D7105762487
R4PSR1131D7D028F3E40E3C203ACA40352CD4
R4PSRF89851282D18LDFEA3C986B7551A236B
R4PSR7F5E2BFE255FE5D13D83F85384584865
R4PSRC062A3708EE7A70BD67EF1992C30E2C2
R4PSR5CF4848C3E4ET136P515D1F344B7F45B
R4PSRFE84F223ECCCAB9CAD75D7D39103F9F5
R4PSR1EF440B666ABT499DB415395A748F437
R4PSR1C7B3439F45ALC903418770068E41679
R4PSR81E0883CBD85L7C7D1804D89CDD79C81
R4PSR7E9C66FDFC18AE1D3D9833696DA593CA
R4PSR10974D7EEA7DL9AAA8A502AC17BD8EF8
R4PSR8457FD381ABFEB6DA47C4FDC8A9A6682
R4PSR60FFB4E3ED30AC8DDBAC3D0F65A0F2CC
R4PSR41A998AB212CA2ACACFB4AA8B8A1B266
R4PSR3433A9BC5445TF1ED9B015DA8EBD279A
R4PSR532E91E4C520RF5BDE61E876CD55C809
R4PSRA857F858EF28AB7A32BED7F811AF3607
R4PSRACC4424F0452AAB8P5856BDDDDAE2D94
R4PSR728334F5EC0CTC09P01A2654ACF03C90
R4PSR8F1FDCA7889FTF343ECEC647FA7BC906
R4PSR40D636F4C6D5EAA6314FD5F71F6767D6
R4PSRDAEEEC326DF7AAA8DF2347966BB2F8D4
R4PSR3D917B079CB1A4B6P90A0BA21239C83C
R4PSRBCAA3B9B85D3R341P613938049BB0B77
R4PSR14170A5A1433I211AC738487E94E04FC
R4PSRCAF26AF817D1A7EAD28EEBD435222D42
R4PSRF2C3B83322B5R533A35B4E64A9915C7D
R4PSR547EF60E6C53T20B3C17A2827BC1FB19
R4PSR1253BE05A483TCC4PEEE99CB3FBEBE29
R4PSRE19CB5B4B704A960PFE7367134D6C327
R4PSR9B1818B26B5ELFCAA12FEF6C887D5E2D
R4PSRD24EB262A0DDE98CA0372AE228911476
R4PSRA628A94A76B5A25BAD1C6093ADDDFB0F
R4PSR873C7B9AC0FALD1B30B8F005FC22BBE6
R4PSR8F85CEAB248CI971A2A1C98AF3BA12A0
R4PSR6BBD5964C730T035A8AFE897821E608B
R4PSRF5470961A480LCF4P40575EE1AB8CA08
R4PSR6D90940FD9BEEDB4P2EA758C454EB7F8
R4PSRCD241836A186R4A3AA23E71FF44B5A74
R4PSR32BBE0219975TFA7D6D4C2878571EFB0
R4PSR566DBFE9510DI613P659447B0BCC1737
R4PSRA7BD0931C91BA9D5D9A6BFD4D0276A8B
R4PSR53FF5C7AAF4EL59DD8E4B9C108733BA1
R4PSR60D34C4D0B75R7C535B8080148650CC2
R4PSR32F501C957A7TB40PBF018B98D8A90C2
R4PSR362734B3345CA23AD07434FA4AC61E5A
R4PSRAE8EED85AFD3LD5BP065E8B6194BFF34
R4PSRE6D98C2DCC96A2E2A7C20B5C8911A05A
R4PSRDB88B16076C9I27DDD1D276050E0F9C8
R4PSRF2D44F5E761FT653380D11A24F6CD503
R4PSR56CBCCB96CE9I064330408337D26214D
R4PSR1659BA802A4CI66EP0390A22B30D3BFF
R4PSRF355BAAEC120I55FADBB76F845B02EE5
R4PSRC960A0994B40E282P02A15766E5A2241
R4PSR17AC8AEF7DCFTAEFP79B627EB5212FC4
R4PSR5E1DB8601911LBB2PD38372F33C1BCBD
R4PSRA23B236472CBADA1A38A401BB41AEEA2
R4PSR04DD4564D868TB66AD67D40083ABED2D
R4PSR293B4F96C0D0R989ADEB9526D2AE1BBE
R4PSRBE2B1767675CR98FPE5159BA50D1EAE8
R4PSR592D4A77225CR93EPFA57F30CD4A89D0
R4PSR2E206687BF14E750D9B4337AEAE40FAE
R4PSRA06E679134B2IEE43C68A28FAC5B8F8D
R4PSR5D25298D9495E787D1DDE8B4411497AF
R4PSR13CC92755E82EB1DP8A4534E816C9636
R4PSR082709EF6D7FI5B43401C203D8348471
R4PSRDC2EBEB41762A498A5472F38BFB9397E
R4PSRE41F76F8AEB2TC7EDFB38E5D04B2E40A
R4PSRFD121CC1B1A4TD2DP202A008A209537B
R4PSRE1EF9943D706L20ED9ABFD8EFE1CD533
R4PSR93744E9E34C3A3DFAFE5FFDCA47A0692
R4PSR5883BFF0BD87LFE1D1299C4B3A90F49D
R4PSR6954F1C60766E06038DE12447A761315
R4PSR6FF260B827C4L4A63FBD162E1F7A5BD3
R4PSRA6C8F9C4D3DDI6B138CF064BC5841B5B
R4PSRB2AAD50D544ETB3F339571358B9909BC
R4PSRE0843B81D99FRBBDAE1D5F4339342DED
R4PSR64613F91E581TA1E3C0F8890C2F68C97
R4PSR73A0D5378032TC99A51885ED1FB5D048
R4PSR7B414AE508F8ID22DBFCCDC1642B2CDA
R4PSR750F3ED485FAADB5P677B7961432BCEF
R4PSR0F553D1FB961LA51D5CA6CC404BDEBA3
R4PSR2FD1FB2F550AE62FA82FBCE769BB28D2
R4PSR9F292FBD0F14I3963955F112713EE253
R4PSRC4410B0D32D0E505390CC486C2B7FF93
R4PSR39AD6302A21DE192P60D8E6A2C8B2EC2
R4PSR9BE12E9E7739A26FA13963931D83F90B
R4PSR4CD3781622C6ED9639447E4B547ECC1D
R4PSRCA26B969AE77I982P6765E8589B093B6
R4PSR167C55D16D40I3B4PE51981C9D428432
R4PSR4113159052FCTBFE37291685881E96FD
R4PSR7EB445345AF1A629P8EDF162B174D3EA
R4PSR2A35DFA7A4B7A3A5A6CFA788D8D25CDA
R4PSR3E14D04B930DT77CDB3E4EE3490DF069
R4PSREF4CA3468EE8E91BA862400D46D591F4
R4PSR02C36C1F6028E9C9364A88B1A3196C8E
R4PSR3A63938806A9IAE2DFF1B5228CF63B18
R4PSRFA98414E0FE9R91632E89D117D103AA3
R4PSRD845E6E36DBCREBAP231E3946027054F
R4PSRFB4D6C9DC382TFB2DC6112D7CA4A6169
R4PSREE1E792E92C1T0ECPB622A69014EA1AD
R4PSR0375DF19F55AR64237064252406928F9
R4PSR137255E90A79TF3B3C43EC58766E82C7
R4PSR91CE1CE7BF57A3F03324B479D20B87B3
R4PSRD181533C6877I211P835848496F0CD9F
R4PSR982E09FC2965IB24P2F0F43C96EEB96C
R4PSR20E7CCB4BBA2E3E5AAF61238FCDEDF27
R4PSR70327405264FE369A9EA50BD41E60B06
R4PSR9823F3CF4A25IEC2PF94798DF207C3CB
R4PSR31C883C9F8E2A9973EACF028E44BA54D
R4PSRAE1508B6774CA12931125AA96244D9D4
R4PSR62E42AE8A362T26634B864378A4E64D8
R4PSRCA675F0D90AEA266P79CF909C179AFD2
R4PSR210418B12B44IB00A0997FE81037E3A7
R4PSRB3716B5807C7R3AEAD33EFF79D7432CF
R4PSR684095EE1BEAADF2DA413DB6947F69BD
R4PSR7F89BBA857F6E5923262DCE783CCCF6D
R4PSR6DDE15FAADF6R657D1AF984611394E6E
R4PSRD72C42798D80I6E8A39127C8A4D30281
R4PSRDCFD7197F4A8TD603A0719BBC3146396
R4PSRBA8A0A590AB2A889D17FC8747F8D3E11
R4PSRA94807C0B90AAE03AA78EA0C46743060
R4PSRD557A467B345I3FD3A3030F0451A144C
R4PSRBDD187C5551FE63C3A3EBC4F86D7C9C6
R4PSRD746CC9253FCA529PF609574B5F85C50
R4PSR87FBF270DE14I341AD36CF64A77825D0
R4PSRB626103F4EFBL5C3P880950D164603CA
R4PSRCA76080D1FA9A85638AA50B96385FAD2
R4PSR793427FA133ERC17ABDFC0D04C02D457
R4PSR3C226B9B60E7TAAAA78CA162A6F33402
R4PSR90490CD93DCDI7A2A433C85AE2D1B035
R4PSR717CF706E3C4RC2FAA2AD7EDFA0A0D4D
R4PSR95C94967E398T98FP34D37F839C65462
R4PSR21DD2F086497TE2EP9A7EED8B28E7671
R4PSR0B931D0F66B8I38AD14EE04E6267604A
R4PSRB036F487DFF0R964384B66FB6C2F3DA3
R4PSRD6F983A4EADCI776A8675AAABD0AA0FB
R4PSR3FFB1DCCD012ID65A940EC484BC874F6
R4PSR0BF1E9997221E95EDD6F94DC85734D22
R4PSR2B1DCE5203D3LC31A76FA9E39D1AC688
R4PSR432BB248F11BL9053BA31DF3465A5431
R4PSR3B8E67FD36E1RE44PF77480921792E7A
R4PSRB3B6630C1743TB65A0B6FAF051DBA217
R4PSR04DBEFD38BF0I68CA71B5D4F5C9B65C3
R4PSR87D9F3FE3A26T2D2P1306E1C126979FE
R4PSRF314E97D068EI42EAFBB327E0887B54C
R4PSR1B41BEEEF31BA756DD96AFECA71DD757
R4PSR61F40484D8D8A0F23B61BE2222C75F83
R4PSR4228067FD1EDTB1139C075B349F997AA
R4PSR0098B712F571L732PD910D2E9284E653
R4PSRE415B27E8C5ATF3BPF0A013D68DF8197
R4PSR9E1432FB3E5EEC39A5C06005C84F90F4
R4PSR8082DCD0BAD4L063P912A33B782E2314
R4PSR4D0E6015D285AAADABEEF650F9CDF646
R4PSR9A4B41CF05D9LC2AD369EFEDFF3517D7
R4PSR56BE881C05ACAEDFP175F69C846B46EE
R4PSRD093FDD7340BTC733E7F6226CF626EC0
R4PSR6703A8D4A598TBE0DB91D04D3F602E4A
R4PSR3AD06198FF44I95C3FCDC624A436816E
R4PSR639B355DA44ARF873E2835D44D999695
R4PSRE0489AEC1F88R15BPB08BCB99537AF8D
R4PSR9D51A66C98C3I1AF33D1A8473B1DDB04
R4PSR4B909EF156ECLB9EPDC268B8E26CDFC5
R4PSR0F93F3350895E78CAC2EE2063CE907A7
R4PSR9531AE3AC14CTEF234CF2D220D0B8B77
R4PSR8E544695E24BL3F8A32FCE10A6BE6743
R4PSRBC4C22770ADEL08APBF28402CE0B6CEF
R4PSRC6C786439244A69438E31441C5E9FA8D
R4PSR0191BEC5CDB7L83435715B4961C48BF4
R4PSR3A5C7C841801A57ED9A761BBC4B4EAB6
R4PSRE16A847B40BEA9AAP833C35548BD3A96
R4PSR36AEBA7F3B36LA74379243D42A3FF8AE
R4PSR5125FA774832E44ADC99F277E1E1F1CB
R4PSR3D0CF76ECA00RF05P71315712292FC17
