"RE4PU","R4PURF859A8E03CBCABF7D8ABE92787E5FFA9","y"
"RE4PU","R4PUREAC6966FB48ET93FD637070BDCD1167A","y"
"RE4PU","R4PURC1ECC560143FLB6FAB0413CBD9B56824","y"
"RE4PU","R4PURE17CC2DDB0FAT87BPD8F67191B11F03B","y"
"RE4PU","R4PUR557E61308BAEL4ABPFEFC7F5277C340E","y"
"RE4PU","R4PUR9E7EB1AAD4E8LB27A0537A21993976B2","y"
"RE4PU","R4PURE2D3C2EDEA88IA0FDD29EC8CC53BFBA5","y"
"RE4PU","R4PUR657079EB4520IB8C3E3A448C00284B29","y"
"RE4PU","R4PURB3399CDF692FT8A039A2B71C5D1A9434","y"
"RE4PU","R4PUREC3AB14C54F5A29B375F3694049F11CF","y"
"RE4PU","R4PUR5ECDF13E41E5LD44A4EEDD1DD5ACCEDD","y"
"RE4PU","R4PURCFEE7052EA4ATEBE3ED43F756F311D7E","y"
"RE4PU","R4PURC037B7935729T2FFPF2D1D4545FDF50B","y"
"RE4PU","R4PURBF0DC5568E85A7223BD7E56FA00DFF1A","y"
"RE4PU","R4PUR7E52C3B17476T87538965D917B0132C0","y"
"RE4PU","R4PUR4CD07BD84292I606AC1399AB936E0926","y"
"RE4PU","R4PUR6879C823CBB0E6D4PFDC011892DD6AD3","y"
"RE4PU","R4PUR706FFA8A9AF8LD1EA9C986B930EF79B2","y"
"RE4PU","R4PUR4075439EF808RC4437328ADE195AE064","y"
"RE4PU","R4PUR3882B1499F62ACD833444B7E61B79128","y"
"RE4PU","R4PUR102CC788BB7EAE9CD91F18F2909F5888","y"
"RE4PU","R4PUR6F01C495A8B0R169P51CB3144A5A314D","y"
"RE4PU","R4PUR02122C879E8AEAA9DA89B2421B8F2AF9","y"
"RE4PU","R4PUR04CD73EC8C06LB4BD79E545A93185C9E","y"
"RE4PU","R4PUR372172E77E9BADB53FA5A4F6CB1163FA","y"
"RE4PU","R4PUR9C2F2674C60CA40FP9C399AC6A1C531E","y"
"RE4PU","R4PUR9B8B01527BC7I8D7AAE4E19916151A08","y"
"RE4PU","R4PUR653620636326IB933301C8B8F2BE6553","y"
"RE4PU","R4PURF90181BAFEAFI4C6D9A7CACD0DAD497D","y"
"RE4PU","R4PUR2284D4AC31DETB13P78D822F24ED7745","y"
"RE4PU","R4PUR8DD687598803A0953B962FBA836AE05E","y"
"RE4PU","R4PUR78B7187A5B32E9EFA826F21BC3359FEA","y"
"RE4PU","R4PURC38724C565BCA525A1AB39E9F353A465","y"
"RE4PU","R4PURA19D18576BB6I75FP2B09BBB88D95446","y"
"RE4PU","R4PUR7D28693F8386T0343319E2C2DBB6C62C","y"
"RE4PU","R4PUR2639910B007FT9DFP7347A34CD807698","y"
"RE4PU","R4PUR8A8724BE27F6L99CPBBE8FD1D1C82DFC","y"
"RE4PU","R4PUR80107F30E70FLE62P48AC37D53C453E3","y"
"RE4PU","R4PUR733167D74030I00F382E6D4A3C8DE37D","y"
"RE4PU","R4PUR29E7CD508864LB52PA57CADA599F916F","y"
"RE4PU","R4PUR4BF5368B13D3I7C9D1C55E18BED3B934","y"
"RE4PU","R4PURBBD386A60DFFT8FB37821C1ED0AF0028","y"
"RE4PU","R4PURD71E1716CC48TC64367A418384659188","y"
"RE4PU","R4PUR0077E9222CB6A3AAA749C0206723B27E","y"
"RE4PU","R4PUR16FDFED1AD8BL5ECA50B07F876B2E3F6","y"
"RE4PU","R4PUR5BE6C586F81DRE0D30960990EC6070FF","y"
"RE4PU","R4PURD82F26C9466DE281ABBB9D7A7EFF7399","y"
"RE4PU","R4PUR2C45E6B98692I4853EA4D48BEC4425FE","y"
"RE4PU","R4PUR2BE885C614E0E2CEAE5B62A570AE0306","y"
"RE4PU","R4PUR6AB85F6BA0A1IBA5A7E7AF576F8166B7","y"
"RE4PU","R4PUR4EE823B32F59T7D6D54DFD353607017D","y"
"RE4PU","R4PURB67B296A8DFBL2DF33D94960C4EB8BF0","y"
"RE4PU","R4PUR17333A7AF9CAEDEB3515ADBACD6D2124","y"
"RE4PU","R4PUR026D29B15BF5R87FP2B203C8964FE74E","y"
"RE4PU","R4PURCAAF87A155F4A7923EAA1DC7BE768E0F","y"
"RE4PU","R4PURB908BE0AA815L4D8P41FCCF91289D805","y"
"RE4PU","R4PURD4A66C35792DTCB6D64F632A8D474CCD","y"
"RE4PU","R4PUR5D4466F67935E2AEDCB105E60CFFF70C","y"
"RE4PU","R4PURE0FE33804AABL292A9137BA6716690C9","y"
"RE4PU","R4PUR23E83CE75F95TC3A382AFC6791BAC94E","y"
"RE4PU","R4PURA19E101E9D7CECF0PB34BA741447D516","y"
"RE4PU","R4PUR68DB71F774EFID8A37562CFD8178F22D","y"
"RE4PU","R4PURC4FFE7376E99R6D8AB6054918BA21D4C","y"
"RE4PU","R4PUR444A4027D6B0EFA83F891A9FDE2C3711","y"
"RE4PU","R4PUR93CE833BB5ABA3A838B656E3E627B5A3","y"
"RE4PU","R4PUR6A9D399DC8A5I1BEPE6EA385DC9D6F38","y"
"RE4PU","R4PURF5B476BF2268L6B9DF058B7B14CA5998","y"
"RE4PU","R4PUR03B07A7FB526A1BFAAF3DFE93FBF6DD1","y"
"RE4PU","R4PUR2CDE8243077DTF3A3E2ACF956B169F7B","y"
"RE4PU","R4PUR6691BD0A822ET458AC640C581BFB8178","y"
"RE4PU","R4PUR7ECD812D3928T578DDB374C8935B4A94","y"
"RE4PU","R4PUR3904427A14BER134P1F9867690601FED","y"
"RE4PU","R4PUR00FFCF98F056T7F63B7F7E185514E2FD","y"
"RE4PU","R4PUR6B1E7DE7E362L8E3A2BFC8C330AFAB89","y"
"RE4PU","R4PUR96D46D122335TCA3DACFB048D86D6F12","y"
"RE4PU","R4PUR3AB198E24FA9TB30D648C937803257B4","y"
"RE4PU","R4PUR0B44A0F5087EL028AE7298020984F42A","y"
"RE4PU","R4PURC0CEBB531727R1E6A226C8F866C43D02","y"
"RE4PU","R4PURC044A907DCB2EBECA6A290A02099AA12","y"
"RE4PU","R4PURBAFC0E6F9D22TDA5D9043547CDE99A06","y"
"RE4PU","R4PUR3862BC4D77C2E7ECAD925BE14FC20705","y"
"RE4PU","R4PURCDFEEC4F6100A4C4A3507E0004BCC858","y"
"RE4PU","R4PUR9E880A10FA00I00931A51FAAB4619D80","y"
"RE4PU","R4PUR693C7FE3D533A492361865E811907D56","y"
"RE4PU","R4PUR3371CA9FDB4EAB04DBA0E5EC8A3A46C6","y"
"RE4PU","R4PUR27A26CC803FDE3EDP4C8143717B24298","y"
"RE4PU","R4PUR3092954E6A3AE0D7D45ED81C06C00BED","y"
"RE4PU","R4PUR297952D6863EIFC4P4B0E6B0EF297ADE","y"
"RE4PU","R4PUR6F36FBA006D1E9A8A7B86BB1283C3F21","y"
"RE4PU","R4PURD5D4A5D7F7EAE73CD1584367CE02E7EE","y"
"RE4PU","R4PUR7DFA8B09E3E2AD21PB86E9C927EB902F","y"
"RE4PU","R4PUR068D4B13B7DFL26FP95EA3F87BD07367","y"
"RE4PU","R4PURA2A3C80C776CE8153D0789F45DD5B785","y"
"RE4PU","R4PUR7A6EDE0DD186EFCFA94C181CA546AE55","y"
"RE4PU","R4PURABEE5A04742DE417A65CE6CA7C7D9A54","y"
"RE4PU","R4PUR764B59D759B4RE23A842234706094AB3","y"
"RE4PU","R4PURE76BE656F5FBLF1BAD79569ED7C84C97","y"
"RE4PU","R4PUR367B05AE75E0R1EFA50F7951EF6FB545","y"
"RE4PU","R4PUR0E8812AF7972TD34390D6B68F897C9A5","y"
"RE4PU","R4PURC896CD6D1BFEA07CDD72DC8F89136F65","y"
"RE4PU","R4PURC0CE32BFAABAT15FP7FF41CB4EDC0D29","y"
"RE4PU","R4PUR33AEFFC981C1I9D63F334AEE43E92D41","y"
"RE4PU","R4PUR291A81DB363DA620D248C66C5AE6B875","y"
"RE4PU","R4PUR9315697E3235L881PBAE36A8EE6ECB67","y"
"RE4PU","R4PUR93741C9D3764R9B83BDE8867F9DE16F4","y"
"RE4PU","R4PUR043E7CDC9600TC45PA9496D0765CCB8D","y"
"RE4PU","R4PUR688856434E8FEF89ABAD1158084B2DA3","y"
"RE4PU","R4PUR4D55959E1F30T565ABC15E0B042C0F17","y"
"RE4PU","R4PURC0C1A64C481BE956D026902E4F55075C","y"
"RE4PU","R4PUR2F47AE5F2E81IA5E31A3097925DBF1EE","y"
"RE4PU","R4PUR93EBB62D19F8LB673C05E188325876FF","y"
"RE4PU","R4PURC668CC2906B7R8313663D1EB7C3609D6","y"
"RE4PU","R4PUR6F91D6796577RC77PC4C861F5206524F","y"
"RE4PU","R4PURD4368BA1E8C9T357A715911BAC36E9F2","y"
"RE4PU","R4PURFBAAF3165A36A6A4D7709D7E77408422","y"
"RE4PU","R4PUR0D49CB5B469DA32CA84A9AE953DB2339","y"
"RE4PU","R4PUR15A8F3E60D71L7B33144F77597DDCBB8","y"
"RE4PU","R4PUR4E36FD32B46CRD88A7F84985C10182FD","y"
"RE4PU","R4PURD98AC564AC70L60A3AB7C8E0E1118669","y"
"RE4PU","R4PURAF976914813BL04BAB37FC1155C37561","y"
"RE4PU","R4PUR9AE171E82635R1D5D5E56034E715146A","y"
"RE4PU","R4PUR0F5B54D4339FRC91D67C5C25DDF3B583","y"
"RE4PU","R4PUR987C141473BBA84D35AAB2E0E3B49869","y"
"RE4PU","R4PURF175289C4327TDB934884CD381F6F544","y"
"RE4PU","R4PURF4D27F8B9605I089D56D6C4EB7CEB822","y"
"RE4PU","R4PURA6F006561C4EIDACP5EFDC3A055509EA","y"
"RE4PU","R4PUR52AF68083176RECDD6ACFF9D16E3FE49","y"
"RE4PU","R4PURBC6237BB7CD5EA82D6E841BEB9DF45D0","y"
"RE4PU","R4PUR3CCB7DDB44B8R545PC1770D8A37A28CA","y"
"RE4PU","R4PUR35BB9AF19721I716PFF8AFAB4F87BB9F","y"
"RE4PU","R4PURCB880C2DECA5E3663F561FB95DCF471A","y"
"RE4PU","R4PUR90A2FCA68C23IDEF3F2125D48A1927C3","y"
"RE4PU","R4PUR1D4BF63DEFC1A909A08522593E13434D","y"
"RE4PU","R4PUR355557BB9F24TCF633DF2A24FEA6C752","y"
"RE4PU","R4PUREFC9DA7B69ECL349PCE88E1E7374DB3F","y"
"RE4PU","R4PUR2168DE0A9F89L97CDF8A0D652762AF83","y"
"RE4PU","R4PUR05C910932B54E7C5P9F0DB94FF241A47","y"
"RE4PU","R4PUR6F6B3508E87BL141DF5ED57DF0CD5ABB","y"
"RE4PU","R4PUR1F3A0611C862AD1830CF68096A7BC4BB","y"
"RE4PU","R4PUR416BD5C721DFA04334E0C515281CA75B","y"
"RE4PU","R4PUR43497A099957IB003C3732A7E283F68B","y"
"RE4PU","R4PURDD9C95DF5DF1LAA5PD30786FF1E09CB9","y"
"RE4PU","R4PUR20B272EDB002E9FAAC2F0822926AC74D","y"
"RE4PU","R4PURE5ED3BB925A9R29AP12F6BA056AD4E90","y"
"RE4PU","R4PUR8082B91215CFA3B4P76D0BEE8E22E17C","y"
"RE4PU","R4PURFCDB2D07B792L7D23F891878642CF5EE","y"
"RE4PU","R4PURC31570763587I382A5CC5EACE9398190","y"
"RE4PU","R4PURBAFC63E9E2E7T2B634657729ECF87592","y"
"RE4PU","R4PUR3DA007FF8E92R7EDP7CA4E0DD101AECE","y"
"RE4PU","R4PUR5078B3997FD7L95AD0B3DD57AF1E1198","y"
"RE4PU","R4PUR30980A9C0C38L24DD64E9C94BBC79C12","y"
"RE4PU","R4PUR4B94288E208EIE92P2412C0EF7DA8EC6","y"
"RE4PU","R4PUR2B4046FDF8A6A0883EB334CFE3AA12DB","y"
"RE4PU","R4PURDD388D6585A7R6ACP79EB10C3E8AA8B8","y"
"RE4PU","R4PURE8614302B850L70FDCE8C0441B518389","y"
"RE4PU","R4PURFC53F1BECD4CRA0BDD7D02CCFDA1DD47","y"
"RE4PU","R4PUR87796DF854F6I757358D15A98CBF20F7","y"
"RE4PU","R4PUR76BDB7FD5503T32AAA4C8A64F11A59E4","y"
"RE4PU","R4PURD33F77A8A8B9A7A5D4F77B560C21230D","y"
"RE4PU","R4PUR74FC4244ACB7LFDBP5C3EB991E13B280","y"
"RE4PU","R4PUR673CF56B804CE814PDF981811D0FC0E3","y"
"RE4PU","R4PUR0C70B610D0ECLF4EAB9668F4A6F0CBAD","y"
"RE4PU","R4PUR38E027CC639BT73E35F32D76ACC40F5A","y"
"RE4PU","R4PURFE330D94D17EI54FAF389E94E4EBEF8E","y"
"RE4PU","R4PURDD6FEC2C3897LF7EAFB9FEC267E3D2B6","y"
"RE4PU","R4PUR480414804998E2F6A373E0319281578C","y"
"RE4PU","R4PURD93A93411EB6L853PBD1A42C2BE691A1","y"
"RE4PU","R4PURFD741CF1CC23EF1BD4254F1B798F9F3E","y"
"RE4PU","R4PUR58C2EE551251A02EPAB47F3553E1784C","y"
"RE4PU","R4PUR15654FEECC3DA9A9A83B0ECA3FDC7DB8","y"
"RE4PU","R4PUR08999143D227I568332C135D562EA129","y"
"RE4PU","R4PUR590C8B6C84A6A315P8AAFFF334FE3A36","y"
"RE4PU","R4PURF6A7B1D6906EAEB0P0F2B30DB9391C6C","y"
"RE4PU","R4PUR6FF4354578ECR2C3AB6C80BF8F96628D","y"
"RE4PU","R4PURF3D08CFBF800LD18AAD86C9667F91007","y"
"RE4PU","R4PUR70CBF4803C5BL054A10917669C61FE41","y"
"RE4PU","R4PURD1867650891EL6B9380474BD45BCAE8A","y"
"RE4PU","R4PUR5B4BFDA82958I0C2D014C55FB2C0D355","y"
"RE4PU","R4PUR9EB116661B1FID0DD6EA47D7A9BD03D7","y"
"RE4PU","R4PUR0026331AC5A9EB78A32CEDABBD8DA4C5","y"
"RE4PU","R4PUR95B00D5A2E84RBCE3738A99CA92775B0","y"
"RE4PU","R4PUR7E3DA6CD89F5EC13D2CFB490D66445A0","y"
"RE4PU","R4PURF7C6886BA0A8T4BAP1B79A6D62C7375F","y"
"RE4PU","R4PUR41942315CBD8LCE83C4F8AF40BE38FD5","y"
"RE4PU","R4PUR405593E278A6RCB2A91E222407F7B3A1","y"
"RE4PU","R4PUR4A7F63923DE4EE4931336DAEA209FA00","y"
"RE4PU","R4PUR6F9C8706594DI7FBD0387D7157DF0376","y"
"RE4PU","R4PUR8DE502433FA7R4FBABE4222BF9171551","y"
"RE4PU","R4PURCD1E309276FCE766A2B03DF63DF40B7D","y"
"RE4PU","R4PUR46E8465CEFCCA174A933B8FFB86DBF42","y"
"RE4PU","R4PUR062667645E89RD53P1F3F4ABBC55E344","y"
"RE4PU","R4PURF36C31C33439E530D9540BF460FD7A3C","y"
"RE4PU","R4PUR20D76A7CE260A43APF1348E133B71118","y"
"RE4PU","R4PURAF6BD3726315A82DP478A83D6395A59E","y"
"RE4PU","R4PURF8920DA1CB99L5A6A7F19EBE2B669607","y"
"RE4PU","R4PURC05AF058B8CFE330PABA22AAB842A9D8","y"
"RE4PU","R4PUR4EB9C5ECD9F6A1ED355C6FDC7CC060E9","y"
"RE4PU","R4PUR6034DB1A3BB3I390A27534E9A8296110","y"
"RE4PU","R4PURFE9FDFE3378AA09FP48B9A13E682B549","y"
"RE4PU","R4PURD0C7F8270D0DEA9CDEE73D5FF0196697","y"
"RE4PU","R4PUR790BE7E45429R29E33779F557B68E813","y"
"RE4PU","R4PUREA0E94AEAEFEA6AA3218663E5BEBF6D3","y"
"RE4PU","R4PUR7C1EBAA090C1L60FPE8994DAF44912CD","y"
"RE4PU","R4PUR6A2F40030257LC3C3D07280E1BF72EED","y"
"RE4PU","R4PUR92585B20B185R483D02E444A71E2C2A0","y"
"RE4PU","R4PUR0622B289C794E0E9PDD93D70A5B7342F","y"
"RE4PU","R4PURBE9159C21AE5E90BD6959F05C3CBB25E","y"
"RE4PU","R4PUR844751DBB603I194A3C9FAE19E43CB3B","y"
"RE4PU","R4PUR9EFDD19BA066IC1AP412330132507319","y"
"RE4PU","R4PURE2C4D919C09ARBCFP82325F07FCB154B","y"
"RE4PU","R4PUR3E865ADD31B1TD0BA0E54C7D4B562F47","y"
"RE4PU","R4PUR864029B1C58FT524AC2E6475884939CC","y"
"RE4PU","R4PUR03F7D500CAEEI065DEBFDAB84CE8E496","y"
"RE4PU","R4PUR6F3B769F35BBR2D73AE2269B03B26CA3","y"
"RE4PU","R4PURF152B44F6D90T9F330DFA14DC5F33681","y"
"RE4PU","R4PURC99AAF1E4200A251D0E195C92A33F440","y"
"RE4PU","R4PURF2AAEDEF6A1DEF38A099C94279248F9C","y"
"RE4PU","R4PUR15B5717981D8A0D83750B0F8F726D7B9","y"
"RE4PU","R4PUR260FB471A448A5953CCCF21E36E0A213","y"
"RE4PU","R4PURF41539A61A57LB3B3FD14B62FDE58174","y"
"RE4PU","R4PURAA5871DAF86FADCFP8C07F99230DCE81","y"
"RE4PU","R4PUR745170316F9CL9D6PC837BEBBFA4EA1D","y"
"RE4PU","R4PURAC56A34D3F95EDB73A222A13802AEFAE","y"
"RE4PU","R4PUR506D0C9486C5LF47A69E2896BE32FD63","y"
"RE4PU","R4PUR9364424C3766E070AAFD7AD84B8EACA8","y"
"RE4PU","R4PURA5A79F1D1587R9B3P113D2DB856F5593","y"
"RE4PU","R4PURB99697B70FC0T3B1DFAA780F80E9AC0A","y"
"RE4PU","R4PUR6933C60CBB79T4A5DA3C444437B3301F","y"
"RE4PU","R4PUR81E7EAD5A034RBD6A7389553A4DC5217","y"
"RE4PU","R4PUR510967BA43F6T8F7D84E8055AEA7EF2E","y"
"RE4PU","R4PUR947960AF7D23A70FAC21AED1298AEE9B","y"
"RE4PU","R4PUR92B74FF176C5AEF2PBC6D83CCFECFC2B","y"
"RE4PU","R4PUR302292A2F98AIF1DP27D679C27EF8FB7","y"
"RE4PU","R4PURBD2FFCABB8E1I6F3AD3D3945E59FACD0","y"
"RE4PU","R4PUR333E6422E424ID2A33C0F117E5B54726","y"
"RE4PU","R4PURF07C4C82E88AR023P233BB1DBE737582","y"
"RE4PU","R4PUR27292B3827E3E72EAD127A3A113CA0ED","y"
"RE4PU","R4PUR3A4F8E085F31T1853F4CEB0684196F72","y"
"RE4PU","R4PUR19F3E5EA1EB7EF923EDB85254ACAD136","y"
"RE4PU","R4PUR53D004ED0BA6IE733DC4D34D37DCF834","y"
"RE4PU","R4PUR525CD0AD551ELB40A8F9DEAAB9581F51","y"
"RE4PU","R4PUR036A2E41417FT93D35A9E80BFBA773FF","y"
"RE4PU","R4PURE4DFE3E1DDB5A9D7P3806D06C1394E62","y"
"RE4PU","R4PURCE52441C6706L5473F7B3C8045C738B3","y"
"RE4PU","R4PUR51DD5ED1B5C4L2CADF415F3C1BCC64D2","y"
"RE4PU","R4PUR5210107CA7C0LDECA09D7E235F014DA2","y"
"RE4PU","R4PUR27BA11537657T483AD9EB8DD9305980D","y"
"RE4PU","R4PUR92D134FC1258I318A47A9AF0635C2FDD","y"
"RE4PU","R4PUR3704F00A8718T986P9339396A7CE6A0D","y"
"RE4PU","R4PUR1703DA5DFFE5IEFC3F069FD6E8886F63","y"
"RE4PU","R4PUR893C800870FAI1E5DEE49FEDE302157A","y"
"RE4PU","R4PUR3AFF774FCDB3A874DB2324F2DBBC7B72","y"
"RE4PU","R4PUR2CEB33559CD3AEE7D248EFEA557C2637","y"
"RE4PU","R4PURDD36014E58ACI697A79B4A79AD0B4603","y"
"RE4PU","R4PUR21EECB6D9414E2DADE751C34FDDD90FF","y"
"RE4PU","R4PUR2A015BC9F606L54CP2E4120D1F734533","y"
"RE4PU","R4PURE8DFB3481BC6R57F3691C6AA560431A3","y"
"RE4PU","R4PUREF89C3DDF2C2R1A0P8C07B41591F1EE8","y"
"RE4PU","R4PUR51710C9A23C9T7E9P120A854DA68F7B6","y"
"RE4PU","R4PUR39F59C271058T0023283F84E6CF785DD","y"
"RE4PU","R4PURCC493F16AB8FT435P81EB20F5E05F6A4","y"
"RE4PU","R4PUR5598A7852FAAADA0PF7357EA06D22BED","y"
"RE4PU","R4PURED9CE1E0460BTCA7AF880A81EE980926","y"
"RE4PU","R4PUR332DC769083EL64B33EA47CF45FE49DA","y"
"RE4PU","R4PUR731A510FDA48A9A3PC6642C7089E0263","y"
"RE4PU","R4PURC7951D0D720CAAA5DA2A8052CCF5925E","y"
"RE4PU","R4PURFE3056A68BA7AFA0PB5AAD612E0DF2ED","y"
"RE4PU","R4PUR020CBB57AA25L531DA172FC592BF15C9","y"
"RE4PU","R4PUR7535645FBEDCABB8A04B5BFC54B9EEE7","y"
"RE4PU","R4PUR5F125940702BAFBEP79BE3423D9F8A1A","y"
"RE4PU","R4PUR265F1FEE2D3BR617AE361C64915B2454","y"
"RE4PU","R4PUR88E96256303CEBEEAA5CBF4A8940F7E1","y"
"RE4PU","R4PUR32129C91E7A8A481PF0CC09F5234B34E","y"
"RE4PU","R4PURA5BF531DF022R270D5F22C9E761552DB","y"
"RE4PU","R4PUR281682F4702AA5503A8F20C5FB101913","y"
"RE4PU","R4PUR444C72CEE133AE05P8E8432B521A7831","y"
"RE4PU","R4PURB7DB80FFC3FBI56DP86D84C7B7ED4ADE","y"
"RE4PU","R4PUR9EF02788F91EA2EDP95367AC92D24990","y"
"RE4PU","R4PUR20A921E4727ET4ECP75BEFE8AFA9E9BB","y"
"RE4PU","R4PUR86482D9E7A7EI58FD5D07B7EB31310F3","y"
"RE4PU","R4PUR76C8E5F642ACA7E6A66E8E30ABA6CB95","y"
"RE4PU","R4PUR56FA4FF68859L707P6E0A52C1FF377DB","y"
"RE4PU","R4PUR989B1F5F5BB9T5C4D2FBDBE0813AF686","y"
"RE4PU","R4PURF5FADAC0E4DBEAF2D45DF843A67D826E","y"
"RE4PU","R4PURFB55B9899C6DI12E3266E5ED5AA05FA2","y"
"RE4PU","R4PUREA68C7F66756A724A5A6811E26A15EA2","y"
"RE4PU","R4PURA4F5EC024697I1BDA1270D727ADA3ADD","y"
"RE4PU","R4PURA4263561393CR861AD61C179C7F2FDA6","y"
"RE4PU","R4PUR5E61FDA3B848E3A6P3F4277246DE8F0B","y"
"RE4PU","R4PURA5F86A5C96E9E603A65B75F9CF95AC51","y"
"RE4PU","R4PUR184D4534CA1AT19FP6B8711537781DE8","y"
"RE4PU","R4PUR33603C80F480AF76ABA2A74B1C7784D8","y"
"RE4PU","R4PUR506EE658465CLFB4A71345D0AE4AF41E","y"
"RE4PU","R4PURD8CC98D39E0CI306P0332108B5F483AA","y"
"RE4PU","R4PUREBAE1C712F7BE2CF36D92DFFF80DF69A","y"
"RE4PU","R4PUR2DA8F64D8BF9EBDD3BB183D0E3512CBC","y"
"RE4PU","R4PURF2B3B37C8B34R131P6A1EC3A4DF98654","y"
"RE4PU","R4PUR5E97ED5AF489E69FD046726FE8F628D6","y"
"RE4PU","R4PUR0CEE4D500196I821P6B395196E990FAE","y"
"RE4PU","R4PURF7DD03E1F5EAR2A6P3FDC94C6EA27529","y"
"RE4PU","R4PUR51EB78392610TE30A32BF74FC61E046D","y"
"RE4PU","R4PURE3710A53C97EL349D5570EAE6971ECE1","y"
"RE4PU","R4PURBCED34F02A5ATD9D3669B473D026C1A1","y"
"RE4PU","R4PURFBA8393FE6B9A4DEP3BC523E19F90EE5","y"
"RE4PU","R4PURBD12F9C05403I490A1E0752204438A07","y"
"RE4PU","R4PURA70F8EE062CBR0023965B625EA59919F","y"
"RE4PU","R4PUR142099BFA577I3C8DB85ADA2241A2E6E","y"
"RE4PU","R4PUR17920FAC8538I6013986492AEA921B2E","y"
"RE4PU","R4PURFFB73D33C364I2D2D3D7617F9F78B9DE","y"
"RE4PU","R4PUREDA0EF3AC336RF2EDFB4948D2B852E79","y"
"RE4PU","R4PUR3B598D5726CEI17EDA3E03BF5E2F1047","y"
"RE4PU","R4PUR13BE011F8C55LE83D212D167D391001F","y"
"RE4PU","R4PURA70A82557C73A4FDD51D242AC6B62343","y"
"RE4PU","R4PURE89614A59BE9E58DA4237B4C8E5A1893","y"
"RE4PU","R4PUR582CC630F28DRF943187869857F53472","y"
"RE4PU","R4PUR2DE32B9FDCB7I4A1A018D5D4A3E6E703","y"
"RE4PU","R4PURA08A57D0878ET1B13449317231569022","y"
"RE4PU","R4PUR309D9DF73D05L4ABAB7BB38CFEBE4EF3","y"
"RE4PU","R4PUR508DF061831CR88A39BDFB4765448228","y"
"RE4PU","R4PUREBF1CC54F2E7T370A91CBF87CEA7E276","y"
"RE4PU","R4PUR5C4ADFE228BFL393D65886F0C14DD9CA","y"
"RE4PU","R4PUR0B25925F0E1ER013P3B480E7352A2AA1","y"
"RE4PU","R4PUR42A7173F6B53I0263B988325131134DC","y"
"RE4PU","R4PURB41A3FFBE2BFA8D030CE5A5C836EEE16","y"
"RE4PU","R4PUREBD8A1F1B1F6L16CAD3AED9D5360992E","y"
"RE4PU","R4PURF8B843EBC35BI82FPF49C59F097FA49A","y"
"RE4PU","R4PUR7F0D53A6AFADA698D4B83DC9B743E110","y"
"RE4PU","R4PUR918EA5468691TC41A4600C27FC7BB3FB","y"
"RE4PU","R4PURD3A05A3C6899E8D5P5F261BA12E45CE1","y"
"RE4PU","R4PUR28CB4A949426RC1E359E87E9D075B5B8","y"
"RE4PU","R4PUR033EE47D06BCE44FD3782C81FA947C5B","y"
"RE4PU","R4PUR7DF4940E1A11LBC8ACE9BD713BDE5051","y"
"RE4PU","R4PURDC9A7190D1E2EC2F3B0D5784F7547CD2","y"
"RE4PU","R4PUR576A71B0CE4CR840AD8BFFB1EAFF08CF","y"
"RE4PU","R4PURCC63A0B1A541L3B03B7124D3D04337DA","y"
"RE4PU","R4PURF16F80E3001ETAA435A3EC498AE34214","y"
"RE4PU","R4PUR5B4A29778D40R99EP232BAC34191E5B3","y"
"RE4PU","R4PURCCEADE1D42D0RDCE318A3CB640F409AF","y"
"RE4PU","R4PUR201619122E7BA87DP32CCFD9291CF0C2","y"
"RE4PU","R4PUR0C1812ADCA6ALE03P94EC220130FFCEC","y"
"RE4PU","R4PURA5D9B213E8A4L941A7B81E4606B4AEE8","y"
"RE4PU","R4PUR9DE6B5EAFDB6EF45P3A23FD92A0F6C9E","y"
"RE4PU","R4PURFD39A333C8C4I748P401D036CAB6ED91","y"
"RE4PU","R4PUR50D0B6A9FFEALA4DP7CFDB185B2AE275","y"
"RE4PU","R4PUR0C9E96E398E5E8A9P397A2644DEA596F","y"
"RE4PU","R4PUR2806BF4C0FFCTCEFDCF448666A74068F","y"
"RE4PU","R4PUR659498EB42C3IDDBA5FB3925CEC63F16","y"
"RE4PU","R4PUR3770ACB2E7CET1D1A2CEB03CADDFF216","y"
"RE4PU","R4PUR3BD9BF612A39IF5AA17A69A92F78EAA1","y"
"RE4PU","R4PUR85B26C9AD422L337P555A15B51AD6962","y"
"RE4PU","R4PURFB9C40D2FE81IC4BA90CED18A13C4741","y"
"RE4PU","R4PURCCDB6324039FRF3FDB741B7D88AE879A","y"
"RE4PU","R4PURA1A5591DB7B0T05DP2561526D6209B32","y"
"RE4PU","R4PURB1712D322EA9A051302D53BAF382C20C","y"
"RE4PU","R4PUR2D8DA4BFE3CALDEDP7A7722327229FCF","y"
"RE4PU","R4PUR8C1C7C6D83B3R9A5DA4708226563D7F0","y"
"RE4PU","R4PUR33120E85ECC4L933D1D3CA84BB1DC474","y"
"RE4PU","R4PUR1F34168A149CR45FPA3192DC14F48BEF","y"
"RE4PU","R4PURB0B134694A9FI9A6DCE368820FDF29E6","y"
"RE4PU","R4PUR587E45062BB7I36FPD4B556EE71A1CBD","y"
"RE4PU","R4PUR2369500E0262E756DE6C03B8674064F2","y"
"RE4PU","R4PUR0F3D83D271FFE9A4D170DA6DF7894913","y"
"RE4PU","R4PUR546C966E9C79A4EBPD2812C64F9FF6B5","y"
"RE4PU","R4PUR1F77EBA0CEB6R764PCE47B6FA73BA12C","y"
"RE4PU","R4PURFAD0CC03ACD1R76BA791CD35FFBDF2F7","y"
"RE4PU","R4PUR4C76AB3C29A6L93E30185E00F10CE056","y"
"RE4PU","R4PUR31AC56A61C42T896D9F9A7E7A905E4F1","y"
"RE4PU","R4PUR4EFC25F0F364RCD9AC5EAA9D19ED6C66","y"
"RE4PU","R4PUR5483704F98A0LB1BDE058EF8173028B6","y"
"RE4PU","R4PUR9258DCD29EBARA4B3FA70873A064AC38","y"
"RE4PU","R4PUR9A6972E0D701AD5E3547F163D2CEDF60","y"
"RE4PU","R4PUR7A736F6A72FFTD2FA6B82755C12A3A86","y"
"RE4PU","R4PURFAF57E488A71I7663CBD50CF609CCB40","y"
"RE4PU","R4PUR8C9F0F030073TA43DC21593F9FDCF126","y"
"RE4PU","R4PUR05A7CD23D71BR9073B6AB8C78F81B29F","y"
"RE4PU","R4PUR482CEBB82953T94EP2B491F62522BB36","y"
"RE4PU","R4PURC57C5C329403E123P40FE6F46A160AD2","y"
"RE4PU","R4PUREC716C225EBARBEFAF21844818C7F4F1","y"
"RE4PU","R4PUR2EF71E27B332IDAEA0EBCE90C620D925","y"
"RE4PU","R4PUR9905D53B321BE1EBA8E16A5EAF4DCAA8","y"
"RE4PU","R4PUR64FF5631F92ET6A7AED8797D7A3C48AB","y"
"RE4PU","R4PURD4247417DE9DLF9APA2F3AF1E5387ECD","y"
"RE4PU","R4PUR97E55A0F953BA4FB313E21C9511443CC","y"
"RE4PU","R4PUR26D1B62870B5RC02P38587D274B9F651","y"
"RE4PU","R4PUR80BA78EB8BDDT071AA550CFD608461E3","y"
"RE4PU","R4PUR4889CBB0D2F1AE41P994329AC0C1146E","y"
"RE4PU","R4PUR481C5C607392A63BP203AA2AB4BD936F","y"
"RE4PU","R4PUR8315E2FA3E66EE3BA98B8FE9C27A9F79","y"
"RE4PU","R4PUR0E25613C7B33LDE53E6804572A53B22C","y"
"RE4PU","R4PUR3199C77C0689IED43A832654E73877BA","y"
"RE4PU","R4PURB7E28FD6BE74L964P58A08A1EC45508C","y"
"RE4PU","R4PUR80D7EB29E40CR63EDE96537EBE1B0F1B","y"
"RE4PU","R4PURE672344ABF0ER387A44FD857721EC9C5","y"
"RE4PU","R4PUR679208A77F2ER236PCF89153669FA907","y"
"RE4PU","R4PURB27160B41593E250DACE3867138CAB13","y"
"RE4PU","R4PURAD0139CBB4A4E941AB004605A91C5E87","y"
"RE4PU","R4PUR127DD3466B52A9A2PDB6F313C64F81A3","y"
"RE4PU","R4PUR5C97F0201187LBFBPEC161FBDDC36D30","y"
"RE4PU","R4PUR852482928B62TBEDDA198F1C5EAF54E6","y"
"RE4PU","R4PUR59CC4DB0CB07L1F2P5617F1FC7C8839A","y"
"RE4PU","R4PUR0ADF07891E9BTEC3D3B239BD2454E9E9","y"
"RE4PU","R4PUR13610026BED7A9C635C98BA1DFADA37F","y"
"RE4PU","R4PUR23E376B8FF12R10E38B9ABACEAA31420","y"
"RE4PU","R4PUR0921D5EF71FARFC5DBB9591730885DDA","y"
"RE4PU","R4PUR4B3902C9C7CDACB3DC8D639608086A56","y"
"RE4PU","R4PUR4746BC812612L1A1PB92B7096D7AFB1C","y"
"RE4PU","R4PUR8B268B19917AL08BAC69880186A52D39","y"
"RE4PU","R4PUR77CD7D1E53BDE2F4P115F53915622899","y"
"RE4PU","R4PURE2244CB32C46E76D3C4BB829C111910C","y"
"RE4PU","R4PUR9565172B8C7BR4373BB5ACF3D7181E5B","y"
"RE4PU","R4PUR61F1CD7CB073ED92DF0908C41FAF1666","y"
"RE4PU","R4PUR75DE53C72C90T1FAAAEA0F54AA82509F","y"
"RE4PU","R4PURB80BDC48AAB3L91AA49332AD314EFB6D","y"
"RE4PU","R4PURCA7463F30847I9E6DF614936E1C0213D","y"
"RE4PU","R4PUR08EBCC9E38C0I6C8D96FED68100F23D1","y"
"RE4PU","R4PURE085CD5B43ABT983P372D7FA4843F247","y"
"RE4PU","R4PUR745FD07AE008L3F4A40E45F61E19C0E5","y"
"RE4PU","R4PURA314912F878FIBDEPB2EA555CF775E05","y"
"RE4PU","R4PUR5AD7D53832D2I720A9FE190A6AAE3113","y"
"RE4PU","R4PUR49ED390E0222I5C13C256511D51D2721","y"
"RE4PU","R4PUR69EDBBA956E0EC553FB49657DD1AC005","y"
"RE4PU","R4PUR105E93652835A1E2A794EA9FEABC4040","y"
"RE4PU","R4PUR63EFF2125BC4T57E3EF09D20A400C20E","y"
"RE4PU","R4PURECBFD440BB04E6663BDE6506C64D43C1","y"
"RE4PU","R4PUR78BF0C44FD65A94C38833B8787DB7E44","y"
"RE4PU","R4PUR04D8E35D23D2R1AA38F7DE5AE6693B0F","y"
"RE4PU","R4PURC372DD01C2BAR8BCAE72A4F56CDE87E8","y"
"RE4PU","R4PURC34B7DDE94FCI97AD521CBD577CBC7AD","y"
"RE4PU","R4PURE31100BBFB64E21AAEE17B2D74C6EF66","y"
"RE4PU","R4PUR5763339C3A05T06633D51C1010FA176F","y"
"RE4PU","R4PURC7E9FCD03BC3L52CD4546F3845B0D5EF","y"
"RE4PU","R4PURE20D138C0CCDIC2FD6150ED706B93C0B","y"
"RE4PU","R4PURA3D2281CA17EA389P8FBD774430F606E","y"
"RE4PU","R4PURD89B707F8654EF6FA3E31A0595AC3E10","y"
"RE4PU","R4PURF02140CF3B66L7AEP141CAC70EFFCF98","y"
"RE4PU","R4PUR34B0E1FCE2EBA92BP07A00C301289A11","y"
"RE4PU","R4PUR7E2ECA631AE1RE72A35DAB84F17C4186","y"
"RE4PU","R4PUR7A1BC6F6A1A4EACE31AD47A3F7396F42","y"
"RE4PU","R4PUR26A1F3066EEAI427333A50557C90D5AB","y"
"RE4PU","R4PUR760010FD3DB8IF6B3E194263E7F7B55A","y"
"RE4PU","R4PUR9452A93A8B9BA9ABA08A1BC0B9281090","y"
"RE4PU","R4PUR243B3AE21C66LB0E3F062996FA8C9A5F","y"
"RE4PU","R4PUR4A673B228FF1LB4EAE7582A6CC695EA6","y"
"RE4PU","R4PURC1B78BBE1D93L97APF79530FD3754E8B","y"
"RE4PU","R4PURA48F1BCA7DE2T0E9PD3C95CF2599C2CA","y"
"RE4PU","R4PUR72230C57F478E020A77EDDA3D510232F","y"
"RE4PU","R4PUR59662707627FR3EDD748CB54FE00E859","y"
"RE4PU","R4PUR4B1DACFCA7A6R3D9398FA3293BC2F9F8","y"
"RE4PU","R4PURE8782F27E9BAT4593625E8B4B2514F94","y"
"RE4PU","R4PUR2F65261D45BERAF3AE5A651C4345F2F3","y"
"RE4PU","R4PUR542DF9EDC9BFEDA1390C3572AF181B66","y"
"RE4PU","R4PUR91A050F86E4AR64BA34871BE292F851D","y"
"RE4PU","R4PURA0EFDFB9BC6AA8DFD5B7339430A94D00","y"
"RE4PU","R4PUR9C7F96F241D3I7AEP765475A8E760D19","y"
"RE4PU","R4PUR7A04583F027FI439DF7FF0F7228C8311","y"
"RE4PU","R4PUR8F0710E27E7FIC1FA6CFBB7E9FBD6E19","y"
"RE4PU","R4PUR8DFD975803E8R52EP07DDED916F6E09C","y"
"RE4PU","R4PURBE986B9D1751LE3B33C28237B706FAF3","y"
"RE4PU","R4PUR54A477D434C5LF86A86B97450D8B5D89","y"
"RE4PU","R4PURC240573C7977AA0A3167421357463529","y"
"RE4PU","R4PUR3BD737809B13EF93D494E12CAFEC21FF","y"
"RE4PU","R4PUR976F0F7396BDIEA8P7F902C8889AFE39","y"
"RE4PU","R4PUR23A46D3B5E37LFC3A5C70B76ED8B9BC8","y"
"RE4PU","R4PURE932C0A567BDLD75DD25BE414E7DEA55","y"
"RE4PU","R4PUR84CF8EA50AAAA400322B888E96AC30FD","y"
"RE4PU","R4PUR6D67A5A61DBCE623D9A28F1DE43B0145","y"
"RE4PU","R4PUR0AAFDD449852EFDD3517413877D47082","y"
"RE4PU","R4PURE025D388C5F4T29EA182D79553ECEB3A","y"
"RE4PU","R4PURF6883FA810DFTF433B7321FB3CA78FD1","y"
"RE4PU","R4PURE74A62423205ACD6P8372462C36E184B","y"
"RE4PU","R4PUR6E162AF23FACE0F2309F3241E6833CD0","y"
"RE4PU","R4PUR97554249B269R290DEAA99083C70EEDB","y"
"RE4PU","R4PUR1FB0C6739770ED09A49CA599B464DD03","y"
"RE4PU","R4PUR3892FB204142TA4A38B26309648AF69D","y"
"RE4PU","R4PUR8C787616209BA55AP768C0C2C26CB087","y"
"RE4PU","R4PUR19D5BCF7C3A8ICBDD67308B1E4AD7E04","y"
"RE4PU","R4PUR46D38E17A9BBIC52A80F64559B5E4569","y"
"RE4PU","R4PURBFC6DA53E4A6AA193E28596E4F7980BB","y"
"RE4PU","R4PURD8F72FBBC0D3LFF6DB9D2A2390F59C20","y"
"RE4PU","R4PUR00336DA962F6RA18AE1A16D262FA390E","y"
"RE4PU","R4PUR91C438A8E9F6IF24A83910CB17ED52E1","y"
"RE4PU","R4PUR273F795C8232R341A8D75C44B5A01787","y"
"RE4PU","R4PUR76D304FB0379T77AP4642E11CB2EBD1F","y"
"RE4PU","R4PUR2D57505367AFL51B3F08F737B15BE200","y"
"RE4PU","R4PURFDB8158DDC44RB9EPDB5A2997C57049B","y"
"RE4PU","R4PURA22C34731657RDA9A5553DC744D01E74","y"
"RE4PU","R4PUR782C6EDEB9ACL43EDBFABE4F89A152B9","y"
"RE4PU","R4PUR435CEAF53C76L4B7D8EB6D1FF811C7A1","y"
"RE4PU","R4PURBAC8CFA4262AI0DCP4F2CE043CB28153","y"
"RE4PU","R4PUR0C12A1943975E41DP20CB3710968AFA3","y"
"RE4PU","R4PUR5C93AF12870BT852A301D71057DA0902","y"
"RE4PU","R4PURE333358D4914I76AACF559C259AEEA1B","y"
"RE4PU","R4PUR1C4F4A9D6F5ARB583DFEE47267FBDDCE","y"
"RE4PU","R4PUR4798A85BB8A9A623DC644524056FF5FB","y"
"RE4PU","R4PURBD9D7EB8E5AER98AD697FEAC16C14C8D","y"
"RE4PU","R4PUR5E2D6C6E823FR468P40A2BA2454433F7","y"
"RE4PU","R4PUR6742A91EF05BA06FAEA3B5D0E17D4E54","y"
"RE4PU","R4PUR30C173704A53LD25DA59F39A4868ACDE","y"
"RE4PU","R4PURDD4E9BC2EA4ATB35A4D2BCAA8A3771A3","y"
"RE4PU","R4PUR0C11DEC6E2CCAB79D3CA1D66D78D0F93","y"
"RE4PU","R4PURA1E4292199E9T1C7D7DA6DC816A638E2","y"
"RE4PU","R4PURB09A1628E9AAEA11357D0EFF53675A19","y"
"RE4PU","R4PUR12BE2311D1B2ABDEA4FDEE34F4ECCF51","y"
"RE4PU","R4PUR3F3943908D62I181AB057BBD1DEBDEA7","y"
"RE4PU","R4PURF4656DC2EEFFLBA3P1EE007C1150A658","y"
"RE4PU","R4PURC9434EFFF0F2L302PF6339DB0716F2DA","y"
"RE4PU","R4PUR6669EEE0DF05L439D2385A1B6DF501F8","y"
"RE4PU","R4PURFD2774FF5A77TD7DD2769D3EEE93B27B","y"
"RE4PU","R4PURB4CC4F5E5895R1D9D2CA7D191BFEF490","y"
"RE4PU","R4PURB7B82C640EA5A982AB1D0D93E285B72E","y"
"RE4PU","R4PUR78C5E7B03DDAR0F23C0CDE7B9AB44F19","y"
"RE4PU","R4PUR2ACF7B1D2BCBI7C93B61B76F420C7462","y"
"RE4PU","R4PUR33A119E84BF7T690DAB5CE99228F653B","y"
"RE4PU","R4PURD32D5B275973L8E0AE95F07B537690A4","y"
"RE4PU","R4PURC0B90A4DAED6I193A7D4B742CA3512BC","y"
"RE4PU","R4PURDE2C8F884D9DA614P6F772AB6889F193","y"
"RE4PU","R4PUR124DAEBA5490TA17D91B7096D3B8CDA1","y"
"RE4PU","R4PUR1C27262DC06ERB273958B27F8FC9D5BE","y"
"RE4PU","R4PURA46FF08D794BI602A722ACA71CF38D88","y"
"RE4PU","R4PUR197D7B6704B8ED8BA8E3DDC34BB5993F","y"
"RE4PU","R4PUR32C33FAF8C10RFCFA6A2C9545EA27B6F","y"
"RE4PU","R4PUR258E78911F8EL3CBA74868B60E9A4DBB","y"
"RE4PU","R4PUR0B151F80803CEABBP96B0B959339AC56","y"
"RE4PU","R4PUR4C3C9B61A5C8L30935CF6802F7F80520","y"
"RE4PU","R4PUR3249432D1DFFR34EA8AFFF60FE6C8148","y"
"RE4PU","R4PUR71AC3048923FT36B37B6E782B3CAC9B3","y"
"RE4PU","R4PUR870B2F00E853RCD9P23E97A0FBBD262A","y"
"RE4PU","R4PUR9D9069C526EATB66PA5A548C28D6CE36","y"
"RE4PU","R4PURC5B9F50F7886ICFDPBD40F2B84A92983","y"
"RE4PU","R4PUR02BBBD2606BDR4E0A2566E48FA690E43","y"
"RE4PU","R4PURA2C89543E103A464PC96469EE3DE2CD5","y"
"RE4PU","R4PUR86F118AA8608ICC2PBFA8DABABDAD2E6","y"
"RE4PU","R4PUR6AD1DA2582B8I811ABC019A8387F2B4D","y"
"RE4PU","R4PURAF92C7DBF232T31FP101B8000AF0B544","y"
"RE4PU","R4PUR328B93F1B9F6R984A8901CC2F003C135","y"
"RE4PU","R4PUR7299F5D6E1D5L085A9C8F80943F300AD","y"
"RE4PU","R4PURAB922FE63AA1EEE7D0F25342AE254141","y"
"RE4PU","R4PUR33A97103C755E6B3D496AE664F06A563","y"
"RE4PU","R4PUR1319A8B47ADFE7BAA0ACACAE3EF72CA0","y"
"RE4PU","R4PUR2EBD14C0EFA5TA32DF45BE0172A39E38","y"
"RE4PU","R4PUR15F7522FF33DAB96A1F071534777E527","y"
"RE4PU","R4PUR6F748848D8E2L91BPC555AF238AB5A80","y"
"RE4PU","R4PURB39D1AA6CB88RBFADF698AB1E3B8D2CC","y"
"RE4PU","R4PUREA313FFAB9F3T70FA8DB79EF9AC1F8EF","y"
"RE4PU","R4PUR679425A5158DL57CDE3A94600E21581A","y"
"RE4PU","R4PUR5DA58A171CA7E233A9976F4B841B4F38","y"
"RE4PU","R4PURA4B5D1D90FD9R923A552C73D788C5B77","y"
"RE4PU","R4PUR5433A0B962A0E9ECPCDE1EA9C4C6F662","y"
"RE4PU","R4PUR0F7343A97B86LC15P8DA20A857504D05","y"
"RE4PU","R4PUR129F049AB591LF6DPB3A24D2954B34E9","y"
"RE4PU","R4PUR17BA6E072B22A507336EEB42AEF7689B","y"
"RE4PU","R4PURD831B5A91F2EL4103C98465AC45ED9B9","y"
"RE4PU","R4PUR6E069883EE0BLC33P3E1FB5B7BE2BD7A","y"
"RE4PU","R4PUR5D434B9A95DCL5683717E56513FBB500","y"
"RE4PU","R4PURDF02318A6B54EDE2P6D45FBB2B6EC473","y"
"RE4PU","R4PUR1FA540B3A2FDE327A52B1288C5AEC571","y"
"RE4PU","R4PURFF886738706BI74BP5F6732DA1122A5A","y"
"RE4PU","R4PURA8FDCACB3F3BT725A16E4E99DC9499C5","y"
"RE4PU","R4PUR79E8BB84F408IDA6330428914A71E476","y"
"RE4PU","R4PUR5F723D367504A90BA7650CF9DBB0CECC","y"
"RE4PU","R4PUR2BB7418429A3TEE9AD433E5214E37E18","y"
"RE4PU","R4PUR857D80785DB6A12E342159E8297E7B18","y"
"RE4PU","R4PUR39D892B0046FREAC399FD681259DABBF","y"
"RE4PU","R4PURB4B3DA81EFE1I329D56BC080960058E8","y"
"RE4PU","R4PURCA28BF93E9DAEB96D215122B3F8C70E9","y"
"RE4PU","R4PUR89A0F528AB35R3F4DE83276B8585F764","y"
"RE4PU","R4PUR2CC95F007CF1I13ED5081416C3C3523A","y"
"RE4PU","R4PUR67761DCCAAACE5CFP97CE51FA457E48B","y"
"RE4PU","R4PURA4B742A24691I5E03A4FB33ED3EE30D9","y"
"RE4PU","R4PUR9FF579A68999T79BD62D12999C65DA4F","y"
"RE4PU","R4PUR82F94A7A200BED153B659BAB6A170B8C","y"
"RE4PU","R4PURD11BD082318EE1F5D3BF55D3807ABD0D","y"
"RE4PU","R4PUR455BC53FDD03E6D6A616F8F4A0465A9E","y"
"RE4PU","R4PUR105FAE58BA24R26C36034F5103C11B89","y"
"RE4PU","R4PUR26B5B7326260A50930D70F943C933013","y"
"RE4PU","R4PUR9A7B70D744DFRA07A371DFDA8BE5B67E","y"
"RE4PU","R4PUR045F6EC067DFI40EDD22D088457747D0","y"
"RE4PU","R4PUR05948D329A85T8A5P60D0260CF133036","y"
"RE4PU","R4PUR4F6DC88587FEL093P687584DDC5A3828","y"
"RE4PU","R4PURDD050DCCB984TF58D69180C0DC5D7B51","y"
"RE4PU","R4PUR969CB4C9E5E8R659P694A862BE63C223","y"
"RE4PU","R4PURF3F89E11EB37LCABP9376CA03D1712CD","y"
"RE4PU","R4PUR647F291F3432A7EFDE5BF513B59B0670","y"
"RE4PU","R4PUR486081D699CFR746PCE7C618A508AACD","y"
"RE4PU","R4PURD8E26F5E9A05IBA6A07BD5E55FF10D76","y"
"RE4PU","R4PURA1FFBC1B3FC8I97134D2928993FAD575","y"
"RE4PU","R4PUR2115E2BA2A89EBE6P6D0B1FA1A5F1631","y"
"RE4PU","R4PUR3778FAE0DE55L9E034ED6F1BEDDE0315","y"
"RE4PU","R4PUR5E1AD571DA32TCE3D65F98F10A2F1F6E","y"
"RE4PU","R4PUR1D5A7C4E4675LB84DFC4E7D92B6F3A91","y"
"RE4PU","R4PURF27B5F445028RB883123768D025A0052","y"
"RE4PU","R4PUR2F47FDC2ADC6E446AB83D53E6A938EC7","y"
"RE4PU","R4PUR8CA926D94675EDCAPB7369E9CEFAB385","y"
"RE4PU","R4PUR8A7D9D41C54EA7F43081A1F8AA37D9E3","y"
"RE4PU","R4PUR28870A3F5CACL143AF6F7A48365C976A","y"
"RE4PU","R4PUR9838B3DDBC8EA891DD591A8075E70DE8","y"
"RE4PU","R4PURF0B2FDBF1FB2A51D324A72B48E7F885F","y"
"RE4PU","R4PUR02CBEC3A736BEFBAD792B7B7F9DB86CD","y"
"RE4PU","R4PUR49A43E55677ETBB43029E0276516CC29","y"
"RE4PU","R4PURDF0F4B83B943RECFDAC3325B6EDB247B","y"
"RE4PU","R4PUR73981D8C8573E656AD53DD56781E24B1","y"
"RE4PU","R4PUR9809D9E8997DT1A4D39C16AD76FD0C99","y"
"RE4PU","R4PUR5FB3358FB8B8I6B5P5F43D77F4A5CE4B","y"
"RE4PU","R4PURB5062E48C675T02FPFE52DB210E26F99","y"
"RE4PU","R4PUR26DDDD38C901LD3CD1272198010C1ED5","y"
"RE4PU","R4PUREA19622480ADTE79A904E48AC8E3DA56","y"
"RE4PU","R4PUR5AE29D8A1953E959P443561B0E8759AF","y"
"RE4PU","R4PUR6358B503F892T181A1FAD976CA194869","y"
"RE4PU","R4PUR8C2E8B7DE214I405A10CD0CD06347A48","y"
"RE4PU","R4PUR1030283B6C0EA824P702B52096807527","y"
"RE4PU","R4PURAC3DB3926925A49835701841694962B6","y"
"RE4PU","R4PUR8B608910925CL82F33C46FDD9B5FFC5C","y"
"RE4PU","R4PURC0E6457EED8DA57D389EB91F28EE5735","y"
"RE4PU","R4PUR5AB2B2EFE616AE9CD0A052C1B1BE3C58","y"
"RE4PU","R4PUR22A8E00806E2TD85P1D8A33F33378256","y"
"RE4PU","R4PUR8BA20F40E969TAC3A47E53C462B413E5","y"
"RE4PU","R4PUR536EDFC6AB5CI28E34DBB1BB37A87211","y"
"RE4PU","R4PUR4DF0DD707211T369P9CBA484A4B5A831","y"
"RE4PU","R4PUR5E8B93E21C11RBE7P38AD3BDD8ECAD9A","y"
"RE4PU","R4PURD2BDC40D1246ECE6P10A21E996BF95AB","y"
"RE4PU","R4PUR065B602CAE8BA723D462124341280021","y"
"RE4PU","R4PUR5AF46A84EDB3R9DBDB70C763E2BB08E6","y"
"RE4PU","R4PUR7D6AB728BEE5EFA0DC89034AE85A4F45","y"
"RE4PU","R4PURFBFF2E079299EA36AC5EB0E7BF577DB7","y"
"RE4PU","R4PUR5215AEB9A9DDA9F8311EECC5CE84BC4E","y"
"RE4PU","R4PURD2C48A302046E84BPB3F142F7585703A","y"
"RE4PU","R4PURCF2F984D5ECAE154A7C324E435439424","y"
"RE4PU","R4PURCFBF3E03F8BCE3C6PB851AE93729EFEB","y"
"RE4PU","R4PUR25CB9D7ED657I4DEP2C08DFC2B1DB34E","y"
"RE4PU","R4PUR554E9D897954E2DA321331AD3E1860F6","y"
"RE4PU","R4PUR8C9BDD915331E25032D65232189EA505","y"
"RE4PU","R4PUR9EE7229F65D2T14FP38300D596557638","y"
"RE4PU","R4PUR7C98678CF28ARB4AP3215F95E66E9BEC","y"
"RE4PU","R4PURFE72AAD508FDA830PE9E9ED6D1B045FE","y"
"RE4PU","R4PUR4DFBBDE5083AT295A8194E6943A5A57A","y"
"RE4PU","R4PUR122C9A9F0304A229D0896F6CD58D74A9","y"
"RE4PU","R4PUR59B15299BD06EF6EPCE8EC54DC638E1A","y"
"RE4PU","R4PURFF0EA1B14324T39AD20BDBB5E835619D","y"
"RE4PU","R4PUR3331A6A3C5BEI0C13848B0CDACE69E96","y"
"RE4PU","R4PUR53066E3801FBIF31P3F36F7E3EF38211","y"
"RE4PU","R4PUR12027900E037A0C13DA37BEBDB8DC5EC","y"
"RE4PU","R4PUR2446D969217FI8733D01D74A08D6AFD3","y"
"RE4PU","R4PUR4ED6E82CA185A806DE19DEF04979B945","y"
"RE4PU","R4PUR17E757368C25E621A91B2B7988EFBDBE","y"
"RE4PU","R4PUR934076C0AFB7RC7B31ADE70C7D4C067A","y"
"RE4PU","R4PUR589A07D7D6E3A5493E4F745D308A9330","y"
"RE4PU","R4PUR31C4BDB1B17BA3A6PAC512040C78B528","y"
"RE4PU","R4PURB36440D78B08T0BEP630C2CF38BA1846","y"
"RE4PU","R4PUR4B2F29AFD8E1L8B63CC5A4F5FE0A572B","y"
"RE4PU","R4PUR3472EFF519A8IB5FD9348F53D761CBA2","y"
"RE4PU","R4PURCC5DB7D36CD1AD76P3676A0B48BB78A0","y"
"RE4PU","R4PUR8C1D8FEA7351LBA7D89C4F5C0060D263","y"
"RE4PU","R4PURF240ACBCF232L727DB8CB7A0DB3C88CC","y"
"RE4PU","R4PUR44C7EC819DA9EABB3819575629CE45AE","y"
"RE4PU","R4PURE5FB5698A761TD4BDCB9F7BEEA3CD6C3","y"
"RE4PU","R4PUR078D03740BD4I19CAD2515DBAA6EF846","y"
"RE4PU","R4PUR4BA5C2F6E94FR5E9P4BE331F6EA2E477","y"
"RE4PU","R4PUR66CBF5FEB272I6F2PBFA794F3D2D09CC","y"
"RE4PU","R4PUR9D410FFA5BB3I5B4AA841E0EDD8E7430","y"
"RE4PU","R4PUR41BAD5F4336FT5F3DBBAB7345B396519","y"
"RE4PU","R4PURA00E35456940TDD6D109052B30E84DA1","y"
"RE4PU","R4PUR80BF04348545A4EB313945FCD6DE058C","y"
"RE4PU","R4PUR419AC820BDF6L7F0DAF1899FEE379F01","y"
"RE4PU","R4PURA79F72B3F35CE0F43B89F3087CFE0BE8","y"
"RE4PU","R4PURCD259124C89EE164A6F3D32181E0E709","y"
"RE4PU","R4PUR88E63D0A34FDA3B432042DA9C849CBC1","y"
"RE4PU","R4PUR350D72745CA3IF1DA53122938A1AAC2A","y"
"RE4PU","R4PUR0FE64A1087CFA4123DC92A1458017D64","y"
"RE4PU","R4PUR85D7B9BE4553A5E63C2B1C47BEFA803D","y"
"RE4PU","R4PUR4EE2246CAD5EA99F3BD66BEC8BF396B1","y"
"RE4PU","R4PUR197915701C73L52CAB5BD6D10F06A0CC","y"
"RE4PU","R4PURD487F3F87809L9F8D8970CE81558A4BD","y"
"RE4PU","R4PUR8A60787593F0IA13ACB79490E9454778","y"
"RE4PU","R4PURB8BEC9035783E733ACC6D545BE42BF9A","y"
"RE4PU","R4PUR39BCD27EB392I180D26396B02A8512BF","y"
"RE4PU","R4PUR810113AEC13DIB0CP719621DD2DA7E86","y"
"RE4PU","R4PURFE098562B9B2LF313E26111D8634AF69","y"
"RE4PU","R4PURD3E4EA359736RA4F333FECE22B946F7A","y"
"RE4PU","R4PUR33675FCF3656E4A9D6DBB631A66BD826","y"
"RE4PU","R4PURC3A13E7DF4D7EBAEAE5D09430F2D7E6D","y"
"RE4PU","R4PUR4BC31FAAE7A4AA83PA8D4E9666F76B30","y"
"RE4PU","R4PURED232C87496BE46D35A0742825397F41","y"
"RE4PU","R4PURAA41A4CD8510E1D6D04317D370683D91","y"
"RE4PU","R4PUR5A3A253F5FF2AFA33BD8970BE74A59E7","y"
"RE4PU","R4PURC2772283463EA1E5A0E27497B0AF8CAF","y"
"RE4PU","R4PUR7A3ECAC28510LE13A834B602E7F67D51","y"
"RE4PU","R4PURC9535ADC797ALBE5D74D30870AD95A4F","y"
"RE4PU","R4PUR8C8658CDDBA7E754321F00527A72B459","y"
"RE4PU","R4PUR46F1B8D45698T2CCA9F0B3C9A66C920A","y"
"RE4PU","R4PUR79A2BE8C9F4ETB09DEF394430E8526C3","y"
"RE4PU","R4PUR27A303A6F0CDI542DE3EF6AD1B814C3E","y"
"RE4PU","R4PUR587B3D215C36E5B9D000399B19D76D1E","y"
"RE4PU","R4PUR238B7E0EABBDLE0BD8D9B5BBEFE27DC6","y"
"RE4PU","R4PUR0F52EF020AF3E423A83EAB3C5709DEB7","y"
"RE4PU","R4PUR4EA4F2413F80L487326BF61D4F6F4622","y"
"RE4PU","R4PURB37CC2F44E68T017D20CA90233B9B9A4","y"
"RE4PU","R4PURAAF6570E0FB5T255PCD7D9E72BA2488C","y"
"RE4PU","R4PURAFA5D12154F8A1CCAE08848B63422AA1","y"
"RE4PU","R4PURBCEFAA410C92T434A1F6C67F855FDC32","y"
"RE4PU","R4PUR72E3754BBAD3EEB1PEF24DFE4F323C74","y"
"RE4PU","R4PUR5A542172BEC8T9553944EB781B104629","y"
"RE4PU","R4PURA06919843AE8T8CA3238E907F9D50455","y"
"RE4PU","R4PURE0CD0005F0E5IDCDAF95E2782B4D1BFA","y"
"RE4PU","R4PUR263FD8DCBDF5A0B1A13FB67CF97D3618","y"
"RE4PU","R4PURB91BACEED9DFA8DCA066F3760FDF29DD","y"
"RE4PU","R4PURDF69E89AFE03A95F3BD4A2EFBE1419AA","y"
"RE4PU","R4PUR74728830C39DL5763B6CECC234D9F4A6","y"
"RE4PU","R4PURD679CC6B9C39RA97A63EE476CACD2899","y"
"RE4PU","R4PURA98272F3FD4CE65CD9897CBBB2F79F3B","y"
"RE4PU","R4PURCDCFD456AE57RE10P7109548FC95DED1","y"
"RE4PU","R4PUR9B2503754396AD80DF662574F0E25628","y"
"RE4PU","R4PUR2413A6DE4125ID8EP64BB70D942EB183","y"
"RE4PU","R4PUR8B42F0C652F1AE29D645ECE8D52058BF","y"
"RE4PU","R4PURE739BC384AAELD39D77F8B1D3D80461A","y"
"RE4PU","R4PURA384CDB9A485EAF9P1882B076EF9B5B1","y"
"RE4PU","R4PUR33DD48BD286DRAB53830CABD78E35A1E","y"
"RE4PU","R4PURFF61BA0E7D72T1A7D40BD089F968AC89","y"
"RE4PU","R4PUR2771E38BCF88LB6D3EBF93166E3E7881","y"
"RE4PU","R4PURF8F68C9B7417E659DDF1BE44A6FD7B27","y"
"RE4PU","R4PURA161FE0BD49CR66CD05A77DBC92450B2","y"
"RE4PU","R4PUR992A4C2E73B6L8EF3A8B0B72F4E31835","y"
"RE4PU","R4PUR7724FCB2F4AFLA17A359800B1DCFCAE4","y"
"RE4PU","R4PUR888476C5249FED8B3A163DDD441D7922","y"
"RE4PU","R4PUR882D53DB9960EF28PF9C71248ED6E3F6","y"
"RE4PU","R4PURB34CA60C8A72T227P586C711D2AA5064","y"
"RE4PU","R4PURBEBB61D5FBC0E6AF383E05ECF70C453B","y"
"RE4PU","R4PUR21465197729EA800DAA4D08C3CFE47A8","y"
"RE4PU","R4PUR6D5FEEA2AD07T144A28C1222712995E0","y"
"RE4PU","R4PURF712A8AF25EDLB4335EFCF855591F270","y"
"RE4PU","R4PUR07ABB23F0C2EE00333E4C6561BDEE835","y"
"RE4PU","R4PURE4647BB9758FR5E1DB12573633DA1001","y"
"RE4PU","R4PURA3681235E16DIC86P86C8E433CDFABC3","y"
"RE4PU","R4PURB19B9D5E8CC4E4B8D789B788C83D38BD","y"
"RE4PU","R4PUREA93AEA310C1EEBADC0750A8B200A62F","y"
"RE4PU","R4PUR0C2BF9075A97T6053E88DA5ED06B3542","y"
"RE4PU","R4PUR22AFEC0EC01AE804AB7AE871FAF2460B","y"
"RE4PU","R4PURA9EAC15C2200LFD1PA1334D0D7768B1D","y"
"RE4PU","R4PUR960C4441C26AL9BEPB0EBE670FD38642","y"
"RE4PU","R4PURB716BAD5A6C3TD05A52BF9907C8E6226","y"
"RE4PU","R4PURE444A185D40DIC96ADC06E3D8DEBDCAB","y"
"RE4PU","R4PUR44BA77787E75IB29D43E16B2EC8D5DD4","y"
"RE4PU","R4PUR8337B7AF1F1ALB40D416EA12A7919BCB","y"
"RE4PU","R4PURE04AB47B1247A8F7P3C7B0AAFB691857","y"
"RE4PU","R4PURD5FD97614366I333354DB974B261C46A","y"
"RE4PU","R4PUR7FC08EEDC6C9R5213E3F732C251CB17A","y"
"RE4PU","R4PUR2AF0107F12B3AD87PC20E6BADC41A5B9","y"
"RE4PU","R4PURC59ED38F64C2E1B9PDD5827DA65754C9","y"
"RE4PU","R4PUR46FDEB7C719BI839D668EB0A12002AEC","y"
"RE4PU","R4PURA8F9A7B8460BTFD5D036B965FDB4D74B","y"
"RE4PU","R4PURFEF0898CA4E7A8C030C26937C8D47A57","y"
"RE4PU","R4PURB4A882751B75ADC6PF87D9DA18194F5D","y"
"RE4PU","R4PUR338018245793E63DP0D23B9FE51D5207","y"
"RE4PU","R4PURAA591EE29E2CA233P4EA1097FA7E3FF1","y"
"RE4PU","R4PURFCAA6EDDFD5DT84FDE78378C9F71B727","y"
"RE4PU","R4PUR7CB70E67A94DI85FAEECE9AE59501B61","y"
"RE4PU","R4PUR60BD47A297AAT9F2P7711116D5425E71","y"
"RE4PU","R4PUR1BF664527D6AR4FCP639E8634C2E3D4C","y"
"RE4PU","R4PUR88C4A83A78A0L3E9D1751DE8DA911330","y"
"RE4PU","R4PUR0357FDDC2683I61337145114E8394BB7","y"
"RE4PU","R4PUR295DA07E979FIB9FD51C5D9AE9D29382","y"
"RE4PU","R4PURD1E23AC03A6EI900AB8006905C860058","y"
"RE4PU","R4PURACFF8D50E1EEA516383BE140F7DD1EB8","y"
"RE4PU","R4PURC2E8AC76DDC4RC6CA56F6310F288F174","y"
"RE4PU","R4PURA542765F3EBBLF9FP57B3C0C682FD9F8","y"
"RE4PU","R4PURCF3BA62BA737A9AC3A5085CF11FE6987","y"
"RE4PU","R4PUR3D42E0E21FA2LB74D6EF24B7909D421F","y"
"RE4PU","R4PUR27E33C986B74A6BAA5182E2868BC1ABE","y"
"RE4PU","R4PUR17A305E388A7I26BA6C00AD234981016","y"
"RE4PU","R4PUR6D9BD7A841D3TE44DCE8F23F3BCF9BD3","y"
"RE4PU","R4PUR5C2323856009ECBAP4F5E17A8E6584F3","y"
"RE4PU","R4PUR6124F0D0FB2AL840DE2D7A3C812376F0","y"
"RE4PU","R4PURFBCBE0FABFDEA05132EA8D56436CF1F0","y"
"RE4PU","R4PURBE947403049DIE42341B66C71FA6AF2A","y"
"RE4PU","R4PUR89376CB3B150L299DD3CF10BE812D51D","y"
"RE4PU","R4PUR4C4C426439F9AEFCDB85AF2B2968B178","y"
"RE4PU","R4PUR1D858394E89DE3ADAA835C6158973E61","y"
"RE4PU","R4PUR56E8F6CCBAD7LD7F3B019E4C2799345D","y"
"RE4PU","R4PUR3AFA665E5E8AE474AE493908BFB6DB15","y"
"RE4PU","R4PUR8E6B69D7BCD3A4F1PA1CADC18E060C95","y"
"RE4PU","R4PURF1FBA7390FF9I86CAB429A0B5954DEC0","y"
"RE4PU","R4PUR15B20B0C160DR117PA5402F45F598640","y"
"RE4PU","R4PUR3F6774514DA1A8ACD553F0703D5B0FBD","y"
"RE4PU","R4PUR4E54C2DE74D7R1733FFD4241C3CFD260","y"
"RE4PU","R4PURACAF7FFF8FD1EC3134F5664B34497477","y"
"RE4PU","R4PUR2566E281644FA854A5C37157EAD949F0","y"
"RE4PU","R4PUR5C907ED98929T71DPF72C1979F2ED06B","y"
"RE4PU","R4PUR7A3DFFCABDA9LE0E301F793E2AF24BFB","y"
"RE4PU","R4PUR968530DE9A9FR905A3B522CE49164B7D","y"
"RE4PU","R4PUR7E74EA7812F1I8FEP2E379DDDCBC75B3","y"
"RE4PU","R4PURD869ACD9C828AB363BBC428BCE013769","y"
"RE4PU","R4PUR02DFF087EC7DE0FAP352D67C6290B0DA","y"
"RE4PU","R4PURC5E80049FD16E6D33757276301C45407","y"
"RE4PU","R4PUR1801ED9F52A9R37DPBD1925961BBBA20","y"
"RE4PU","R4PUR49E0AAEE0819R926D40ADE876076DE4A","y"
"RE4PU","R4PURAA6F69F9D6B3R0D0AC403CF273A66149","y"
"RE4PU","R4PUR6689ACE3CA0DT3E8366EABF757F1D9F9","y"
"RE4PU","R4PURBC75BA53C870A31FAA5144143E408C16","y"
"RE4PU","R4PUR4B27818AB428A21FD2F88A26BA855625","y"
"RE4PU","R4PUR4205805AD8E6TD43DB4EB2F551519349","y"
"RE4PU","R4PUR8F3E83A19458AB9FD46568ECBC5FFFD0","y"
"RE4PU","R4PUR6FD43AFC96DDL9BBD80803229BD2385F","y"
"RE4PU","R4PURDB896D277586L3B8AEE5F3386B9130F9","y"
"RE4PU","R4PUR0408F764DA1CA0733AB764DBB9049F64","y"
"RE4PU","R4PURD9F17BDF3ADAR9C0D657BD67EA296867","y"
"RE4PU","R4PURD35C0225247AIC28DC3857601367E2C1","y"
"RE4PU","R4PURA8BD84B714B4RC3DA4A4384FEAD9F2D4","y"
"RE4PU","R4PUR3A084028DAE9LF83AF484B5E954D38C6","y"
"RE4PU","R4PURA5BD6EE0BBD1AF2FP31285CF648A6AD9","y"
"RE4PU","R4PURFFA1090E8D09I5E0A20F3CD3A1988B3B","y"
"RE4PU","R4PURCB9DD569DA55R6DCAEA71010F3223DE7","y"
"RE4PU","R4PUREF683A866A42IC85AEEEF3B986F18993","y"
"RE4PU","R4PUR1C713296AEA3RBCFPA2C7024E7E551CF","y"
"RE4PU","R4PURF93C097A3585TB93A13B6F245332A611","y"
"RE4PU","R4PURBD2B3DF47AA4A7F6ABE2F638EFC91A8F","y"
"RE4PU","R4PUR9A425D2E1AFCE306D50B0E21B69EDCD9","y"
"RE4PU","R4PURABD4379599B6A530D0FA94B557ED0CF2","y"
"RE4PU","R4PUR7749D6045EF9ED94ACE064B82DC5D6CA","y"
"RE4PU","R4PUR342FECDB828DTD1F325C69F51A34DBF1","y"
"RE4PU","R4PURA9494ACC3B18A5AEA99BC6C3BD57CF5E","y"
"RE4PU","R4PUR04D0E5DE4FA8TADCD4D4BF470D6F9386","y"
"RE4PU","R4PUR4B31570BF489AAC3P7CAC11C22A4DA31","y"
"RE4PU","R4PUR5F24D7E6BEA7T19CDE681AF382F985BD","y"
"RE4PU","R4PUR874496E86331I3F1D1C987A60C638159","y"
"RE4PU","R4PUR8BA75ADBDC8ET3BAP52283D26EFA7A79","y"
"RE4PU","R4PUR02B421533725A317P25A0E4172D55008","y"
"RE4PU","R4PUR4B5CFD804EAEL4463BCBCFD5F8F597E5","y"
"RE4PU","R4PURE8DDE48DB2C2E2BFD6927D13517C1F30","y"
"RE4PU","R4PUR915126B8259FRD02DB7ECA70C117343D","y"
"RE4PU","R4PURA708A14D5923I592DE4125AD0F6DF58C","y"
"RE4PU","R4PUR1EA3A067CF14A73DD08D3088FBF1085D","y"
"RE4PU","R4PURECBD584B9345I7DAD6CC366B0CF24BA7","y"
"RE4PU","R4PURA6E93E98DC02RBC9A6A0CDEA5BE84E1D","y"
"RE4PU","R4PUR32EA55B5D35FE5A2PAE327AC48583721","y"
"RE4PU","R4PURCC001D3CBE1AI0AF3F3A703F15221407","y"
"RE4PU","R4PUR2A3657587BA7RD17P16FAC4F14F11C12","y"
"RE4PU","R4PUR22A7EEFCBC43TE2CA541DFA3F4BDE41F","y"
"RE4PU","R4PUR0E82CBEC6E73EC1CA7BC60B6CB75DD86","y"
"RE4PU","R4PURC083B12398DAE6F2A7770F7C2C97D44E","y"
"RE4PU","R4PURECF3C331008ATFA4PE4CA4A641E976E3","y"
"RE4PU","R4PURFA547DE39B8BA9E2A3D5A11A45895DB6","y"
"RE4PU","R4PURF4418D33D608ICA6AC96D23F4382CAF0","y"
"RE4PU","R4PUR146BFAC198F8I45C3EA63DC25C69A38A","y"
"RE4PU","R4PURC022030EF42BR024DB6798FF3D9D7921","y"
"RE4PU","R4PUR41A4E75D642AL922A3D4DEC6FED9AAE7","y"
"RE4PU","R4PUREB98357B9535T4EC3E0BCCE8A5259E7A","y"
"RE4PU","R4PURD776B448D2DDI52837B53C587B2552C5","y"
"RE4PU","R4PUR3C51D9381C9CT4B4DDC79674B71F9E4C","y"
"RE4PU","R4PUR63E764D696AAR7C4398A9954ECB00CA2","y"
"RE4PU","R4PUR8C86735CC3E9A90036E12283BFC9C97C","y"
"RE4PU","R4PURE3860C093CCFT0E1D14306EBE3F50EB5","y"
"RE4PU","R4PURE300D932552BL31CP4EBBDFC53BB8220","y"
"RE4PU","R4PUR1D189EE558EAT13934B0C77E3BEDBE24","y"
"RE4PU","R4PURDF23EEE0DD87L2ED3FCD6F5918E6A91F","y"
"RE4PU","R4PUR6F012DB72FECE058A59F3A990CEBEA51","y"
"RE4PU","R4PURBB7CE3E54DACTBBEA4BDB076F03859E7","y"
"RE4PU","R4PUR7A03F7318C4DT436DC2B39E894412037","y"
"RE4PU","R4PURF5B849426D02E24835A129EFC03EAE80","y"
"RE4PU","R4PURF53888903825T85ED5C913A9AC698B23","y"
"RE4PU","R4PUR92D22874E92FAB75AF0ABA42B3678086","y"
"RE4PU","R4PUR1B1CB9A43AB1A6FB3EB34B3F9B22E4C1","y"
"RE4PU","R4PURDDCC5D55476FTF97A9242826887CC75D","y"
"RE4PU","R4PUR32C3C477D327T35E345FD4791E636CC4","y"
"RE4PU","R4PUR9637684AD58AAED9DD0C2E470DD98B97","y"
"RE4PU","R4PURD94569EDCD68L113PC526B77CA63709C","y"
"RE4PU","R4PUR2003E57C85F6A4E6355278B9612E04AC","y"
"RE4PU","R4PUREA94526606ADI6EE3A43CE62BA883619","y"
"RE4PU","R4PUR2C9B84225336R6653AB0C4B56A76D1A5","y"
"RE4PU","R4PUR8C19E2D353F7I246P608684EA8337A96","y"
"RE4PU","R4PURDF535CA18F65LF4DP5CD9E8BA9E259C4","y"
"RE4PU","R4PURB6B99DFB5AF0RF4DAC787B4055A60C4F","y"
"RE4PU","R4PUR31C5FD02DAF7E3CBP5A307AB8C6AF8E0","y"
"RE4PU","R4PUR636CAEBFB6D1L67DD4FE29289B23D7C5","y"
"RE4PU","R4PURBF4800806F68RC44D68B8E3005984E10","y"
"RE4PU","R4PUR8514A845FC5AE4D93DEF35CD556D3303","y"
"RE4PU","R4PURF4DB8D990325TFCCD65DC945919BF657","y"
"RE4PU","R4PURDE8F4F203E7AA90BP549CAF6611C0D6A","y"
"RE4PU","R4PUR88E1E42F50E7LC4CDFC6A9F62B149269","y"
"RE4PU","R4PUR4E8D7A072852AEE6P68E78DA00799A0E","y"
"RE4PU","R4PURBFE7FE5E4D8ETF5A3F871945A9082756","y"
"RE4PU","R4PUR96485EB1484EL700D161082A665C9785","y"
"RE4PU","R4PURB738AB172510EAB2P194BE65BBB09303","y"
"RE4PU","R4PUR817080D696E2L851AC61475D2A8A6BC2","y"
"RE4PU","R4PURAEC891E6A230R461PA69C4F005FB1C4D","y"
"RE4PU","R4PUR2B2EECCBC3D4IDAFAF95CA96A03B862A","y"
"RE4PU","R4PUR4C2D5AB2EFEBEFFDAF88AFD04B5F4D05","y"
"RE4PU","R4PUR8F8E07A932DBR137PAF1CAF5508E4CC0","y"
"RE4PU","R4PUR215E6625D2EDRAA2AC294E297FFC05DA","y"
"RE4PU","R4PURA92452B15347EBC7D57822214753341B","y"
"RE4PU","R4PUR8D46C65162A5A78E30334BA3B640B600","y"
"RE4PU","R4PUR52F21CF641FBI2D6D5531E660F0254B3","y"
"RE4PU","R4PURB60F107EAD8BRD83D2D48E35FCD8B93D","y"
"RE4PU","R4PUR20AB8C0C5CE5R6F9P8CE28CB51BDDA3D","y"
"RE4PU","R4PURA1478873BC0CL730D7C01D902E0FDBD6","y"
"RE4PU","R4PURD6924476ECD4E11BP71D63EAA9E33983","y"
"RE4PU","R4PURB14040235057ICAFA156FD45813FCF7D","y"
"RE4PU","R4PUR0A727A9B78FCT112363C5047FF4CA46C","y"
"RE4PU","R4PUR4B7A69DE4EB4TDB5A0A83022CF8519E6","y"
"RE4PU","R4PUR01BC24C4D9AAE33C30FD7F8270EC9CAF","y"
"RE4PU","R4PURED914ED86934TA64P70D5F16A1DC841B","y"
"RE4PU","R4PUR39C50C208ED8I615A112D0A1F41AD62A","y"
"RE4PU","R4PURC7F141205F31REE338D23806073AAD5F","y"
"RE4PU","R4PUR07D86372BF05TF0ED708A3337DD93F21","y"
"RE4PU","R4PUR4A95350F23BAE854P446EA4499C6033C","y"
"RE4PU","R4PURFDEBF8CED588I947PAA5A5F1F4DBC97B","y"
"RE4PU","R4PUR5A59B3960079LF70D73B4D822F1F9599","y"
"RE4PU","R4PUR65FA59CA6F46RC08DB565FD7967A1D35","y"
"RE4PU","R4PUR84C0A80AF41DA87CP72E89FFC9A045D0","y"
"RE4PU","R4PUR0D8F2FCCE232ICA4PAF0A049AAD8A7C9","y"
"RE4PU","R4PUR97F6D89D1A0BAFC0D3B8E6533A5FF08F","y"
"RE4PU","R4PUR4FB295BB1230R970DCC6A967ECA2F2AF","y"
"RE4PU","R4PURC3354C1E6841I3D4361E3FC1812BBECE","y"
"RE4PU","R4PUR07DAC7876807A03F330DFE474EEC42AE","y"
"RE4PU","R4PURB219CFC3F4A8LA16P184C45EB4540AE7","y"
"RE4PU","R4PUR2E60DC37DD95A801A4F861375004B3D0","y"
"RE4PU","R4PUR4DDB61F10EAAIC3D3C4E6B0A7052B9B3","y"
"RE4PU","R4PURC721589B6253A8073A37ECF4BF3CEB27","y"
"RE4PU","R4PUR22C69EC1BA3CAEBCDA5757CBE4E1EE19","y"
"RE4PU","R4PURFE95247000C0T05AAC77A52A7C6DA6A0","y"
"RE4PU","R4PURF465BEC2E1F5E76BPAFE3E7B2EC71EC7","y"
"RE4PU","R4PUR0A12FA70C362E55EA0B244DF21EEEB92","y"
"RE4PU","R4PURB2FEEF25CDE2L50DDDC2A063522F7395","y"
"RE4PU","R4PURAD9E57206EB3R1FCP301172F329C4661","y"
"RE4PU","R4PUR0E1E529595D7E445329FE756981DFDC1","y"
"RE4PU","R4PUR7E330A268B19A184P44AA069A777596A","y"
"RE4PU","R4PUR118E940858ABI4A3335E4A6100FDB53C","y"
"RE4PU","R4PUR0713E2491F04LB50A8738130F36D31CA","y"
"RE4PU","R4PURB821CD17F377RA0A386F15D23A91018A","y"
"RE4PU","R4PUR6098F28C9343LCED3E20D71AD17B0BC4","y"
"RE4PU","R4PUR0B8D54608C87T619D28581128C074559","y"
"RE4PU","R4PURE8D2379648AFA64DD21E5C233E556A83","y"
"RE4PU","R4PUR674BA7AD4E68A2EF3518D44C3046A340","y"
"RE4PU","R4PUR2193ABF09D07T77APCEEC11F29B4A418","y"
"RE4PU","R4PUR883704DB7E52L0333B1DFD364C0F5097","y"
"RE4PU","R4PUR52B595056F60L8AAD65C7C7F127F8243","y"
"RE4PU","R4PURA32A983A9E1FA135D832361946F865A6","y"
"RE4PU","R4PUR2D3ED7A14726A55EP2C8EA4E8BDF569D","y"
"RE4PU","R4PURFEF3E37E7834R531P0EF18AC347D3B0C","y"
"RE4PU","R4PURFD3E91363F44R6AFAFA3CA2933AF1087","y"
"RE4PU","R4PUR0E34A153EE67ACF2ACCCB55DAD401EA3","y"
"RE4PU","R4PUR8FD55FD845CCTD69PBB89BD9190A3CAE","y"
"RE4PU","R4PUR4351BA9BE9D4EFF6D828116FF1ED1A50","y"
"RE4PU","R4PURF061D6992D8FE9B8P2AA2A176A61C1BF","y"
"RE4PU","R4PURF838087B4652LA0BA317ED0C006951F9","y"
"RE4PU","R4PURC17A34F3682AL325A46D391EEE30A1F5","y"
"RE4PU","R4PURF03AE19E7818T2FFDF2CD77F72A3D83A","y"
"RE4PU","R4PUR3AED83E46AD9R1C0P191CBF1335BF9F3","y"
"RE4PU","R4PUR992EB246835BL1753B88C98A7DF51BE4","y"
"RE4PU","R4PUR54139CF42062TE89PF540BDB8B8CF9F0","y"
"RE4PU","R4PURCC48135CAB40EAA4AA897AE717633884","y"
"RE4PU","R4PUR38400651CD0ERD54AEF9A7CAA697E2C2","y"
"RE4PU","R4PURDF78C9CA14CFT4CE3CBA7FD8138F5B42","y"
"RE4PU","R4PURBF602EA3B1F1E35BD925C8E25B7F6CC6","y"
"RE4PU","R4PURB9B7B33D5D60T060AD3BF068C017BB3A","y"
"RE4PU","R4PUR38011C607D70L7DD398D1B2E793C8E1C","y"
"RE4PU","R4PURF8223E93E709A6C6A2512B886412C6F8","y"
"RE4PU","R4PUR5BD1307B4B2EA8E5A5A9EEC4C924B838","y"
"RE4PU","R4PURB710A07CD029L679D53A680843F1EE55","y"
"RE4PU","R4PUREB24F3B7230FTC2CD4CEF6E99BFBA421","y"
"RE4PU","R4PUR5A562487A4ADL8CCD3132DC177B8E793","y"
"RE4PU","R4PURF17E3550DF8BIB1139246DE9492F3784","y"
"RE4PU","R4PUR83B8E74F3F41EB37P003C8B2998F88B2","y"
"RE4PU","R4PUR52C9BFE954F3RA72A67362832E3B56E2","y"
"RE4PU","R4PUR0C33EA72FFBCI797DCC255DBFA560774","y"
"RE4PU","R4PURDFE2AED41CFDI5FFDE7A3105046F4693","y"
"RE4PU","R4PUR33800006DABFT4F73161B5C6168655CB","y"
"RE4PU","R4PUR11DC90337234LE6EAC6DCEB2BDD1DB96","y"
"RE4PU","R4PURBBDF2D04A7C7I3CBP6A40571543FA00E","y"
"RE4PU","R4PUR3900CF26F191R513P42A7CBC2189A336","y"
"RE4PU","R4PUR1EA7DC5EEC6FLF95335042A0977D3B59","y"
"RE4PU","R4PURC458B2635CBDR004PCE9F2C170500DB2","y"
"RE4PU","R4PUR847B84737459T9D4PBAAEBDD7231C141","y"
"RE4PU","R4PUR8EF6F233D0C7A191A83315DEE2897B20","y"
"RE4PU","R4PUR37E0E8BCFD8AEBF0A2405197623AB639","y"
"RE4PU","R4PUR572D93FAD039IC38PB09F1179B098D8E","y"
"RE4PU","R4PUR6C31379C9B8AAE9D3956F4370C113ABC","y"
"RE4PU","R4PURE440CB2B5248R71BA0DA20505FE0045C","y"
"RE4PU","R4PUR691FDD47D78AEA50D97EEF62EEF2136A","y"
"RE4PU","R4PURF518BA17DD69L075A5D31E73C1811117","y"
"RE4PU","R4PUR3B8C636F61EFE470DE260D80A732DA4A","y"
"RE4PU","R4PUR1012423AD736T206A221679169FD4C41","y"
"RE4PU","R4PURBD1D584B4AD9E592DFCE57556A8687E8","y"
"RE4PU","R4PUR991727B2786EE24AA82768D14A6F9403","y"
"RE4PU","R4PUR614A08E01451L2CEP542A7D10C2C57FB","y"
"RE4PU","R4PUR720377918839T3AEACB480ADC65DA8E3","y"
"RE4PU","R4PURBCD1A1F6372FL83C3548D93597870A6A","y"
"RE4PU","R4PUR37FD2AA0C364A537D6A11DFFCB00386F","y"
"RE4PU","R4PURB432E1E6BCF4A6AC3F9A41D3FC448C57","y"
"RE4PU","R4PUR3A751FEA8923T7BAPA4327CA63B12B30","y"
"RE4PU","R4PUR3F95D04D802AAE9CPF23F67BBBC018D3","y"
"RE4PU","R4PURC06B7E694328R50DP4DFB0239C255CD4","y"
"RE4PU","R4PUR92F0FF4E12C9E6E6310191A576ACA38A","y"
"RE4PU","R4PUR2CE591DEFE66R7F03A34B2C6E2FDC3D4","y"
"RE4PU","R4PUR115989D0D1CCI13EA670B35315365FFD","y"
"RE4PU","R4PUR5C51F52B9F79E896D51268E60376E856","y"
"RE4PU","R4PURF69880A477AET401D11EA1D81A271198","y"
"RE4PU","R4PURD6968030D35EI1F3A8EC6CE419A7EC88","y"
"RE4PU","R4PUREEAF98A77A6DLB8CDCA367FBC7C788FA","y"
"RE4PU","R4PUR841FD754ED8CEE17D24EFAE0D0B53FE2","y"
"RE4PU","R4PURC9864FCF6328L969AD3AFAADF4862FB5","y"
"RE4PU","R4PURBFE5B217DB6BRCFAPEA27A8DA6C91448","y"
