^Z:\DEVEL\REALITY\LIBS\PYTHON\W64\MODULES\PYEXPAT.C
/c /I.\..\Modules\expat /I..\Include /I..\PC /Zi /nologo /W3 /WX- /O2 /Ob1 /Oi /GL /D PYEXPAT_EXPORTS /D HAVE_EXPAT_H /D XML_NS /D XML_DTD /D BYTEORDER=1234 /D XML_CONTEXT_BYTES=1024 /D XML_STATIC /D HAVE_MEMMOVE /D _WIN64 /D _M_X64 /D Py_BUILD_CORE_MODULE /D NDEBUG /D _WIN32 /D _WINDLL /GF /Gm- /MD /GS /Gy /fp:precise /Zc:wchar_t /Zc:forScope /Fo"Z:\devel\Reality\libs\python\w64\PCbuild\x64-temp-Release\pyexpat\\" /Fd"Z:\devel\Reality\libs\python\w64\PCbuild\x64-temp-Release\pyexpat\vcWindows7.1SDK.pdb" /Gd /TC /errorReport:prompt /USECL:MS_OPTERON /GS-  Z:\DEVEL\REALITY\LIBS\PYTHON\W64\MODULES\PYEXPAT.C
^Z:\DEVEL\REALITY\LIBS\PYTHON\W64\MODULES\EXPAT\XMLPARSE.C
/c /I.\..\Modules\expat /I..\Include /I..\PC /Zi /nologo /W3 /WX- /O2 /Ob1 /Oi /GL /D PYEXPAT_EXPORTS /D HAVE_EXPAT_H /D XML_NS /D XML_DTD /D BYTEORDER=1234 /D XML_CONTEXT_BYTES=1024 /D XML_STATIC /D HAVE_MEMMOVE /D _WIN64 /D _M_X64 /D Py_BUILD_CORE_MODULE /D NDEBUG /D _WIN32 /D _WINDLL /GF /Gm- /MD /GS /Gy /fp:precise /Zc:wchar_t /Zc:forScope /Fo"Z:\devel\Reality\libs\python\w64\PCbuild\x64-temp-Release\pyexpat\\" /Fd"Z:\devel\Reality\libs\python\w64\PCbuild\x64-temp-Release\pyexpat\vcWindows7.1SDK.pdb" /Gd /TC /errorReport:prompt /USECL:MS_OPTERON /GS-  Z:\DEVEL\REALITY\LIBS\PYTHON\W64\MODULES\EXPAT\XMLPARSE.C
^Z:\DEVEL\REALITY\LIBS\PYTHON\W64\MODULES\EXPAT\XMLROLE.C
/c /I.\..\Modules\expat /I..\Include /I..\PC /Zi /nologo /W3 /WX- /O2 /Ob1 /Oi /GL /D PYEXPAT_EXPORTS /D HAVE_EXPAT_H /D XML_NS /D XML_DTD /D BYTEORDER=1234 /D XML_CONTEXT_BYTES=1024 /D XML_STATIC /D HAVE_MEMMOVE /D _WIN64 /D _M_X64 /D Py_BUILD_CORE_MODULE /D NDEBUG /D _WIN32 /D _WINDLL /GF /Gm- /MD /GS /Gy /fp:precise /Zc:wchar_t /Zc:forScope /Fo"Z:\devel\Reality\libs\python\w64\PCbuild\x64-temp-Release\pyexpat\\" /Fd"Z:\devel\Reality\libs\python\w64\PCbuild\x64-temp-Release\pyexpat\vcWindows7.1SDK.pdb" /Gd /TC /errorReport:prompt /USECL:MS_OPTERON /GS-  Z:\DEVEL\REALITY\LIBS\PYTHON\W64\MODULES\EXPAT\XMLROLE.C
^Z:\DEVEL\REALITY\LIBS\PYTHON\W64\MODULES\EXPAT\XMLTOK.C
/c /I.\..\Modules\expat /I..\Include /I..\PC /Zi /nologo /W3 /WX- /O2 /Ob1 /Oi /GL /D PYEXPAT_EXPORTS /D HAVE_EXPAT_H /D XML_NS /D XML_DTD /D BYTEORDER=1234 /D XML_CONTEXT_BYTES=1024 /D XML_STATIC /D HAVE_MEMMOVE /D _WIN64 /D _M_X64 /D Py_BUILD_CORE_MODULE /D NDEBUG /D _WIN32 /D _WINDLL /GF /Gm- /MD /GS /Gy /fp:precise /Zc:wchar_t /Zc:forScope /Fo"Z:\devel\Reality\libs\python\w64\PCbuild\x64-temp-Release\pyexpat\\" /Fd"Z:\devel\Reality\libs\python\w64\PCbuild\x64-temp-Release\pyexpat\vcWindows7.1SDK.pdb" /Gd /TC /errorReport:prompt /USECL:MS_OPTERON /GS-  Z:\DEVEL\REALITY\LIBS\PYTHON\W64\MODULES\EXPAT\XMLTOK.C
