^Z:\DEVEL\REALITY\LIBS\PYTHON\W64\PCBUILD\AMD64\PYTHON27.LIB|Z:\DEVEL\REALITY\LIBS\PYTHON\W64\PCBUILD\X64-TEMP-RELEASE\_CTYPES\CALLBACKS.OBJ|Z:\DEVEL\REALITY\LIBS\PYTHON\W64\PCBUILD\X64-TEMP-RELEASE\_CTYPES\CALLPROC.OBJ|Z:\DEVEL\REALITY\LIBS\PYTHON\W64\PCBUILD\X64-TEMP-RELEASE\_CTYPES\CFIELD.OBJ|Z:\DEVEL\REALITY\LIBS\PYTHON\W64\PCBUILD\X64-TEMP-RELEASE\_CTYPES\FFI.OBJ|Z:\DEVEL\REALITY\LIBS\PYTHON\W64\PCBUILD\X64-TEMP-RELEASE\_CTYPES\MALLOC_CLOSURE.OBJ|Z:\DEVEL\REALITY\LIBS\PYTHON\W64\PCBUILD\X64-TEMP-RELEASE\_CTYPES\PREP_CIF.OBJ|Z:\DEVEL\REALITY\LIBS\PYTHON\W64\PCBUILD\X64-TEMP-RELEASE\_CTYPES\STGDICT.OBJ|Z:\DEVEL\REALITY\LIBS\PYTHON\W64\PCBUILD\X64-TEMP-RELEASE\_CTYPES\WIN64.OBJ|Z:\DEVEL\REALITY\LIBS\PYTHON\W64\PCBUILD\X64-TEMP-RELEASE\_CTYPES\_CTYPES.OBJ
Z:\DEVEL\REALITY\LIBS\PYTHON\W64\PCBUILD\AMD64\_CTYPES.PYD
Z:\DEVEL\REALITY\LIBS\PYTHON\W64\PCBUILD\AMD64\_CTYPES.PDB
