^Z:\devel\Reality\libs\python\w32\PCbuild\_ctypes.vcxproj
Z:\devel\Reality\libs\python\w32\PCbuild\_ctypes.lib
Z:\devel\Reality\libs\python\w32\PCbuild\_ctypes.lib
Z:\devel\Reality\libs\python\w32\PCbuild\_ctypes.exp
Z:\devel\Reality\libs\python\w32\PCbuild\_ctypes.exp
