^Z:\devel\Reality\libs\python\w64\PCbuild\_multiprocessing.vcxproj
Z:\devel\Reality\libs\python\w64\PCbuild\amd64\_multiprocessing.lib
Z:\devel\Reality\libs\python\w64\PCbuild\amd64\_multiprocessing.lib
Z:\devel\Reality\libs\python\w64\PCbuild\amd64\_multiprocessing.exp
Z:\devel\Reality\libs\python\w64\PCbuild\amd64\_multiprocessing.exp
