^Z:\DEVEL\REALITY\LIBS\PYTHON\W32\PCBUILD\WIN32-TEMP-RELEASE\W9XPOPEN\W9XPOPEN.EXE.INTERMEDIATE.MANIFEST
C:\WINDOWS\REGISTRATION\R00000000001E.CLB
C:\WINDOWS\MICROSOFT.NET\FRAMEWORK\V2.0.50727\MSCORWKS.DLL
C:\WINDOWS\MICROSOFT.NET\FRAMEWORK\V4.0.30319\CLR.DLL
C:\PROGRAM FILES (X86)\MICROSOFT SDKS\WINDOWS\V7.0A\BIN\MT.EXE.CONFIG
Z:\DEVEL\REALITY\LIBS\PYTHON\W32\PCBUILD\W9XPOPEN.EXE
