^Z:\DEVEL\REALITY\LIBS\PYTHON\W64\MODULES\SELECTMODULE.C
C:\PROGRAM FILES (X86)\MICROSOFT VISUAL STUDIO 10.0\VC\BIN\X86_AMD64\1033\CLUI.DLL
C:\WINDOWS\GLOBALIZATION\SORTING\SORTDEFAULT.NLS
C:\WINDOWS\SYSTEM32\RSAENH.DLL
Z:\DEVEL\REALITY\LIBS\PYTHON\W64\INCLUDE\PYTHON.H
Z:\DEVEL\REALITY\LIBS\PYTHON\W64\INCLUDE\PATCHLEVEL.H
Z:\DEVEL\REALITY\LIBS\PYTHON\W64\PC\PYCONFIG.H
C:\PROGRAM FILES (X86)\MICROSOFT VISUAL STUDIO 10.0\VC\INCLUDE\IO.H
C:\PROGRAM FILES (X86)\MICROSOFT VISUAL STUDIO 10.0\VC\INCLUDE\CRTDEFS.H
C:\PROGRAM FILES (X86)\MICROSOFT VISUAL STUDIO 10.0\VC\INCLUDE\SAL.H
C:\PROGRAM FILES (X86)\MICROSOFT VISUAL STUDIO 10.0\VC\INCLUDE\CODEANALYSIS\SOURCEANNOTATIONS.H
C:\PROGRAM FILES (X86)\MICROSOFT VISUAL STUDIO 10.0\VC\INCLUDE\VADEFS.H
C:\PROGRAM FILES (X86)\MICROSOFT VISUAL STUDIO 10.0\VC\INCLUDE\FLOAT.H
C:\PROGRAM FILES (X86)\MICROSOFT VISUAL STUDIO 10.0\VC\INCLUDE\CRTWRN.H
C:\PROGRAM FILES (X86)\MICROSOFT SDKS\WINDOWS\V7.0A\INCLUDE\BASETSD.H
C:\PROGRAM FILES (X86)\MICROSOFT VISUAL STUDIO 10.0\VC\INCLUDE\STDIO.H
C:\PROGRAM FILES (X86)\MICROSOFT VISUAL STUDIO 10.0\VC\INCLUDE\SWPRINTF.INL
Z:\DEVEL\REALITY\LIBS\PYTHON\W64\INCLUDE\PYMACCONFIG.H
C:\PROGRAM FILES (X86)\MICROSOFT VISUAL STUDIO 10.0\VC\INCLUDE\LIMITS.H
C:\PROGRAM FILES (X86)\MICROSOFT VISUAL STUDIO 10.0\VC\INCLUDE\STRING.H
C:\PROGRAM FILES (X86)\MICROSOFT VISUAL STUDIO 10.0\VC\INCLUDE\ERRNO.H
C:\PROGRAM FILES (X86)\MICROSOFT VISUAL STUDIO 10.0\VC\INCLUDE\STDLIB.H
C:\PROGRAM FILES (X86)\MICROSOFT VISUAL STUDIO 10.0\VC\INCLUDE\STDDEF.H
C:\PROGRAM FILES (X86)\MICROSOFT VISUAL STUDIO 10.0\VC\INCLUDE\ASSERT.H
Z:\DEVEL\REALITY\LIBS\PYTHON\W64\INCLUDE\PYPORT.H
C:\PROGRAM FILES (X86)\MICROSOFT VISUAL STUDIO 10.0\VC\INCLUDE\MATH.H
C:\PROGRAM FILES (X86)\MICROSOFT VISUAL STUDIO 10.0\VC\INCLUDE\TIME.H
C:\PROGRAM FILES (X86)\MICROSOFT VISUAL STUDIO 10.0\VC\INCLUDE\WTIME.INL
C:\PROGRAM FILES (X86)\MICROSOFT VISUAL STUDIO 10.0\VC\INCLUDE\TIME.INL
C:\PROGRAM FILES (X86)\MICROSOFT VISUAL STUDIO 10.0\VC\INCLUDE\SYS\STAT.H
C:\PROGRAM FILES (X86)\MICROSOFT VISUAL STUDIO 10.0\VC\INCLUDE\SYS\TYPES.H
C:\PROGRAM FILES (X86)\MICROSOFT VISUAL STUDIO 10.0\VC\INCLUDE\SYS\STAT.INL
Z:\DEVEL\REALITY\LIBS\PYTHON\W64\INCLUDE\PYMATH.H
Z:\DEVEL\REALITY\LIBS\PYTHON\W64\INCLUDE\PYMEM.H
Z:\DEVEL\REALITY\LIBS\PYTHON\W64\INCLUDE\OBJECT.H
Z:\DEVEL\REALITY\LIBS\PYTHON\W64\INCLUDE\OBJIMPL.H
Z:\DEVEL\REALITY\LIBS\PYTHON\W64\INCLUDE\PYDEBUG.H
Z:\DEVEL\REALITY\LIBS\PYTHON\W64\INCLUDE\UNICODEOBJECT.H
C:\PROGRAM FILES (X86)\MICROSOFT VISUAL STUDIO 10.0\VC\INCLUDE\STDARG.H
C:\PROGRAM FILES (X86)\MICROSOFT VISUAL STUDIO 10.0\VC\INCLUDE\CTYPE.H
C:\PROGRAM FILES (X86)\MICROSOFT VISUAL STUDIO 10.0\VC\INCLUDE\WCHAR.H
Z:\DEVEL\REALITY\LIBS\PYTHON\W64\INCLUDE\INTOBJECT.H
Z:\DEVEL\REALITY\LIBS\PYTHON\W64\INCLUDE\BOOLOBJECT.H
Z:\DEVEL\REALITY\LIBS\PYTHON\W64\INCLUDE\LONGOBJECT.H
Z:\DEVEL\REALITY\LIBS\PYTHON\W64\INCLUDE\FLOATOBJECT.H
Z:\DEVEL\REALITY\LIBS\PYTHON\W64\INCLUDE\COMPLEXOBJECT.H
Z:\DEVEL\REALITY\LIBS\PYTHON\W64\INCLUDE\RANGEOBJECT.H
Z:\DEVEL\REALITY\LIBS\PYTHON\W64\INCLUDE\STRINGOBJECT.H
Z:\DEVEL\REALITY\LIBS\PYTHON\W64\INCLUDE\MEMORYOBJECT.H
Z:\DEVEL\REALITY\LIBS\PYTHON\W64\INCLUDE\BUFFEROBJECT.H
Z:\DEVEL\REALITY\LIBS\PYTHON\W64\INCLUDE\BYTESOBJECT.H
Z:\DEVEL\REALITY\LIBS\PYTHON\W64\INCLUDE\BYTEARRAYOBJECT.H
Z:\DEVEL\REALITY\LIBS\PYTHON\W64\INCLUDE\TUPLEOBJECT.H
Z:\DEVEL\REALITY\LIBS\PYTHON\W64\INCLUDE\LISTOBJECT.H
Z:\DEVEL\REALITY\LIBS\PYTHON\W64\INCLUDE\DICTOBJECT.H
Z:\DEVEL\REALITY\LIBS\PYTHON\W64\INCLUDE\ENUMOBJECT.H
Z:\DEVEL\REALITY\LIBS\PYTHON\W64\INCLUDE\SETOBJECT.H
Z:\DEVEL\REALITY\LIBS\PYTHON\W64\INCLUDE\METHODOBJECT.H
Z:\DEVEL\REALITY\LIBS\PYTHON\W64\INCLUDE\MODULEOBJECT.H
Z:\DEVEL\REALITY\LIBS\PYTHON\W64\INCLUDE\FUNCOBJECT.H
Z:\DEVEL\REALITY\LIBS\PYTHON\W64\INCLUDE\CLASSOBJECT.H
Z:\DEVEL\REALITY\LIBS\PYTHON\W64\INCLUDE\FILEOBJECT.H
Z:\DEVEL\REALITY\LIBS\PYTHON\W64\INCLUDE\COBJECT.H
Z:\DEVEL\REALITY\LIBS\PYTHON\W64\INCLUDE\PYCAPSULE.H
Z:\DEVEL\REALITY\LIBS\PYTHON\W64\INCLUDE\TRACEBACK.H
Z:\DEVEL\REALITY\LIBS\PYTHON\W64\INCLUDE\SLICEOBJECT.H
Z:\DEVEL\REALITY\LIBS\PYTHON\W64\INCLUDE\CELLOBJECT.H
Z:\DEVEL\REALITY\LIBS\PYTHON\W64\INCLUDE\ITEROBJECT.H
Z:\DEVEL\REALITY\LIBS\PYTHON\W64\INCLUDE\GENOBJECT.H
Z:\DEVEL\REALITY\LIBS\PYTHON\W64\INCLUDE\DESCROBJECT.H
Z:\DEVEL\REALITY\LIBS\PYTHON\W64\INCLUDE\WARNINGS.H
Z:\DEVEL\REALITY\LIBS\PYTHON\W64\INCLUDE\WEAKREFOBJECT.H
Z:\DEVEL\REALITY\LIBS\PYTHON\W64\INCLUDE\CODECS.H
Z:\DEVEL\REALITY\LIBS\PYTHON\W64\INCLUDE\PYERRORS.H
Z:\DEVEL\REALITY\LIBS\PYTHON\W64\INCLUDE\PYSTATE.H
Z:\DEVEL\REALITY\LIBS\PYTHON\W64\INCLUDE\PYARENA.H
Z:\DEVEL\REALITY\LIBS\PYTHON\W64\INCLUDE\MODSUPPORT.H
Z:\DEVEL\REALITY\LIBS\PYTHON\W64\INCLUDE\PYTHONRUN.H
Z:\DEVEL\REALITY\LIBS\PYTHON\W64\INCLUDE\CEVAL.H
Z:\DEVEL\REALITY\LIBS\PYTHON\W64\INCLUDE\SYSMODULE.H
Z:\DEVEL\REALITY\LIBS\PYTHON\W64\INCLUDE\INTRCHECK.H
Z:\DEVEL\REALITY\LIBS\PYTHON\W64\INCLUDE\IMPORT.H
Z:\DEVEL\REALITY\LIBS\PYTHON\W64\INCLUDE\ABSTRACT.H
Z:\DEVEL\REALITY\LIBS\PYTHON\W64\INCLUDE\COMPILE.H
Z:\DEVEL\REALITY\LIBS\PYTHON\W64\INCLUDE\CODE.H
Z:\DEVEL\REALITY\LIBS\PYTHON\W64\INCLUDE\EVAL.H
Z:\DEVEL\REALITY\LIBS\PYTHON\W64\INCLUDE\PYCTYPE.H
Z:\DEVEL\REALITY\LIBS\PYTHON\W64\INCLUDE\PYSTRTOD.H
Z:\DEVEL\REALITY\LIBS\PYTHON\W64\INCLUDE\PYSTRCMP.H
Z:\DEVEL\REALITY\LIBS\PYTHON\W64\INCLUDE\DTOA.H
Z:\DEVEL\REALITY\LIBS\PYTHON\W64\INCLUDE\PYFPE.H
Z:\DEVEL\REALITY\LIBS\PYTHON\W64\INCLUDE\STRUCTMEMBER.H
C:\PROGRAM FILES (X86)\MICROSOFT SDKS\WINDOWS\V7.0A\INCLUDE\WINSOCK2.H
C:\PROGRAM FILES (X86)\MICROSOFT SDKS\WINDOWS\V7.0A\INCLUDE\WINDOWS.H
C:\PROGRAM FILES (X86)\MICROSOFT SDKS\WINDOWS\V7.0A\INCLUDE\SDKDDKVER.H
C:\PROGRAM FILES (X86)\MICROSOFT VISUAL STUDIO 10.0\VC\INCLUDE\EXCPT.H
C:\PROGRAM FILES (X86)\MICROSOFT SDKS\WINDOWS\V7.0A\INCLUDE\WINDEF.H
C:\PROGRAM FILES (X86)\MICROSOFT SDKS\WINDOWS\V7.0A\INCLUDE\WINNT.H
C:\PROGRAM FILES (X86)\MICROSOFT SDKS\WINDOWS\V7.0A\INCLUDE\SPECSTRINGS.H
C:\PROGRAM FILES (X86)\MICROSOFT SDKS\WINDOWS\V7.0A\INCLUDE\SAL_SUPP.H
C:\PROGRAM FILES (X86)\MICROSOFT SDKS\WINDOWS\V7.0A\INCLUDE\SPECSTRINGS_SUPP.H
C:\PROGRAM FILES (X86)\MICROSOFT SDKS\WINDOWS\V7.0A\INCLUDE\SPECSTRINGS_STRICT.H
C:\PROGRAM FILES (X86)\MICROSOFT SDKS\WINDOWS\V7.0A\INCLUDE\SPECSTRINGS_UNDEF.H
C:\PROGRAM FILES (X86)\MICROSOFT SDKS\WINDOWS\V7.0A\INCLUDE\DRIVERSPECS.H
C:\PROGRAM FILES (X86)\MICROSOFT SDKS\WINDOWS\V7.0A\INCLUDE\SDV_DRIVERSPECS.H
C:\PROGRAM FILES (X86)\MICROSOFT SDKS\WINDOWS\V7.0A\INCLUDE\KERNELSPECS.H
C:\PROGRAM FILES (X86)\MICROSOFT SDKS\WINDOWS\V7.0A\INCLUDE\GUIDDEF.H
C:\PROGRAM FILES (X86)\MICROSOFT SDKS\WINDOWS\V7.0A\INCLUDE\PSHPACK4.H
C:\PROGRAM FILES (X86)\MICROSOFT SDKS\WINDOWS\V7.0A\INCLUDE\POPPACK.H
C:\PROGRAM FILES (X86)\MICROSOFT SDKS\WINDOWS\V7.0A\INCLUDE\PSHPACK2.H
C:\PROGRAM FILES (X86)\MICROSOFT SDKS\WINDOWS\V7.0A\INCLUDE\PSHPACK8.H
C:\PROGRAM FILES (X86)\MICROSOFT SDKS\WINDOWS\V7.0A\INCLUDE\KTMTYPES.H
C:\PROGRAM FILES (X86)\MICROSOFT SDKS\WINDOWS\V7.0A\INCLUDE\WINBASE.H
C:\PROGRAM FILES (X86)\MICROSOFT SDKS\WINDOWS\V7.0A\INCLUDE\WINERROR.H
C:\PROGRAM FILES (X86)\MICROSOFT SDKS\WINDOWS\V7.0A\INCLUDE\WINGDI.H
C:\PROGRAM FILES (X86)\MICROSOFT SDKS\WINDOWS\V7.0A\INCLUDE\PSHPACK1.H
C:\PROGRAM FILES (X86)\MICROSOFT SDKS\WINDOWS\V7.0A\INCLUDE\WINUSER.H
C:\PROGRAM FILES (X86)\MICROSOFT SDKS\WINDOWS\V7.0A\INCLUDE\TVOUT.H
C:\PROGRAM FILES (X86)\MICROSOFT SDKS\WINDOWS\V7.0A\INCLUDE\WINNLS.H
C:\PROGRAM FILES (X86)\MICROSOFT SDKS\WINDOWS\V7.0A\INCLUDE\WINCON.H
C:\PROGRAM FILES (X86)\MICROSOFT SDKS\WINDOWS\V7.0A\INCLUDE\WINVER.H
C:\PROGRAM FILES (X86)\MICROSOFT SDKS\WINDOWS\V7.0A\INCLUDE\VERRSRC.H
C:\PROGRAM FILES (X86)\MICROSOFT SDKS\WINDOWS\V7.0A\INCLUDE\WINREG.H
C:\PROGRAM FILES (X86)\MICROSOFT SDKS\WINDOWS\V7.0A\INCLUDE\REASON.H
C:\PROGRAM FILES (X86)\MICROSOFT SDKS\WINDOWS\V7.0A\INCLUDE\WINNETWK.H
C:\PROGRAM FILES (X86)\MICROSOFT SDKS\WINDOWS\V7.0A\INCLUDE\WNNC.H
C:\PROGRAM FILES (X86)\MICROSOFT SDKS\WINDOWS\V7.0A\INCLUDE\CDERR.H
C:\PROGRAM FILES (X86)\MICROSOFT SDKS\WINDOWS\V7.0A\INCLUDE\DDE.H
C:\PROGRAM FILES (X86)\MICROSOFT SDKS\WINDOWS\V7.0A\INCLUDE\DDEML.H
C:\PROGRAM FILES (X86)\MICROSOFT SDKS\WINDOWS\V7.0A\INCLUDE\DLGS.H
C:\PROGRAM FILES (X86)\MICROSOFT SDKS\WINDOWS\V7.0A\INCLUDE\LZEXPAND.H
C:\PROGRAM FILES (X86)\MICROSOFT SDKS\WINDOWS\V7.0A\INCLUDE\MMSYSTEM.H
C:\PROGRAM FILES (X86)\MICROSOFT SDKS\WINDOWS\V7.0A\INCLUDE\NB30.H
C:\PROGRAM FILES (X86)\MICROSOFT SDKS\WINDOWS\V7.0A\INCLUDE\RPC.H
C:\PROGRAM FILES (X86)\MICROSOFT SDKS\WINDOWS\V7.0A\INCLUDE\RPCDCE.H
C:\PROGRAM FILES (X86)\MICROSOFT SDKS\WINDOWS\V7.0A\INCLUDE\RPCDCEP.H
C:\PROGRAM FILES (X86)\MICROSOFT SDKS\WINDOWS\V7.0A\INCLUDE\RPCNSI.H
C:\PROGRAM FILES (X86)\MICROSOFT SDKS\WINDOWS\V7.0A\INCLUDE\RPCNTERR.H
C:\PROGRAM FILES (X86)\MICROSOFT SDKS\WINDOWS\V7.0A\INCLUDE\RPCASYNC.H
C:\PROGRAM FILES (X86)\MICROSOFT SDKS\WINDOWS\V7.0A\INCLUDE\SHELLAPI.H
C:\PROGRAM FILES (X86)\MICROSOFT SDKS\WINDOWS\V7.0A\INCLUDE\WINPERF.H
C:\PROGRAM FILES (X86)\MICROSOFT SDKS\WINDOWS\V7.0A\INCLUDE\WINSOCK.H
C:\PROGRAM FILES (X86)\MICROSOFT SDKS\WINDOWS\V7.0A\INCLUDE\WINCRYPT.H
C:\PROGRAM FILES (X86)\MICROSOFT SDKS\WINDOWS\V7.0A\INCLUDE\BCRYPT.H
C:\PROGRAM FILES (X86)\MICROSOFT SDKS\WINDOWS\V7.0A\INCLUDE\NCRYPT.H
C:\PROGRAM FILES (X86)\MICROSOFT SDKS\WINDOWS\V7.0A\INCLUDE\WINEFS.H
C:\PROGRAM FILES (X86)\MICROSOFT SDKS\WINDOWS\V7.0A\INCLUDE\WINSCARD.H
C:\PROGRAM FILES (X86)\MICROSOFT SDKS\WINDOWS\V7.0A\INCLUDE\WTYPES.H
C:\PROGRAM FILES (X86)\MICROSOFT SDKS\WINDOWS\V7.0A\INCLUDE\RPCNDR.H
C:\PROGRAM FILES (X86)\MICROSOFT SDKS\WINDOWS\V7.0A\INCLUDE\RPCNSIP.H
C:\PROGRAM FILES (X86)\MICROSOFT SDKS\WINDOWS\V7.0A\INCLUDE\RPCSAL.H
C:\PROGRAM FILES (X86)\MICROSOFT SDKS\WINDOWS\V7.0A\INCLUDE\WINIOCTL.H
C:\PROGRAM FILES (X86)\MICROSOFT SDKS\WINDOWS\V7.0A\INCLUDE\WINSMCRD.H
C:\PROGRAM FILES (X86)\MICROSOFT SDKS\WINDOWS\V7.0A\INCLUDE\WINSPOOL.H
C:\PROGRAM FILES (X86)\MICROSOFT SDKS\WINDOWS\V7.0A\INCLUDE\PRSHT.H
C:\PROGRAM FILES (X86)\MICROSOFT SDKS\WINDOWS\V7.0A\INCLUDE\OLE2.H
C:\PROGRAM FILES (X86)\MICROSOFT SDKS\WINDOWS\V7.0A\INCLUDE\OBJBASE.H
C:\PROGRAM FILES (X86)\MICROSOFT SDKS\WINDOWS\V7.0A\INCLUDE\UNKNWN.H
C:\PROGRAM FILES (X86)\MICROSOFT SDKS\WINDOWS\V7.0A\INCLUDE\OBJIDL.H
C:\PROGRAM FILES (X86)\MICROSOFT SDKS\WINDOWS\V7.0A\INCLUDE\CGUID.H
C:\PROGRAM FILES (X86)\MICROSOFT SDKS\WINDOWS\V7.0A\INCLUDE\URLMON.H
C:\PROGRAM FILES (X86)\MICROSOFT SDKS\WINDOWS\V7.0A\INCLUDE\OLEIDL.H
C:\PROGRAM FILES (X86)\MICROSOFT SDKS\WINDOWS\V7.0A\INCLUDE\SERVPROV.H
C:\PROGRAM FILES (X86)\MICROSOFT SDKS\WINDOWS\V7.0A\INCLUDE\MSXML.H
C:\PROGRAM FILES (X86)\MICROSOFT SDKS\WINDOWS\V7.0A\INCLUDE\OAIDL.H
C:\PROGRAM FILES (X86)\MICROSOFT SDKS\WINDOWS\V7.0A\INCLUDE\PROPIDL.H
C:\PROGRAM FILES (X86)\MICROSOFT SDKS\WINDOWS\V7.0A\INCLUDE\OLEAUTO.H
C:\PROGRAM FILES (X86)\MICROSOFT SDKS\WINDOWS\V7.0A\INCLUDE\COMMDLG.H
C:\PROGRAM FILES (X86)\MICROSOFT SDKS\WINDOWS\V7.0A\INCLUDE\STRALIGN.H
C:\PROGRAM FILES (X86)\MICROSOFT SDKS\WINDOWS\V7.0A\INCLUDE\WINSVC.H
C:\PROGRAM FILES (X86)\MICROSOFT SDKS\WINDOWS\V7.0A\INCLUDE\MCX.H
C:\PROGRAM FILES (X86)\MICROSOFT SDKS\WINDOWS\V7.0A\INCLUDE\IMM.H
C:\PROGRAM FILES (X86)\MICROSOFT SDKS\WINDOWS\V7.0A\INCLUDE\IME_CMODES.H
C:\PROGRAM FILES (X86)\MICROSOFT SDKS\WINDOWS\V7.0A\INCLUDE\WS2DEF.H
C:\PROGRAM FILES (X86)\MICROSOFT SDKS\WINDOWS\V7.0A\INCLUDE\INADDR.H
C:\PROGRAM FILES (X86)\MICROSOFT SDKS\WINDOWS\V7.0A\INCLUDE\QOS.H
C:\PROGRAM FILES\MICROSOFT SDKS\WINDOWS\V7.1\INCLUDE\BASETSD.H
C:\PROGRAM FILES\MICROSOFT SDKS\WINDOWS\V7.1\INCLUDE\WINSOCK2.H
C:\PROGRAM FILES\MICROSOFT SDKS\WINDOWS\V7.1\INCLUDE\WINDOWS.H
C:\PROGRAM FILES\MICROSOFT SDKS\WINDOWS\V7.1\INCLUDE\SDKDDKVER.H
C:\PROGRAM FILES\MICROSOFT SDKS\WINDOWS\V7.1\INCLUDE\WINDEF.H
C:\PROGRAM FILES\MICROSOFT SDKS\WINDOWS\V7.1\INCLUDE\WINNT.H
C:\PROGRAM FILES\MICROSOFT SDKS\WINDOWS\V7.1\INCLUDE\SPECSTRINGS.H
C:\PROGRAM FILES\MICROSOFT SDKS\WINDOWS\V7.1\INCLUDE\SAL_SUPP.H
C:\PROGRAM FILES\MICROSOFT SDKS\WINDOWS\V7.1\INCLUDE\SPECSTRINGS_SUPP.H
C:\PROGRAM FILES\MICROSOFT SDKS\WINDOWS\V7.1\INCLUDE\SPECSTRINGS_STRICT.H
C:\PROGRAM FILES\MICROSOFT SDKS\WINDOWS\V7.1\INCLUDE\SPECSTRINGS_UNDEF.H
C:\PROGRAM FILES\MICROSOFT SDKS\WINDOWS\V7.1\INCLUDE\DRIVERSPECS.H
C:\PROGRAM FILES\MICROSOFT SDKS\WINDOWS\V7.1\INCLUDE\SDV_DRIVERSPECS.H
C:\PROGRAM FILES\MICROSOFT SDKS\WINDOWS\V7.1\INCLUDE\KERNELSPECS.H
C:\PROGRAM FILES\MICROSOFT SDKS\WINDOWS\V7.1\INCLUDE\GUIDDEF.H
C:\PROGRAM FILES\MICROSOFT SDKS\WINDOWS\V7.1\INCLUDE\PSHPACK4.H
C:\PROGRAM FILES\MICROSOFT SDKS\WINDOWS\V7.1\INCLUDE\POPPACK.H
C:\PROGRAM FILES\MICROSOFT SDKS\WINDOWS\V7.1\INCLUDE\PSHPACK2.H
C:\PROGRAM FILES\MICROSOFT SDKS\WINDOWS\V7.1\INCLUDE\PSHPACK8.H
C:\PROGRAM FILES\MICROSOFT SDKS\WINDOWS\V7.1\INCLUDE\KTMTYPES.H
C:\PROGRAM FILES\MICROSOFT SDKS\WINDOWS\V7.1\INCLUDE\WINBASE.H
C:\PROGRAM FILES\MICROSOFT SDKS\WINDOWS\V7.1\INCLUDE\WINERROR.H
C:\PROGRAM FILES\MICROSOFT SDKS\WINDOWS\V7.1\INCLUDE\WINGDI.H
C:\PROGRAM FILES\MICROSOFT SDKS\WINDOWS\V7.1\INCLUDE\PSHPACK1.H
C:\PROGRAM FILES\MICROSOFT SDKS\WINDOWS\V7.1\INCLUDE\WINUSER.H
C:\PROGRAM FILES\MICROSOFT SDKS\WINDOWS\V7.1\INCLUDE\TVOUT.H
C:\PROGRAM FILES\MICROSOFT SDKS\WINDOWS\V7.1\INCLUDE\WINNLS.H
C:\PROGRAM FILES\MICROSOFT SDKS\WINDOWS\V7.1\INCLUDE\WINCON.H
C:\PROGRAM FILES\MICROSOFT SDKS\WINDOWS\V7.1\INCLUDE\WINVER.H
C:\PROGRAM FILES\MICROSOFT SDKS\WINDOWS\V7.1\INCLUDE\VERRSRC.H
C:\PROGRAM FILES\MICROSOFT SDKS\WINDOWS\V7.1\INCLUDE\WINREG.H
C:\PROGRAM FILES\MICROSOFT SDKS\WINDOWS\V7.1\INCLUDE\REASON.H
C:\PROGRAM FILES\MICROSOFT SDKS\WINDOWS\V7.1\INCLUDE\WINNETWK.H
C:\PROGRAM FILES\MICROSOFT SDKS\WINDOWS\V7.1\INCLUDE\WNNC.H
C:\PROGRAM FILES\MICROSOFT SDKS\WINDOWS\V7.1\INCLUDE\CDERR.H
C:\PROGRAM FILES\MICROSOFT SDKS\WINDOWS\V7.1\INCLUDE\DDE.H
C:\PROGRAM FILES\MICROSOFT SDKS\WINDOWS\V7.1\INCLUDE\DDEML.H
C:\PROGRAM FILES\MICROSOFT SDKS\WINDOWS\V7.1\INCLUDE\DLGS.H
C:\PROGRAM FILES\MICROSOFT SDKS\WINDOWS\V7.1\INCLUDE\LZEXPAND.H
C:\PROGRAM FILES\MICROSOFT SDKS\WINDOWS\V7.1\INCLUDE\MMSYSTEM.H
C:\PROGRAM FILES\MICROSOFT SDKS\WINDOWS\V7.1\INCLUDE\NB30.H
C:\PROGRAM FILES\MICROSOFT SDKS\WINDOWS\V7.1\INCLUDE\RPC.H
C:\PROGRAM FILES\MICROSOFT SDKS\WINDOWS\V7.1\INCLUDE\RPCDCE.H
C:\PROGRAM FILES\MICROSOFT SDKS\WINDOWS\V7.1\INCLUDE\RPCDCEP.H
C:\PROGRAM FILES\MICROSOFT SDKS\WINDOWS\V7.1\INCLUDE\RPCNSI.H
C:\PROGRAM FILES\MICROSOFT SDKS\WINDOWS\V7.1\INCLUDE\RPCNTERR.H
C:\PROGRAM FILES\MICROSOFT SDKS\WINDOWS\V7.1\INCLUDE\RPCASYNC.H
C:\PROGRAM FILES\MICROSOFT SDKS\WINDOWS\V7.1\INCLUDE\SHELLAPI.H
C:\PROGRAM FILES\MICROSOFT SDKS\WINDOWS\V7.1\INCLUDE\WINPERF.H
C:\PROGRAM FILES\MICROSOFT SDKS\WINDOWS\V7.1\INCLUDE\WINSOCK.H
C:\PROGRAM FILES\MICROSOFT SDKS\WINDOWS\V7.1\INCLUDE\WINCRYPT.H
C:\PROGRAM FILES\MICROSOFT SDKS\WINDOWS\V7.1\INCLUDE\BCRYPT.H
C:\PROGRAM FILES\MICROSOFT SDKS\WINDOWS\V7.1\INCLUDE\NCRYPT.H
C:\PROGRAM FILES\MICROSOFT SDKS\WINDOWS\V7.1\INCLUDE\WINEFS.H
C:\PROGRAM FILES\MICROSOFT SDKS\WINDOWS\V7.1\INCLUDE\WINSCARD.H
C:\PROGRAM FILES\MICROSOFT SDKS\WINDOWS\V7.1\INCLUDE\WTYPES.H
C:\PROGRAM FILES\MICROSOFT SDKS\WINDOWS\V7.1\INCLUDE\RPCNDR.H
C:\PROGRAM FILES\MICROSOFT SDKS\WINDOWS\V7.1\INCLUDE\RPCNSIP.H
C:\PROGRAM FILES\MICROSOFT SDKS\WINDOWS\V7.1\INCLUDE\RPCSAL.H
C:\PROGRAM FILES\MICROSOFT SDKS\WINDOWS\V7.1\INCLUDE\WINIOCTL.H
C:\PROGRAM FILES\MICROSOFT SDKS\WINDOWS\V7.1\INCLUDE\WINSMCRD.H
C:\PROGRAM FILES\MICROSOFT SDKS\WINDOWS\V7.1\INCLUDE\WINSPOOL.H
C:\PROGRAM FILES\MICROSOFT SDKS\WINDOWS\V7.1\INCLUDE\PRSHT.H
C:\PROGRAM FILES\MICROSOFT SDKS\WINDOWS\V7.1\INCLUDE\OLE2.H
C:\PROGRAM FILES\MICROSOFT SDKS\WINDOWS\V7.1\INCLUDE\OBJBASE.H
C:\PROGRAM FILES\MICROSOFT SDKS\WINDOWS\V7.1\INCLUDE\UNKNWN.H
C:\PROGRAM FILES\MICROSOFT SDKS\WINDOWS\V7.1\INCLUDE\OBJIDL.H
C:\PROGRAM FILES\MICROSOFT SDKS\WINDOWS\V7.1\INCLUDE\CGUID.H
C:\PROGRAM FILES\MICROSOFT SDKS\WINDOWS\V7.1\INCLUDE\URLMON.H
C:\PROGRAM FILES\MICROSOFT SDKS\WINDOWS\V7.1\INCLUDE\OLEIDL.H
C:\PROGRAM FILES\MICROSOFT SDKS\WINDOWS\V7.1\INCLUDE\SERVPROV.H
C:\PROGRAM FILES\MICROSOFT SDKS\WINDOWS\V7.1\INCLUDE\MSXML.H
C:\PROGRAM FILES\MICROSOFT SDKS\WINDOWS\V7.1\INCLUDE\OAIDL.H
C:\PROGRAM FILES\MICROSOFT SDKS\WINDOWS\V7.1\INCLUDE\PROPIDL.H
C:\PROGRAM FILES\MICROSOFT SDKS\WINDOWS\V7.1\INCLUDE\OLEAUTO.H
C:\PROGRAM FILES\MICROSOFT SDKS\WINDOWS\V7.1\INCLUDE\COMMDLG.H
C:\PROGRAM FILES\MICROSOFT SDKS\WINDOWS\V7.1\INCLUDE\STRALIGN.H
C:\PROGRAM FILES\MICROSOFT SDKS\WINDOWS\V7.1\INCLUDE\WINSVC.H
C:\PROGRAM FILES\MICROSOFT SDKS\WINDOWS\V7.1\INCLUDE\MCX.H
C:\PROGRAM FILES\MICROSOFT SDKS\WINDOWS\V7.1\INCLUDE\IMM.H
C:\PROGRAM FILES\MICROSOFT SDKS\WINDOWS\V7.1\INCLUDE\IME_CMODES.H
C:\PROGRAM FILES\MICROSOFT SDKS\WINDOWS\V7.1\INCLUDE\WS2DEF.H
C:\PROGRAM FILES\MICROSOFT SDKS\WINDOWS\V7.1\INCLUDE\INADDR.H
C:\PROGRAM FILES\MICROSOFT SDKS\WINDOWS\V7.1\INCLUDE\QOS.H
