^Z:\DEVEL\REALITY\LIBS\PYTHON\W64\PCBUILD\AMD64\PYTHON27.LIB|Z:\DEVEL\REALITY\LIBS\PYTHON\W64\PCBUILD\X64-TEMP-RELEASE\SELECT\SELECTMODULE.OBJ
Z:\DEVEL\REALITY\LIBS\PYTHON\W64\PCBUILD\AMD64\SELECT.PYD
Z:\DEVEL\REALITY\LIBS\PYTHON\W64\PCBUILD\AMD64\SELECT.PDB
