^Z:\DEVEL\REALITY\LIBS\PYTHON\W64\PCBUILD\AMD64\PYTHON27.LIB|Z:\DEVEL\REALITY\LIBS\PYTHON\W64\PCBUILD\X64-TEMP-RELEASE\PYTHON\PYTHON.OBJ|Z:\DEVEL\REALITY\LIBS\PYTHON\W64\PCBUILD\X64-TEMP-RELEASE\PYTHON\PYTHON_EXE.RES
C:\PROGRAM FILES\MICROSOFT SDKS\WINDOWS\V7.1\LIB\X64\KERNEL32.LIB
C:\PROGRAM FILES\MICROSOFT SDKS\WINDOWS\V7.1\LIB\X64\USER32.LIB
C:\PROGRAM FILES\MICROSOFT SDKS\WINDOWS\V7.1\LIB\X64\GDI32.LIB
C:\PROGRAM FILES\MICROSOFT SDKS\WINDOWS\V7.1\LIB\X64\WINSPOOL.LIB
C:\PROGRAM FILES\MICROSOFT SDKS\WINDOWS\V7.1\LIB\X64\COMDLG32.LIB
C:\PROGRAM FILES\MICROSOFT SDKS\WINDOWS\V7.1\LIB\X64\ADVAPI32.LIB
C:\PROGRAM FILES\MICROSOFT SDKS\WINDOWS\V7.1\LIB\X64\SHELL32.LIB
C:\PROGRAM FILES\MICROSOFT SDKS\WINDOWS\V7.1\LIB\X64\OLE32.LIB
C:\PROGRAM FILES\MICROSOFT SDKS\WINDOWS\V7.1\LIB\X64\OLEAUT32.LIB
C:\PROGRAM FILES\MICROSOFT SDKS\WINDOWS\V7.1\LIB\X64\UUID.LIB
C:\PROGRAM FILES\MICROSOFT SDKS\WINDOWS\V7.1\LIB\X64\ODBC32.LIB
C:\PROGRAM FILES\MICROSOFT SDKS\WINDOWS\V7.1\LIB\X64\ODBCCP32.LIB
Z:\DEVEL\REALITY\LIBS\PYTHON\W64\PCBUILD\X64-TEMP-RELEASE\PYTHON\PYTHON_EXE.RES
Z:\DEVEL\REALITY\LIBS\PYTHON\W64\PCBUILD\X64-TEMP-RELEASE\PYTHON\PYTHON.OBJ
Z:\DEVEL\REALITY\LIBS\PYTHON\W64\PCBUILD\AMD64\PYTHON27.LIB
C:\WINDOWS\GLOBALIZATION\SORTING\SORTDEFAULT.NLS
C:\PROGRAM FILES (X86)\MICROSOFT VISUAL STUDIO 10.0\VC\LIB\AMD64\MSVCRT.LIB
C:\PROGRAM FILES (X86)\MICROSOFT VISUAL STUDIO 10.0\VC\LIB\AMD64\OLDNAMES.LIB
C:\WINDOWS\MICROSOFT.NET\FRAMEWORK\V4.0.30319\CVTRES.EXE
C:\WINDOWS\SYSTEM32\RSAENH.DLL
