^Z:\DEVEL\REALITY\LIBS\PYTHON\W64\PCBUILD\AMD64\PYTHON27.LIB|Z:\DEVEL\REALITY\LIBS\PYTHON\W64\PCBUILD\X64-TEMP-RELEASE\UNICODEDATA\UNICODEDATA.OBJ
Z:\DEVEL\REALITY\LIBS\PYTHON\W64\PCBUILD\AMD64\UNICODEDATA.PYD
Z:\DEVEL\REALITY\LIBS\PYTHON\W64\PCBUILD\AMD64\UNICODEDATA.PDB
