^Z:\DEVEL\REALITY\LIBS\PYTHON\W64\PCBUILD\AMD64\PYTHON27.LIB|Z:\DEVEL\REALITY\LIBS\PYTHON\W64\PCBUILD\X64-TEMP-RELEASE\UNICODEDATA\UNICODEDATA.OBJ
/ERRORREPORT:PROMPT /OUT:"Z:\devel\Reality\libs\python\w64\PCbuild\\amd64\unicodedata.pyd" /INCREMENTAL:NO /NOLOGO /LIBPATH:Z:\devel\Reality\libs\python\w64\PCbuild\\amd64\ kernel32.lib user32.lib gdi32.lib winspool.lib comdlg32.lib advapi32.lib shell32.lib ole32.lib oleaut32.lib uuid.lib odbc32.lib odbccp32.lib /MANIFEST:NO /DEBUG /PDB:"Z:\devel\Reality\libs\python\w64\PCbuild\\amd64\unicodedata.pdb" /SUBSYSTEM:WINDOWS /LTCG /TLBID:1 /BASE:"0x1D120000" /DYNAMICBASE:NO /IMPLIB:"Z:\devel\Reality\libs\python\w64\PCbuild\\amd64\unicodedata.lib" /MACHINE:X64 /DLL "Z:\devel\Reality\libs\python\w64\PCbuild\x64-temp-Release\unicodedata\unicodedata.obj"
Z:\devel\Reality\libs\python\w64\PCbuild\amd64\python27.lib
