^Z:\DEVEL\REALITY\LIBS\PYTHON\W64\PCBUILD\X64-TEMP-RELEASE\W9XPOPEN\W9XPOPEN.OBJ
Z:\DEVEL\REALITY\LIBS\PYTHON\W64\PCBUILD\AMD64\W9XPOPEN.EXE
Z:\DEVEL\REALITY\LIBS\PYTHON\W64\PCBUILD\X64-TEMP-RELEASE\W9XPOPEN\W9XPOPEN.EXE.INTERMEDIATE.MANIFEST
