^Z:\DEVEL\REALITY\LIBS\PYTHON\W32\MODULES\_MULTIPROCESSING\MULTIPROCESSING.C
Z:\DEVEL\REALITY\LIBS\PYTHON\W32\MODULES\_MULTIPROCESSING\MULTIPROCESSING.H
Z:\DEVEL\REALITY\LIBS\PYTHON\W32\INCLUDE\PYTHON.H
Z:\DEVEL\REALITY\LIBS\PYTHON\W32\INCLUDE\PATCHLEVEL.H
Z:\DEVEL\REALITY\LIBS\PYTHON\W32\PC\PYCONFIG.H
C:\PROGRAM FILES (X86)\MICROSOFT VISUAL STUDIO 10.0\VC\INCLUDE\IO.H
C:\PROGRAM FILES (X86)\MICROSOFT VISUAL STUDIO 10.0\VC\INCLUDE\CRTDEFS.H
C:\PROGRAM FILES (X86)\MICROSOFT VISUAL STUDIO 10.0\VC\INCLUDE\SAL.H
C:\PROGRAM FILES (X86)\MICROSOFT VISUAL STUDIO 10.0\VC\INCLUDE\CODEANALYSIS\SOURCEANNOTATIONS.H
C:\PROGRAM FILES (X86)\MICROSOFT VISUAL STUDIO 10.0\VC\INCLUDE\VADEFS.H
C:\PROGRAM FILES (X86)\MICROSOFT VISUAL STUDIO 10.0\VC\INCLUDE\FLOAT.H
C:\PROGRAM FILES (X86)\MICROSOFT VISUAL STUDIO 10.0\VC\INCLUDE\CRTWRN.H
C:\PROGRAM FILES (X86)\MICROSOFT SDKS\WINDOWS\V7.0A\INCLUDE\BASETSD.H
C:\PROGRAM FILES (X86)\MICROSOFT VISUAL STUDIO 10.0\VC\INCLUDE\STDIO.H
C:\PROGRAM FILES (X86)\MICROSOFT VISUAL STUDIO 10.0\VC\INCLUDE\SWPRINTF.INL
Z:\DEVEL\REALITY\LIBS\PYTHON\W32\INCLUDE\PYMACCONFIG.H
C:\PROGRAM FILES (X86)\MICROSOFT VISUAL STUDIO 10.0\VC\INCLUDE\LIMITS.H
C:\PROGRAM FILES (X86)\MICROSOFT VISUAL STUDIO 10.0\VC\INCLUDE\STRING.H
C:\PROGRAM FILES (X86)\MICROSOFT VISUAL STUDIO 10.0\VC\INCLUDE\ERRNO.H
C:\PROGRAM FILES (X86)\MICROSOFT VISUAL STUDIO 10.0\VC\INCLUDE\STDLIB.H
C:\PROGRAM FILES (X86)\MICROSOFT VISUAL STUDIO 10.0\VC\INCLUDE\STDDEF.H
C:\PROGRAM FILES (X86)\MICROSOFT VISUAL STUDIO 10.0\VC\INCLUDE\ASSERT.H
Z:\DEVEL\REALITY\LIBS\PYTHON\W32\INCLUDE\PYPORT.H
C:\PROGRAM FILES (X86)\MICROSOFT VISUAL STUDIO 10.0\VC\INCLUDE\MATH.H
C:\PROGRAM FILES (X86)\MICROSOFT VISUAL STUDIO 10.0\VC\INCLUDE\TIME.H
C:\PROGRAM FILES (X86)\MICROSOFT VISUAL STUDIO 10.0\VC\INCLUDE\WTIME.INL
C:\PROGRAM FILES (X86)\MICROSOFT VISUAL STUDIO 10.0\VC\INCLUDE\TIME.INL
C:\PROGRAM FILES (X86)\MICROSOFT VISUAL STUDIO 10.0\VC\INCLUDE\SYS\STAT.H
C:\PROGRAM FILES (X86)\MICROSOFT VISUAL STUDIO 10.0\VC\INCLUDE\SYS\TYPES.H
C:\PROGRAM FILES (X86)\MICROSOFT VISUAL STUDIO 10.0\VC\INCLUDE\SYS\STAT.INL
Z:\DEVEL\REALITY\LIBS\PYTHON\W32\INCLUDE\PYMATH.H
Z:\DEVEL\REALITY\LIBS\PYTHON\W32\INCLUDE\PYMEM.H
Z:\DEVEL\REALITY\LIBS\PYTHON\W32\INCLUDE\OBJECT.H
Z:\DEVEL\REALITY\LIBS\PYTHON\W32\INCLUDE\OBJIMPL.H
Z:\DEVEL\REALITY\LIBS\PYTHON\W32\INCLUDE\PYDEBUG.H
Z:\DEVEL\REALITY\LIBS\PYTHON\W32\INCLUDE\UNICODEOBJECT.H
C:\PROGRAM FILES (X86)\MICROSOFT VISUAL STUDIO 10.0\VC\INCLUDE\STDARG.H
C:\PROGRAM FILES (X86)\MICROSOFT VISUAL STUDIO 10.0\VC\INCLUDE\CTYPE.H
C:\PROGRAM FILES (X86)\MICROSOFT VISUAL STUDIO 10.0\VC\INCLUDE\WCHAR.H
Z:\DEVEL\REALITY\LIBS\PYTHON\W32\INCLUDE\INTOBJECT.H
Z:\DEVEL\REALITY\LIBS\PYTHON\W32\INCLUDE\BOOLOBJECT.H
Z:\DEVEL\REALITY\LIBS\PYTHON\W32\INCLUDE\LONGOBJECT.H
Z:\DEVEL\REALITY\LIBS\PYTHON\W32\INCLUDE\FLOATOBJECT.H
Z:\DEVEL\REALITY\LIBS\PYTHON\W32\INCLUDE\COMPLEXOBJECT.H
Z:\DEVEL\REALITY\LIBS\PYTHON\W32\INCLUDE\RANGEOBJECT.H
Z:\DEVEL\REALITY\LIBS\PYTHON\W32\INCLUDE\STRINGOBJECT.H
Z:\DEVEL\REALITY\LIBS\PYTHON\W32\INCLUDE\MEMORYOBJECT.H
Z:\DEVEL\REALITY\LIBS\PYTHON\W32\INCLUDE\BUFFEROBJECT.H
Z:\DEVEL\REALITY\LIBS\PYTHON\W32\INCLUDE\BYTESOBJECT.H
Z:\DEVEL\REALITY\LIBS\PYTHON\W32\INCLUDE\BYTEARRAYOBJECT.H
Z:\DEVEL\REALITY\LIBS\PYTHON\W32\INCLUDE\TUPLEOBJECT.H
Z:\DEVEL\REALITY\LIBS\PYTHON\W32\INCLUDE\LISTOBJECT.H
Z:\DEVEL\REALITY\LIBS\PYTHON\W32\INCLUDE\DICTOBJECT.H
Z:\DEVEL\REALITY\LIBS\PYTHON\W32\INCLUDE\ENUMOBJECT.H
Z:\DEVEL\REALITY\LIBS\PYTHON\W32\INCLUDE\SETOBJECT.H
Z:\DEVEL\REALITY\LIBS\PYTHON\W32\INCLUDE\METHODOBJECT.H
Z:\DEVEL\REALITY\LIBS\PYTHON\W32\INCLUDE\MODULEOBJECT.H
Z:\DEVEL\REALITY\LIBS\PYTHON\W32\INCLUDE\FUNCOBJECT.H
Z:\DEVEL\REALITY\LIBS\PYTHON\W32\INCLUDE\CLASSOBJECT.H
Z:\DEVEL\REALITY\LIBS\PYTHON\W32\INCLUDE\FILEOBJECT.H
Z:\DEVEL\REALITY\LIBS\PYTHON\W32\INCLUDE\COBJECT.H
Z:\DEVEL\REALITY\LIBS\PYTHON\W32\INCLUDE\PYCAPSULE.H
Z:\DEVEL\REALITY\LIBS\PYTHON\W32\INCLUDE\TRACEBACK.H
Z:\DEVEL\REALITY\LIBS\PYTHON\W32\INCLUDE\SLICEOBJECT.H
Z:\DEVEL\REALITY\LIBS\PYTHON\W32\INCLUDE\CELLOBJECT.H
Z:\DEVEL\REALITY\LIBS\PYTHON\W32\INCLUDE\ITEROBJECT.H
Z:\DEVEL\REALITY\LIBS\PYTHON\W32\INCLUDE\GENOBJECT.H
Z:\DEVEL\REALITY\LIBS\PYTHON\W32\INCLUDE\DESCROBJECT.H
Z:\DEVEL\REALITY\LIBS\PYTHON\W32\INCLUDE\WARNINGS.H
Z:\DEVEL\REALITY\LIBS\PYTHON\W32\INCLUDE\WEAKREFOBJECT.H
Z:\DEVEL\REALITY\LIBS\PYTHON\W32\INCLUDE\CODECS.H
Z:\DEVEL\REALITY\LIBS\PYTHON\W32\INCLUDE\PYERRORS.H
Z:\DEVEL\REALITY\LIBS\PYTHON\W32\INCLUDE\PYSTATE.H
Z:\DEVEL\REALITY\LIBS\PYTHON\W32\INCLUDE\PYARENA.H
Z:\DEVEL\REALITY\LIBS\PYTHON\W32\INCLUDE\MODSUPPORT.H
Z:\DEVEL\REALITY\LIBS\PYTHON\W32\INCLUDE\PYTHONRUN.H
Z:\DEVEL\REALITY\LIBS\PYTHON\W32\INCLUDE\CEVAL.H
Z:\DEVEL\REALITY\LIBS\PYTHON\W32\INCLUDE\SYSMODULE.H
Z:\DEVEL\REALITY\LIBS\PYTHON\W32\INCLUDE\INTRCHECK.H
Z:\DEVEL\REALITY\LIBS\PYTHON\W32\INCLUDE\IMPORT.H
Z:\DEVEL\REALITY\LIBS\PYTHON\W32\INCLUDE\ABSTRACT.H
Z:\DEVEL\REALITY\LIBS\PYTHON\W32\INCLUDE\COMPILE.H
Z:\DEVEL\REALITY\LIBS\PYTHON\W32\INCLUDE\CODE.H
Z:\DEVEL\REALITY\LIBS\PYTHON\W32\INCLUDE\EVAL.H
Z:\DEVEL\REALITY\LIBS\PYTHON\W32\INCLUDE\PYCTYPE.H
Z:\DEVEL\REALITY\LIBS\PYTHON\W32\INCLUDE\PYSTRTOD.H
Z:\DEVEL\REALITY\LIBS\PYTHON\W32\INCLUDE\PYSTRCMP.H
Z:\DEVEL\REALITY\LIBS\PYTHON\W32\INCLUDE\DTOA.H
Z:\DEVEL\REALITY\LIBS\PYTHON\W32\INCLUDE\PYFPE.H
Z:\DEVEL\REALITY\LIBS\PYTHON\W32\INCLUDE\STRUCTMEMBER.H
Z:\DEVEL\REALITY\LIBS\PYTHON\W32\INCLUDE\PYTHREAD.H
C:\PROGRAM FILES (X86)\MICROSOFT SDKS\WINDOWS\V7.0A\INCLUDE\WINDOWS.H
C:\PROGRAM FILES (X86)\MICROSOFT SDKS\WINDOWS\V7.0A\INCLUDE\SDKDDKVER.H
C:\PROGRAM FILES (X86)\MICROSOFT VISUAL STUDIO 10.0\VC\INCLUDE\EXCPT.H
C:\PROGRAM FILES (X86)\MICROSOFT SDKS\WINDOWS\V7.0A\INCLUDE\WINDEF.H
C:\PROGRAM FILES (X86)\MICROSOFT SDKS\WINDOWS\V7.0A\INCLUDE\WINNT.H
C:\PROGRAM FILES (X86)\MICROSOFT SDKS\WINDOWS\V7.0A\INCLUDE\SPECSTRINGS.H
C:\PROGRAM FILES (X86)\MICROSOFT SDKS\WINDOWS\V7.0A\INCLUDE\SAL_SUPP.H
C:\PROGRAM FILES (X86)\MICROSOFT SDKS\WINDOWS\V7.0A\INCLUDE\SPECSTRINGS_SUPP.H
C:\PROGRAM FILES (X86)\MICROSOFT SDKS\WINDOWS\V7.0A\INCLUDE\SPECSTRINGS_STRICT.H
C:\PROGRAM FILES (X86)\MICROSOFT SDKS\WINDOWS\V7.0A\INCLUDE\SPECSTRINGS_UNDEF.H
C:\PROGRAM FILES (X86)\MICROSOFT SDKS\WINDOWS\V7.0A\INCLUDE\DRIVERSPECS.H
C:\PROGRAM FILES (X86)\MICROSOFT SDKS\WINDOWS\V7.0A\INCLUDE\SDV_DRIVERSPECS.H
C:\PROGRAM FILES (X86)\MICROSOFT SDKS\WINDOWS\V7.0A\INCLUDE\KERNELSPECS.H
C:\PROGRAM FILES (X86)\MICROSOFT SDKS\WINDOWS\V7.0A\INCLUDE\GUIDDEF.H
C:\PROGRAM FILES (X86)\MICROSOFT SDKS\WINDOWS\V7.0A\INCLUDE\PSHPACK4.H
C:\PROGRAM FILES (X86)\MICROSOFT SDKS\WINDOWS\V7.0A\INCLUDE\POPPACK.H
C:\PROGRAM FILES (X86)\MICROSOFT SDKS\WINDOWS\V7.0A\INCLUDE\PSHPACK2.H
C:\PROGRAM FILES (X86)\MICROSOFT SDKS\WINDOWS\V7.0A\INCLUDE\PSHPACK8.H
C:\PROGRAM FILES (X86)\MICROSOFT SDKS\WINDOWS\V7.0A\INCLUDE\KTMTYPES.H
C:\PROGRAM FILES (X86)\MICROSOFT SDKS\WINDOWS\V7.0A\INCLUDE\WINBASE.H
C:\PROGRAM FILES (X86)\MICROSOFT SDKS\WINDOWS\V7.0A\INCLUDE\WINERROR.H
C:\PROGRAM FILES (X86)\MICROSOFT SDKS\WINDOWS\V7.0A\INCLUDE\WINGDI.H
C:\PROGRAM FILES (X86)\MICROSOFT SDKS\WINDOWS\V7.0A\INCLUDE\PSHPACK1.H
C:\PROGRAM FILES (X86)\MICROSOFT SDKS\WINDOWS\V7.0A\INCLUDE\WINUSER.H
C:\PROGRAM FILES (X86)\MICROSOFT SDKS\WINDOWS\V7.0A\INCLUDE\TVOUT.H
C:\PROGRAM FILES (X86)\MICROSOFT SDKS\WINDOWS\V7.0A\INCLUDE\WINNLS.H
C:\PROGRAM FILES (X86)\MICROSOFT SDKS\WINDOWS\V7.0A\INCLUDE\WINCON.H
C:\PROGRAM FILES (X86)\MICROSOFT SDKS\WINDOWS\V7.0A\INCLUDE\WINVER.H
C:\PROGRAM FILES (X86)\MICROSOFT SDKS\WINDOWS\V7.0A\INCLUDE\VERRSRC.H
C:\PROGRAM FILES (X86)\MICROSOFT SDKS\WINDOWS\V7.0A\INCLUDE\WINREG.H
C:\PROGRAM FILES (X86)\MICROSOFT SDKS\WINDOWS\V7.0A\INCLUDE\REASON.H
C:\PROGRAM FILES (X86)\MICROSOFT SDKS\WINDOWS\V7.0A\INCLUDE\WINNETWK.H
C:\PROGRAM FILES (X86)\MICROSOFT SDKS\WINDOWS\V7.0A\INCLUDE\WNNC.H
C:\PROGRAM FILES (X86)\MICROSOFT SDKS\WINDOWS\V7.0A\INCLUDE\STRALIGN.H
C:\PROGRAM FILES (X86)\MICROSOFT SDKS\WINDOWS\V7.0A\INCLUDE\WINSVC.H
C:\PROGRAM FILES (X86)\MICROSOFT SDKS\WINDOWS\V7.0A\INCLUDE\MCX.H
C:\PROGRAM FILES (X86)\MICROSOFT SDKS\WINDOWS\V7.0A\INCLUDE\IMM.H
C:\PROGRAM FILES (X86)\MICROSOFT SDKS\WINDOWS\V7.0A\INCLUDE\IME_CMODES.H
C:\PROGRAM FILES (X86)\MICROSOFT SDKS\WINDOWS\V7.0A\INCLUDE\WINSOCK2.H
C:\PROGRAM FILES (X86)\MICROSOFT SDKS\WINDOWS\V7.0A\INCLUDE\WS2DEF.H
C:\PROGRAM FILES (X86)\MICROSOFT SDKS\WINDOWS\V7.0A\INCLUDE\INADDR.H
C:\PROGRAM FILES (X86)\MICROSOFT SDKS\WINDOWS\V7.0A\INCLUDE\QOS.H
C:\PROGRAM FILES (X86)\MICROSOFT VISUAL STUDIO 10.0\VC\INCLUDE\PROCESS.H
^Z:\DEVEL\REALITY\LIBS\PYTHON\W32\MODULES\_MULTIPROCESSING\PIPE_CONNECTION.C
Z:\DEVEL\REALITY\LIBS\PYTHON\W32\MODULES\_MULTIPROCESSING\MULTIPROCESSING.H
Z:\DEVEL\REALITY\LIBS\PYTHON\W32\INCLUDE\PYTHON.H
Z:\DEVEL\REALITY\LIBS\PYTHON\W32\INCLUDE\PATCHLEVEL.H
Z:\DEVEL\REALITY\LIBS\PYTHON\W32\PC\PYCONFIG.H
C:\PROGRAM FILES (X86)\MICROSOFT VISUAL STUDIO 10.0\VC\INCLUDE\IO.H
C:\PROGRAM FILES (X86)\MICROSOFT VISUAL STUDIO 10.0\VC\INCLUDE\CRTDEFS.H
C:\PROGRAM FILES (X86)\MICROSOFT VISUAL STUDIO 10.0\VC\INCLUDE\SAL.H
C:\PROGRAM FILES (X86)\MICROSOFT VISUAL STUDIO 10.0\VC\INCLUDE\CODEANALYSIS\SOURCEANNOTATIONS.H
C:\PROGRAM FILES (X86)\MICROSOFT VISUAL STUDIO 10.0\VC\INCLUDE\VADEFS.H
C:\PROGRAM FILES (X86)\MICROSOFT VISUAL STUDIO 10.0\VC\INCLUDE\FLOAT.H
C:\PROGRAM FILES (X86)\MICROSOFT VISUAL STUDIO 10.0\VC\INCLUDE\CRTWRN.H
C:\PROGRAM FILES (X86)\MICROSOFT SDKS\WINDOWS\V7.0A\INCLUDE\BASETSD.H
C:\PROGRAM FILES (X86)\MICROSOFT VISUAL STUDIO 10.0\VC\INCLUDE\STDIO.H
C:\PROGRAM FILES (X86)\MICROSOFT VISUAL STUDIO 10.0\VC\INCLUDE\SWPRINTF.INL
Z:\DEVEL\REALITY\LIBS\PYTHON\W32\INCLUDE\PYMACCONFIG.H
C:\PROGRAM FILES (X86)\MICROSOFT VISUAL STUDIO 10.0\VC\INCLUDE\LIMITS.H
C:\PROGRAM FILES (X86)\MICROSOFT VISUAL STUDIO 10.0\VC\INCLUDE\STRING.H
C:\PROGRAM FILES (X86)\MICROSOFT VISUAL STUDIO 10.0\VC\INCLUDE\ERRNO.H
C:\PROGRAM FILES (X86)\MICROSOFT VISUAL STUDIO 10.0\VC\INCLUDE\STDLIB.H
C:\PROGRAM FILES (X86)\MICROSOFT VISUAL STUDIO 10.0\VC\INCLUDE\STDDEF.H
C:\PROGRAM FILES (X86)\MICROSOFT VISUAL STUDIO 10.0\VC\INCLUDE\ASSERT.H
Z:\DEVEL\REALITY\LIBS\PYTHON\W32\INCLUDE\PYPORT.H
C:\PROGRAM FILES (X86)\MICROSOFT VISUAL STUDIO 10.0\VC\INCLUDE\MATH.H
C:\PROGRAM FILES (X86)\MICROSOFT VISUAL STUDIO 10.0\VC\INCLUDE\TIME.H
C:\PROGRAM FILES (X86)\MICROSOFT VISUAL STUDIO 10.0\VC\INCLUDE\WTIME.INL
C:\PROGRAM FILES (X86)\MICROSOFT VISUAL STUDIO 10.0\VC\INCLUDE\TIME.INL
C:\PROGRAM FILES (X86)\MICROSOFT VISUAL STUDIO 10.0\VC\INCLUDE\SYS\STAT.H
C:\PROGRAM FILES (X86)\MICROSOFT VISUAL STUDIO 10.0\VC\INCLUDE\SYS\TYPES.H
C:\PROGRAM FILES (X86)\MICROSOFT VISUAL STUDIO 10.0\VC\INCLUDE\SYS\STAT.INL
Z:\DEVEL\REALITY\LIBS\PYTHON\W32\INCLUDE\PYMATH.H
Z:\DEVEL\REALITY\LIBS\PYTHON\W32\INCLUDE\PYMEM.H
Z:\DEVEL\REALITY\LIBS\PYTHON\W32\INCLUDE\OBJECT.H
Z:\DEVEL\REALITY\LIBS\PYTHON\W32\INCLUDE\OBJIMPL.H
Z:\DEVEL\REALITY\LIBS\PYTHON\W32\INCLUDE\PYDEBUG.H
Z:\DEVEL\REALITY\LIBS\PYTHON\W32\INCLUDE\UNICODEOBJECT.H
C:\PROGRAM FILES (X86)\MICROSOFT VISUAL STUDIO 10.0\VC\INCLUDE\STDARG.H
C:\PROGRAM FILES (X86)\MICROSOFT VISUAL STUDIO 10.0\VC\INCLUDE\CTYPE.H
C:\PROGRAM FILES (X86)\MICROSOFT VISUAL STUDIO 10.0\VC\INCLUDE\WCHAR.H
Z:\DEVEL\REALITY\LIBS\PYTHON\W32\INCLUDE\INTOBJECT.H
Z:\DEVEL\REALITY\LIBS\PYTHON\W32\INCLUDE\BOOLOBJECT.H
Z:\DEVEL\REALITY\LIBS\PYTHON\W32\INCLUDE\LONGOBJECT.H
Z:\DEVEL\REALITY\LIBS\PYTHON\W32\INCLUDE\FLOATOBJECT.H
Z:\DEVEL\REALITY\LIBS\PYTHON\W32\INCLUDE\COMPLEXOBJECT.H
Z:\DEVEL\REALITY\LIBS\PYTHON\W32\INCLUDE\RANGEOBJECT.H
Z:\DEVEL\REALITY\LIBS\PYTHON\W32\INCLUDE\STRINGOBJECT.H
Z:\DEVEL\REALITY\LIBS\PYTHON\W32\INCLUDE\MEMORYOBJECT.H
Z:\DEVEL\REALITY\LIBS\PYTHON\W32\INCLUDE\BUFFEROBJECT.H
Z:\DEVEL\REALITY\LIBS\PYTHON\W32\INCLUDE\BYTESOBJECT.H
Z:\DEVEL\REALITY\LIBS\PYTHON\W32\INCLUDE\BYTEARRAYOBJECT.H
Z:\DEVEL\REALITY\LIBS\PYTHON\W32\INCLUDE\TUPLEOBJECT.H
Z:\DEVEL\REALITY\LIBS\PYTHON\W32\INCLUDE\LISTOBJECT.H
Z:\DEVEL\REALITY\LIBS\PYTHON\W32\INCLUDE\DICTOBJECT.H
Z:\DEVEL\REALITY\LIBS\PYTHON\W32\INCLUDE\ENUMOBJECT.H
Z:\DEVEL\REALITY\LIBS\PYTHON\W32\INCLUDE\SETOBJECT.H
Z:\DEVEL\REALITY\LIBS\PYTHON\W32\INCLUDE\METHODOBJECT.H
Z:\DEVEL\REALITY\LIBS\PYTHON\W32\INCLUDE\MODULEOBJECT.H
Z:\DEVEL\REALITY\LIBS\PYTHON\W32\INCLUDE\FUNCOBJECT.H
Z:\DEVEL\REALITY\LIBS\PYTHON\W32\INCLUDE\CLASSOBJECT.H
Z:\DEVEL\REALITY\LIBS\PYTHON\W32\INCLUDE\FILEOBJECT.H
Z:\DEVEL\REALITY\LIBS\PYTHON\W32\INCLUDE\COBJECT.H
Z:\DEVEL\REALITY\LIBS\PYTHON\W32\INCLUDE\PYCAPSULE.H
Z:\DEVEL\REALITY\LIBS\PYTHON\W32\INCLUDE\TRACEBACK.H
Z:\DEVEL\REALITY\LIBS\PYTHON\W32\INCLUDE\SLICEOBJECT.H
Z:\DEVEL\REALITY\LIBS\PYTHON\W32\INCLUDE\CELLOBJECT.H
Z:\DEVEL\REALITY\LIBS\PYTHON\W32\INCLUDE\ITEROBJECT.H
Z:\DEVEL\REALITY\LIBS\PYTHON\W32\INCLUDE\GENOBJECT.H
Z:\DEVEL\REALITY\LIBS\PYTHON\W32\INCLUDE\DESCROBJECT.H
Z:\DEVEL\REALITY\LIBS\PYTHON\W32\INCLUDE\WARNINGS.H
Z:\DEVEL\REALITY\LIBS\PYTHON\W32\INCLUDE\WEAKREFOBJECT.H
Z:\DEVEL\REALITY\LIBS\PYTHON\W32\INCLUDE\CODECS.H
Z:\DEVEL\REALITY\LIBS\PYTHON\W32\INCLUDE\PYERRORS.H
Z:\DEVEL\REALITY\LIBS\PYTHON\W32\INCLUDE\PYSTATE.H
Z:\DEVEL\REALITY\LIBS\PYTHON\W32\INCLUDE\PYARENA.H
Z:\DEVEL\REALITY\LIBS\PYTHON\W32\INCLUDE\MODSUPPORT.H
Z:\DEVEL\REALITY\LIBS\PYTHON\W32\INCLUDE\PYTHONRUN.H
Z:\DEVEL\REALITY\LIBS\PYTHON\W32\INCLUDE\CEVAL.H
Z:\DEVEL\REALITY\LIBS\PYTHON\W32\INCLUDE\SYSMODULE.H
Z:\DEVEL\REALITY\LIBS\PYTHON\W32\INCLUDE\INTRCHECK.H
Z:\DEVEL\REALITY\LIBS\PYTHON\W32\INCLUDE\IMPORT.H
Z:\DEVEL\REALITY\LIBS\PYTHON\W32\INCLUDE\ABSTRACT.H
Z:\DEVEL\REALITY\LIBS\PYTHON\W32\INCLUDE\COMPILE.H
Z:\DEVEL\REALITY\LIBS\PYTHON\W32\INCLUDE\CODE.H
Z:\DEVEL\REALITY\LIBS\PYTHON\W32\INCLUDE\EVAL.H
Z:\DEVEL\REALITY\LIBS\PYTHON\W32\INCLUDE\PYCTYPE.H
Z:\DEVEL\REALITY\LIBS\PYTHON\W32\INCLUDE\PYSTRTOD.H
Z:\DEVEL\REALITY\LIBS\PYTHON\W32\INCLUDE\PYSTRCMP.H
Z:\DEVEL\REALITY\LIBS\PYTHON\W32\INCLUDE\DTOA.H
Z:\DEVEL\REALITY\LIBS\PYTHON\W32\INCLUDE\PYFPE.H
Z:\DEVEL\REALITY\LIBS\PYTHON\W32\INCLUDE\STRUCTMEMBER.H
Z:\DEVEL\REALITY\LIBS\PYTHON\W32\INCLUDE\PYTHREAD.H
C:\PROGRAM FILES (X86)\MICROSOFT SDKS\WINDOWS\V7.0A\INCLUDE\WINDOWS.H
C:\PROGRAM FILES (X86)\MICROSOFT SDKS\WINDOWS\V7.0A\INCLUDE\SDKDDKVER.H
C:\PROGRAM FILES (X86)\MICROSOFT VISUAL STUDIO 10.0\VC\INCLUDE\EXCPT.H
C:\PROGRAM FILES (X86)\MICROSOFT SDKS\WINDOWS\V7.0A\INCLUDE\WINDEF.H
C:\PROGRAM FILES (X86)\MICROSOFT SDKS\WINDOWS\V7.0A\INCLUDE\WINNT.H
C:\PROGRAM FILES (X86)\MICROSOFT SDKS\WINDOWS\V7.0A\INCLUDE\SPECSTRINGS.H
C:\PROGRAM FILES (X86)\MICROSOFT SDKS\WINDOWS\V7.0A\INCLUDE\SAL_SUPP.H
C:\PROGRAM FILES (X86)\MICROSOFT SDKS\WINDOWS\V7.0A\INCLUDE\SPECSTRINGS_SUPP.H
C:\PROGRAM FILES (X86)\MICROSOFT SDKS\WINDOWS\V7.0A\INCLUDE\SPECSTRINGS_STRICT.H
C:\PROGRAM FILES (X86)\MICROSOFT SDKS\WINDOWS\V7.0A\INCLUDE\SPECSTRINGS_UNDEF.H
C:\PROGRAM FILES (X86)\MICROSOFT SDKS\WINDOWS\V7.0A\INCLUDE\DRIVERSPECS.H
C:\PROGRAM FILES (X86)\MICROSOFT SDKS\WINDOWS\V7.0A\INCLUDE\SDV_DRIVERSPECS.H
C:\PROGRAM FILES (X86)\MICROSOFT SDKS\WINDOWS\V7.0A\INCLUDE\KERNELSPECS.H
C:\PROGRAM FILES (X86)\MICROSOFT SDKS\WINDOWS\V7.0A\INCLUDE\GUIDDEF.H
C:\PROGRAM FILES (X86)\MICROSOFT SDKS\WINDOWS\V7.0A\INCLUDE\PSHPACK4.H
C:\PROGRAM FILES (X86)\MICROSOFT SDKS\WINDOWS\V7.0A\INCLUDE\POPPACK.H
C:\PROGRAM FILES (X86)\MICROSOFT SDKS\WINDOWS\V7.0A\INCLUDE\PSHPACK2.H
C:\PROGRAM FILES (X86)\MICROSOFT SDKS\WINDOWS\V7.0A\INCLUDE\PSHPACK8.H
C:\PROGRAM FILES (X86)\MICROSOFT SDKS\WINDOWS\V7.0A\INCLUDE\KTMTYPES.H
C:\PROGRAM FILES (X86)\MICROSOFT SDKS\WINDOWS\V7.0A\INCLUDE\WINBASE.H
C:\PROGRAM FILES (X86)\MICROSOFT SDKS\WINDOWS\V7.0A\INCLUDE\WINERROR.H
C:\PROGRAM FILES (X86)\MICROSOFT SDKS\WINDOWS\V7.0A\INCLUDE\WINGDI.H
C:\PROGRAM FILES (X86)\MICROSOFT SDKS\WINDOWS\V7.0A\INCLUDE\PSHPACK1.H
C:\PROGRAM FILES (X86)\MICROSOFT SDKS\WINDOWS\V7.0A\INCLUDE\WINUSER.H
C:\PROGRAM FILES (X86)\MICROSOFT SDKS\WINDOWS\V7.0A\INCLUDE\TVOUT.H
C:\PROGRAM FILES (X86)\MICROSOFT SDKS\WINDOWS\V7.0A\INCLUDE\WINNLS.H
C:\PROGRAM FILES (X86)\MICROSOFT SDKS\WINDOWS\V7.0A\INCLUDE\WINCON.H
C:\PROGRAM FILES (X86)\MICROSOFT SDKS\WINDOWS\V7.0A\INCLUDE\WINVER.H
C:\PROGRAM FILES (X86)\MICROSOFT SDKS\WINDOWS\V7.0A\INCLUDE\VERRSRC.H
C:\PROGRAM FILES (X86)\MICROSOFT SDKS\WINDOWS\V7.0A\INCLUDE\WINREG.H
C:\PROGRAM FILES (X86)\MICROSOFT SDKS\WINDOWS\V7.0A\INCLUDE\REASON.H
C:\PROGRAM FILES (X86)\MICROSOFT SDKS\WINDOWS\V7.0A\INCLUDE\WINNETWK.H
C:\PROGRAM FILES (X86)\MICROSOFT SDKS\WINDOWS\V7.0A\INCLUDE\WNNC.H
C:\PROGRAM FILES (X86)\MICROSOFT SDKS\WINDOWS\V7.0A\INCLUDE\STRALIGN.H
C:\PROGRAM FILES (X86)\MICROSOFT SDKS\WINDOWS\V7.0A\INCLUDE\WINSVC.H
C:\PROGRAM FILES (X86)\MICROSOFT SDKS\WINDOWS\V7.0A\INCLUDE\MCX.H
C:\PROGRAM FILES (X86)\MICROSOFT SDKS\WINDOWS\V7.0A\INCLUDE\IMM.H
C:\PROGRAM FILES (X86)\MICROSOFT SDKS\WINDOWS\V7.0A\INCLUDE\IME_CMODES.H
C:\PROGRAM FILES (X86)\MICROSOFT SDKS\WINDOWS\V7.0A\INCLUDE\WINSOCK2.H
C:\PROGRAM FILES (X86)\MICROSOFT SDKS\WINDOWS\V7.0A\INCLUDE\WS2DEF.H
C:\PROGRAM FILES (X86)\MICROSOFT SDKS\WINDOWS\V7.0A\INCLUDE\INADDR.H
C:\PROGRAM FILES (X86)\MICROSOFT SDKS\WINDOWS\V7.0A\INCLUDE\QOS.H
C:\PROGRAM FILES (X86)\MICROSOFT VISUAL STUDIO 10.0\VC\INCLUDE\PROCESS.H
Z:\DEVEL\REALITY\LIBS\PYTHON\W32\MODULES\_MULTIPROCESSING\CONNECTION.H
^Z:\DEVEL\REALITY\LIBS\PYTHON\W32\MODULES\_MULTIPROCESSING\SEMAPHORE.C
Z:\DEVEL\REALITY\LIBS\PYTHON\W32\MODULES\_MULTIPROCESSING\MULTIPROCESSING.H
Z:\DEVEL\REALITY\LIBS\PYTHON\W32\INCLUDE\PYTHON.H
Z:\DEVEL\REALITY\LIBS\PYTHON\W32\INCLUDE\PATCHLEVEL.H
Z:\DEVEL\REALITY\LIBS\PYTHON\W32\PC\PYCONFIG.H
C:\PROGRAM FILES (X86)\MICROSOFT VISUAL STUDIO 10.0\VC\INCLUDE\IO.H
C:\PROGRAM FILES (X86)\MICROSOFT VISUAL STUDIO 10.0\VC\INCLUDE\CRTDEFS.H
C:\PROGRAM FILES (X86)\MICROSOFT VISUAL STUDIO 10.0\VC\INCLUDE\SAL.H
C:\PROGRAM FILES (X86)\MICROSOFT VISUAL STUDIO 10.0\VC\INCLUDE\CODEANALYSIS\SOURCEANNOTATIONS.H
C:\PROGRAM FILES (X86)\MICROSOFT VISUAL STUDIO 10.0\VC\INCLUDE\VADEFS.H
C:\PROGRAM FILES (X86)\MICROSOFT VISUAL STUDIO 10.0\VC\INCLUDE\FLOAT.H
C:\PROGRAM FILES (X86)\MICROSOFT VISUAL STUDIO 10.0\VC\INCLUDE\CRTWRN.H
C:\PROGRAM FILES (X86)\MICROSOFT SDKS\WINDOWS\V7.0A\INCLUDE\BASETSD.H
C:\PROGRAM FILES (X86)\MICROSOFT VISUAL STUDIO 10.0\VC\INCLUDE\STDIO.H
C:\PROGRAM FILES (X86)\MICROSOFT VISUAL STUDIO 10.0\VC\INCLUDE\SWPRINTF.INL
Z:\DEVEL\REALITY\LIBS\PYTHON\W32\INCLUDE\PYMACCONFIG.H
C:\PROGRAM FILES (X86)\MICROSOFT VISUAL STUDIO 10.0\VC\INCLUDE\LIMITS.H
C:\PROGRAM FILES (X86)\MICROSOFT VISUAL STUDIO 10.0\VC\INCLUDE\STRING.H
C:\PROGRAM FILES (X86)\MICROSOFT VISUAL STUDIO 10.0\VC\INCLUDE\ERRNO.H
C:\PROGRAM FILES (X86)\MICROSOFT VISUAL STUDIO 10.0\VC\INCLUDE\STDLIB.H
C:\PROGRAM FILES (X86)\MICROSOFT VISUAL STUDIO 10.0\VC\INCLUDE\STDDEF.H
C:\PROGRAM FILES (X86)\MICROSOFT VISUAL STUDIO 10.0\VC\INCLUDE\ASSERT.H
Z:\DEVEL\REALITY\LIBS\PYTHON\W32\INCLUDE\PYPORT.H
C:\PROGRAM FILES (X86)\MICROSOFT VISUAL STUDIO 10.0\VC\INCLUDE\MATH.H
C:\PROGRAM FILES (X86)\MICROSOFT VISUAL STUDIO 10.0\VC\INCLUDE\TIME.H
C:\PROGRAM FILES (X86)\MICROSOFT VISUAL STUDIO 10.0\VC\INCLUDE\WTIME.INL
C:\PROGRAM FILES (X86)\MICROSOFT VISUAL STUDIO 10.0\VC\INCLUDE\TIME.INL
C:\PROGRAM FILES (X86)\MICROSOFT VISUAL STUDIO 10.0\VC\INCLUDE\SYS\STAT.H
C:\PROGRAM FILES (X86)\MICROSOFT VISUAL STUDIO 10.0\VC\INCLUDE\SYS\TYPES.H
C:\PROGRAM FILES (X86)\MICROSOFT VISUAL STUDIO 10.0\VC\INCLUDE\SYS\STAT.INL
Z:\DEVEL\REALITY\LIBS\PYTHON\W32\INCLUDE\PYMATH.H
Z:\DEVEL\REALITY\LIBS\PYTHON\W32\INCLUDE\PYMEM.H
Z:\DEVEL\REALITY\LIBS\PYTHON\W32\INCLUDE\OBJECT.H
Z:\DEVEL\REALITY\LIBS\PYTHON\W32\INCLUDE\OBJIMPL.H
Z:\DEVEL\REALITY\LIBS\PYTHON\W32\INCLUDE\PYDEBUG.H
Z:\DEVEL\REALITY\LIBS\PYTHON\W32\INCLUDE\UNICODEOBJECT.H
C:\PROGRAM FILES (X86)\MICROSOFT VISUAL STUDIO 10.0\VC\INCLUDE\STDARG.H
C:\PROGRAM FILES (X86)\MICROSOFT VISUAL STUDIO 10.0\VC\INCLUDE\CTYPE.H
C:\PROGRAM FILES (X86)\MICROSOFT VISUAL STUDIO 10.0\VC\INCLUDE\WCHAR.H
Z:\DEVEL\REALITY\LIBS\PYTHON\W32\INCLUDE\INTOBJECT.H
Z:\DEVEL\REALITY\LIBS\PYTHON\W32\INCLUDE\BOOLOBJECT.H
Z:\DEVEL\REALITY\LIBS\PYTHON\W32\INCLUDE\LONGOBJECT.H
Z:\DEVEL\REALITY\LIBS\PYTHON\W32\INCLUDE\FLOATOBJECT.H
Z:\DEVEL\REALITY\LIBS\PYTHON\W32\INCLUDE\COMPLEXOBJECT.H
Z:\DEVEL\REALITY\LIBS\PYTHON\W32\INCLUDE\RANGEOBJECT.H
Z:\DEVEL\REALITY\LIBS\PYTHON\W32\INCLUDE\STRINGOBJECT.H
Z:\DEVEL\REALITY\LIBS\PYTHON\W32\INCLUDE\MEMORYOBJECT.H
Z:\DEVEL\REALITY\LIBS\PYTHON\W32\INCLUDE\BUFFEROBJECT.H
Z:\DEVEL\REALITY\LIBS\PYTHON\W32\INCLUDE\BYTESOBJECT.H
Z:\DEVEL\REALITY\LIBS\PYTHON\W32\INCLUDE\BYTEARRAYOBJECT.H
Z:\DEVEL\REALITY\LIBS\PYTHON\W32\INCLUDE\TUPLEOBJECT.H
Z:\DEVEL\REALITY\LIBS\PYTHON\W32\INCLUDE\LISTOBJECT.H
Z:\DEVEL\REALITY\LIBS\PYTHON\W32\INCLUDE\DICTOBJECT.H
Z:\DEVEL\REALITY\LIBS\PYTHON\W32\INCLUDE\ENUMOBJECT.H
Z:\DEVEL\REALITY\LIBS\PYTHON\W32\INCLUDE\SETOBJECT.H
Z:\DEVEL\REALITY\LIBS\PYTHON\W32\INCLUDE\METHODOBJECT.H
Z:\DEVEL\REALITY\LIBS\PYTHON\W32\INCLUDE\MODULEOBJECT.H
Z:\DEVEL\REALITY\LIBS\PYTHON\W32\INCLUDE\FUNCOBJECT.H
Z:\DEVEL\REALITY\LIBS\PYTHON\W32\INCLUDE\CLASSOBJECT.H
Z:\DEVEL\REALITY\LIBS\PYTHON\W32\INCLUDE\FILEOBJECT.H
Z:\DEVEL\REALITY\LIBS\PYTHON\W32\INCLUDE\COBJECT.H
Z:\DEVEL\REALITY\LIBS\PYTHON\W32\INCLUDE\PYCAPSULE.H
Z:\DEVEL\REALITY\LIBS\PYTHON\W32\INCLUDE\TRACEBACK.H
Z:\DEVEL\REALITY\LIBS\PYTHON\W32\INCLUDE\SLICEOBJECT.H
Z:\DEVEL\REALITY\LIBS\PYTHON\W32\INCLUDE\CELLOBJECT.H
Z:\DEVEL\REALITY\LIBS\PYTHON\W32\INCLUDE\ITEROBJECT.H
Z:\DEVEL\REALITY\LIBS\PYTHON\W32\INCLUDE\GENOBJECT.H
Z:\DEVEL\REALITY\LIBS\PYTHON\W32\INCLUDE\DESCROBJECT.H
Z:\DEVEL\REALITY\LIBS\PYTHON\W32\INCLUDE\WARNINGS.H
Z:\DEVEL\REALITY\LIBS\PYTHON\W32\INCLUDE\WEAKREFOBJECT.H
Z:\DEVEL\REALITY\LIBS\PYTHON\W32\INCLUDE\CODECS.H
Z:\DEVEL\REALITY\LIBS\PYTHON\W32\INCLUDE\PYERRORS.H
Z:\DEVEL\REALITY\LIBS\PYTHON\W32\INCLUDE\PYSTATE.H
Z:\DEVEL\REALITY\LIBS\PYTHON\W32\INCLUDE\PYARENA.H
Z:\DEVEL\REALITY\LIBS\PYTHON\W32\INCLUDE\MODSUPPORT.H
Z:\DEVEL\REALITY\LIBS\PYTHON\W32\INCLUDE\PYTHONRUN.H
Z:\DEVEL\REALITY\LIBS\PYTHON\W32\INCLUDE\CEVAL.H
Z:\DEVEL\REALITY\LIBS\PYTHON\W32\INCLUDE\SYSMODULE.H
Z:\DEVEL\REALITY\LIBS\PYTHON\W32\INCLUDE\INTRCHECK.H
Z:\DEVEL\REALITY\LIBS\PYTHON\W32\INCLUDE\IMPORT.H
Z:\DEVEL\REALITY\LIBS\PYTHON\W32\INCLUDE\ABSTRACT.H
Z:\DEVEL\REALITY\LIBS\PYTHON\W32\INCLUDE\COMPILE.H
Z:\DEVEL\REALITY\LIBS\PYTHON\W32\INCLUDE\CODE.H
Z:\DEVEL\REALITY\LIBS\PYTHON\W32\INCLUDE\EVAL.H
Z:\DEVEL\REALITY\LIBS\PYTHON\W32\INCLUDE\PYCTYPE.H
Z:\DEVEL\REALITY\LIBS\PYTHON\W32\INCLUDE\PYSTRTOD.H
Z:\DEVEL\REALITY\LIBS\PYTHON\W32\INCLUDE\PYSTRCMP.H
Z:\DEVEL\REALITY\LIBS\PYTHON\W32\INCLUDE\DTOA.H
Z:\DEVEL\REALITY\LIBS\PYTHON\W32\INCLUDE\PYFPE.H
Z:\DEVEL\REALITY\LIBS\PYTHON\W32\INCLUDE\STRUCTMEMBER.H
Z:\DEVEL\REALITY\LIBS\PYTHON\W32\INCLUDE\PYTHREAD.H
C:\PROGRAM FILES (X86)\MICROSOFT SDKS\WINDOWS\V7.0A\INCLUDE\WINDOWS.H
C:\PROGRAM FILES (X86)\MICROSOFT SDKS\WINDOWS\V7.0A\INCLUDE\SDKDDKVER.H
C:\PROGRAM FILES (X86)\MICROSOFT VISUAL STUDIO 10.0\VC\INCLUDE\EXCPT.H
C:\PROGRAM FILES (X86)\MICROSOFT SDKS\WINDOWS\V7.0A\INCLUDE\WINDEF.H
C:\PROGRAM FILES (X86)\MICROSOFT SDKS\WINDOWS\V7.0A\INCLUDE\WINNT.H
C:\PROGRAM FILES (X86)\MICROSOFT SDKS\WINDOWS\V7.0A\INCLUDE\SPECSTRINGS.H
C:\PROGRAM FILES (X86)\MICROSOFT SDKS\WINDOWS\V7.0A\INCLUDE\SAL_SUPP.H
C:\PROGRAM FILES (X86)\MICROSOFT SDKS\WINDOWS\V7.0A\INCLUDE\SPECSTRINGS_SUPP.H
C:\PROGRAM FILES (X86)\MICROSOFT SDKS\WINDOWS\V7.0A\INCLUDE\SPECSTRINGS_STRICT.H
C:\PROGRAM FILES (X86)\MICROSOFT SDKS\WINDOWS\V7.0A\INCLUDE\SPECSTRINGS_UNDEF.H
C:\PROGRAM FILES (X86)\MICROSOFT SDKS\WINDOWS\V7.0A\INCLUDE\DRIVERSPECS.H
C:\PROGRAM FILES (X86)\MICROSOFT SDKS\WINDOWS\V7.0A\INCLUDE\SDV_DRIVERSPECS.H
C:\PROGRAM FILES (X86)\MICROSOFT SDKS\WINDOWS\V7.0A\INCLUDE\KERNELSPECS.H
C:\PROGRAM FILES (X86)\MICROSOFT SDKS\WINDOWS\V7.0A\INCLUDE\GUIDDEF.H
C:\PROGRAM FILES (X86)\MICROSOFT SDKS\WINDOWS\V7.0A\INCLUDE\PSHPACK4.H
C:\PROGRAM FILES (X86)\MICROSOFT SDKS\WINDOWS\V7.0A\INCLUDE\POPPACK.H
C:\PROGRAM FILES (X86)\MICROSOFT SDKS\WINDOWS\V7.0A\INCLUDE\PSHPACK2.H
C:\PROGRAM FILES (X86)\MICROSOFT SDKS\WINDOWS\V7.0A\INCLUDE\PSHPACK8.H
C:\PROGRAM FILES (X86)\MICROSOFT SDKS\WINDOWS\V7.0A\INCLUDE\KTMTYPES.H
C:\PROGRAM FILES (X86)\MICROSOFT SDKS\WINDOWS\V7.0A\INCLUDE\WINBASE.H
C:\PROGRAM FILES (X86)\MICROSOFT SDKS\WINDOWS\V7.0A\INCLUDE\WINERROR.H
C:\PROGRAM FILES (X86)\MICROSOFT SDKS\WINDOWS\V7.0A\INCLUDE\WINGDI.H
C:\PROGRAM FILES (X86)\MICROSOFT SDKS\WINDOWS\V7.0A\INCLUDE\PSHPACK1.H
C:\PROGRAM FILES (X86)\MICROSOFT SDKS\WINDOWS\V7.0A\INCLUDE\WINUSER.H
C:\PROGRAM FILES (X86)\MICROSOFT SDKS\WINDOWS\V7.0A\INCLUDE\TVOUT.H
C:\PROGRAM FILES (X86)\MICROSOFT SDKS\WINDOWS\V7.0A\INCLUDE\WINNLS.H
C:\PROGRAM FILES (X86)\MICROSOFT SDKS\WINDOWS\V7.0A\INCLUDE\WINCON.H
C:\PROGRAM FILES (X86)\MICROSOFT SDKS\WINDOWS\V7.0A\INCLUDE\WINVER.H
C:\PROGRAM FILES (X86)\MICROSOFT SDKS\WINDOWS\V7.0A\INCLUDE\VERRSRC.H
C:\PROGRAM FILES (X86)\MICROSOFT SDKS\WINDOWS\V7.0A\INCLUDE\WINREG.H
C:\PROGRAM FILES (X86)\MICROSOFT SDKS\WINDOWS\V7.0A\INCLUDE\REASON.H
C:\PROGRAM FILES (X86)\MICROSOFT SDKS\WINDOWS\V7.0A\INCLUDE\WINNETWK.H
C:\PROGRAM FILES (X86)\MICROSOFT SDKS\WINDOWS\V7.0A\INCLUDE\WNNC.H
C:\PROGRAM FILES (X86)\MICROSOFT SDKS\WINDOWS\V7.0A\INCLUDE\STRALIGN.H
C:\PROGRAM FILES (X86)\MICROSOFT SDKS\WINDOWS\V7.0A\INCLUDE\WINSVC.H
C:\PROGRAM FILES (X86)\MICROSOFT SDKS\WINDOWS\V7.0A\INCLUDE\MCX.H
C:\PROGRAM FILES (X86)\MICROSOFT SDKS\WINDOWS\V7.0A\INCLUDE\IMM.H
C:\PROGRAM FILES (X86)\MICROSOFT SDKS\WINDOWS\V7.0A\INCLUDE\IME_CMODES.H
C:\PROGRAM FILES (X86)\MICROSOFT SDKS\WINDOWS\V7.0A\INCLUDE\WINSOCK2.H
C:\PROGRAM FILES (X86)\MICROSOFT SDKS\WINDOWS\V7.0A\INCLUDE\WS2DEF.H
C:\PROGRAM FILES (X86)\MICROSOFT SDKS\WINDOWS\V7.0A\INCLUDE\INADDR.H
C:\PROGRAM FILES (X86)\MICROSOFT SDKS\WINDOWS\V7.0A\INCLUDE\QOS.H
C:\PROGRAM FILES (X86)\MICROSOFT VISUAL STUDIO 10.0\VC\INCLUDE\PROCESS.H
^Z:\DEVEL\REALITY\LIBS\PYTHON\W32\MODULES\_MULTIPROCESSING\SOCKET_CONNECTION.C
Z:\DEVEL\REALITY\LIBS\PYTHON\W32\MODULES\_MULTIPROCESSING\MULTIPROCESSING.H
Z:\DEVEL\REALITY\LIBS\PYTHON\W32\INCLUDE\PYTHON.H
Z:\DEVEL\REALITY\LIBS\PYTHON\W32\INCLUDE\PATCHLEVEL.H
Z:\DEVEL\REALITY\LIBS\PYTHON\W32\PC\PYCONFIG.H
C:\PROGRAM FILES (X86)\MICROSOFT VISUAL STUDIO 10.0\VC\INCLUDE\IO.H
C:\PROGRAM FILES (X86)\MICROSOFT VISUAL STUDIO 10.0\VC\INCLUDE\CRTDEFS.H
C:\PROGRAM FILES (X86)\MICROSOFT VISUAL STUDIO 10.0\VC\INCLUDE\SAL.H
C:\PROGRAM FILES (X86)\MICROSOFT VISUAL STUDIO 10.0\VC\INCLUDE\CODEANALYSIS\SOURCEANNOTATIONS.H
C:\PROGRAM FILES (X86)\MICROSOFT VISUAL STUDIO 10.0\VC\INCLUDE\VADEFS.H
C:\PROGRAM FILES (X86)\MICROSOFT VISUAL STUDIO 10.0\VC\INCLUDE\FLOAT.H
C:\PROGRAM FILES (X86)\MICROSOFT VISUAL STUDIO 10.0\VC\INCLUDE\CRTWRN.H
C:\PROGRAM FILES (X86)\MICROSOFT SDKS\WINDOWS\V7.0A\INCLUDE\BASETSD.H
C:\PROGRAM FILES (X86)\MICROSOFT VISUAL STUDIO 10.0\VC\INCLUDE\STDIO.H
C:\PROGRAM FILES (X86)\MICROSOFT VISUAL STUDIO 10.0\VC\INCLUDE\SWPRINTF.INL
Z:\DEVEL\REALITY\LIBS\PYTHON\W32\INCLUDE\PYMACCONFIG.H
C:\PROGRAM FILES (X86)\MICROSOFT VISUAL STUDIO 10.0\VC\INCLUDE\LIMITS.H
C:\PROGRAM FILES (X86)\MICROSOFT VISUAL STUDIO 10.0\VC\INCLUDE\STRING.H
C:\PROGRAM FILES (X86)\MICROSOFT VISUAL STUDIO 10.0\VC\INCLUDE\ERRNO.H
C:\PROGRAM FILES (X86)\MICROSOFT VISUAL STUDIO 10.0\VC\INCLUDE\STDLIB.H
C:\PROGRAM FILES (X86)\MICROSOFT VISUAL STUDIO 10.0\VC\INCLUDE\STDDEF.H
C:\PROGRAM FILES (X86)\MICROSOFT VISUAL STUDIO 10.0\VC\INCLUDE\ASSERT.H
Z:\DEVEL\REALITY\LIBS\PYTHON\W32\INCLUDE\PYPORT.H
C:\PROGRAM FILES (X86)\MICROSOFT VISUAL STUDIO 10.0\VC\INCLUDE\MATH.H
C:\PROGRAM FILES (X86)\MICROSOFT VISUAL STUDIO 10.0\VC\INCLUDE\TIME.H
C:\PROGRAM FILES (X86)\MICROSOFT VISUAL STUDIO 10.0\VC\INCLUDE\WTIME.INL
C:\PROGRAM FILES (X86)\MICROSOFT VISUAL STUDIO 10.0\VC\INCLUDE\TIME.INL
C:\PROGRAM FILES (X86)\MICROSOFT VISUAL STUDIO 10.0\VC\INCLUDE\SYS\STAT.H
C:\PROGRAM FILES (X86)\MICROSOFT VISUAL STUDIO 10.0\VC\INCLUDE\SYS\TYPES.H
C:\PROGRAM FILES (X86)\MICROSOFT VISUAL STUDIO 10.0\VC\INCLUDE\SYS\STAT.INL
Z:\DEVEL\REALITY\LIBS\PYTHON\W32\INCLUDE\PYMATH.H
Z:\DEVEL\REALITY\LIBS\PYTHON\W32\INCLUDE\PYMEM.H
Z:\DEVEL\REALITY\LIBS\PYTHON\W32\INCLUDE\OBJECT.H
Z:\DEVEL\REALITY\LIBS\PYTHON\W32\INCLUDE\OBJIMPL.H
Z:\DEVEL\REALITY\LIBS\PYTHON\W32\INCLUDE\PYDEBUG.H
Z:\DEVEL\REALITY\LIBS\PYTHON\W32\INCLUDE\UNICODEOBJECT.H
C:\PROGRAM FILES (X86)\MICROSOFT VISUAL STUDIO 10.0\VC\INCLUDE\STDARG.H
C:\PROGRAM FILES (X86)\MICROSOFT VISUAL STUDIO 10.0\VC\INCLUDE\CTYPE.H
C:\PROGRAM FILES (X86)\MICROSOFT VISUAL STUDIO 10.0\VC\INCLUDE\WCHAR.H
Z:\DEVEL\REALITY\LIBS\PYTHON\W32\INCLUDE\INTOBJECT.H
Z:\DEVEL\REALITY\LIBS\PYTHON\W32\INCLUDE\BOOLOBJECT.H
Z:\DEVEL\REALITY\LIBS\PYTHON\W32\INCLUDE\LONGOBJECT.H
Z:\DEVEL\REALITY\LIBS\PYTHON\W32\INCLUDE\FLOATOBJECT.H
Z:\DEVEL\REALITY\LIBS\PYTHON\W32\INCLUDE\COMPLEXOBJECT.H
Z:\DEVEL\REALITY\LIBS\PYTHON\W32\INCLUDE\RANGEOBJECT.H
Z:\DEVEL\REALITY\LIBS\PYTHON\W32\INCLUDE\STRINGOBJECT.H
Z:\DEVEL\REALITY\LIBS\PYTHON\W32\INCLUDE\MEMORYOBJECT.H
Z:\DEVEL\REALITY\LIBS\PYTHON\W32\INCLUDE\BUFFEROBJECT.H
Z:\DEVEL\REALITY\LIBS\PYTHON\W32\INCLUDE\BYTESOBJECT.H
Z:\DEVEL\REALITY\LIBS\PYTHON\W32\INCLUDE\BYTEARRAYOBJECT.H
Z:\DEVEL\REALITY\LIBS\PYTHON\W32\INCLUDE\TUPLEOBJECT.H
Z:\DEVEL\REALITY\LIBS\PYTHON\W32\INCLUDE\LISTOBJECT.H
Z:\DEVEL\REALITY\LIBS\PYTHON\W32\INCLUDE\DICTOBJECT.H
Z:\DEVEL\REALITY\LIBS\PYTHON\W32\INCLUDE\ENUMOBJECT.H
Z:\DEVEL\REALITY\LIBS\PYTHON\W32\INCLUDE\SETOBJECT.H
Z:\DEVEL\REALITY\LIBS\PYTHON\W32\INCLUDE\METHODOBJECT.H
Z:\DEVEL\REALITY\LIBS\PYTHON\W32\INCLUDE\MODULEOBJECT.H
Z:\DEVEL\REALITY\LIBS\PYTHON\W32\INCLUDE\FUNCOBJECT.H
Z:\DEVEL\REALITY\LIBS\PYTHON\W32\INCLUDE\CLASSOBJECT.H
Z:\DEVEL\REALITY\LIBS\PYTHON\W32\INCLUDE\FILEOBJECT.H
Z:\DEVEL\REALITY\LIBS\PYTHON\W32\INCLUDE\COBJECT.H
Z:\DEVEL\REALITY\LIBS\PYTHON\W32\INCLUDE\PYCAPSULE.H
Z:\DEVEL\REALITY\LIBS\PYTHON\W32\INCLUDE\TRACEBACK.H
Z:\DEVEL\REALITY\LIBS\PYTHON\W32\INCLUDE\SLICEOBJECT.H
Z:\DEVEL\REALITY\LIBS\PYTHON\W32\INCLUDE\CELLOBJECT.H
Z:\DEVEL\REALITY\LIBS\PYTHON\W32\INCLUDE\ITEROBJECT.H
Z:\DEVEL\REALITY\LIBS\PYTHON\W32\INCLUDE\GENOBJECT.H
Z:\DEVEL\REALITY\LIBS\PYTHON\W32\INCLUDE\DESCROBJECT.H
Z:\DEVEL\REALITY\LIBS\PYTHON\W32\INCLUDE\WARNINGS.H
Z:\DEVEL\REALITY\LIBS\PYTHON\W32\INCLUDE\WEAKREFOBJECT.H
Z:\DEVEL\REALITY\LIBS\PYTHON\W32\INCLUDE\CODECS.H
Z:\DEVEL\REALITY\LIBS\PYTHON\W32\INCLUDE\PYERRORS.H
Z:\DEVEL\REALITY\LIBS\PYTHON\W32\INCLUDE\PYSTATE.H
Z:\DEVEL\REALITY\LIBS\PYTHON\W32\INCLUDE\PYARENA.H
Z:\DEVEL\REALITY\LIBS\PYTHON\W32\INCLUDE\MODSUPPORT.H
Z:\DEVEL\REALITY\LIBS\PYTHON\W32\INCLUDE\PYTHONRUN.H
Z:\DEVEL\REALITY\LIBS\PYTHON\W32\INCLUDE\CEVAL.H
Z:\DEVEL\REALITY\LIBS\PYTHON\W32\INCLUDE\SYSMODULE.H
Z:\DEVEL\REALITY\LIBS\PYTHON\W32\INCLUDE\INTRCHECK.H
Z:\DEVEL\REALITY\LIBS\PYTHON\W32\INCLUDE\IMPORT.H
Z:\DEVEL\REALITY\LIBS\PYTHON\W32\INCLUDE\ABSTRACT.H
Z:\DEVEL\REALITY\LIBS\PYTHON\W32\INCLUDE\COMPILE.H
Z:\DEVEL\REALITY\LIBS\PYTHON\W32\INCLUDE\CODE.H
Z:\DEVEL\REALITY\LIBS\PYTHON\W32\INCLUDE\EVAL.H
Z:\DEVEL\REALITY\LIBS\PYTHON\W32\INCLUDE\PYCTYPE.H
Z:\DEVEL\REALITY\LIBS\PYTHON\W32\INCLUDE\PYSTRTOD.H
Z:\DEVEL\REALITY\LIBS\PYTHON\W32\INCLUDE\PYSTRCMP.H
Z:\DEVEL\REALITY\LIBS\PYTHON\W32\INCLUDE\DTOA.H
Z:\DEVEL\REALITY\LIBS\PYTHON\W32\INCLUDE\PYFPE.H
Z:\DEVEL\REALITY\LIBS\PYTHON\W32\INCLUDE\STRUCTMEMBER.H
Z:\DEVEL\REALITY\LIBS\PYTHON\W32\INCLUDE\PYTHREAD.H
C:\PROGRAM FILES (X86)\MICROSOFT SDKS\WINDOWS\V7.0A\INCLUDE\WINDOWS.H
C:\PROGRAM FILES (X86)\MICROSOFT SDKS\WINDOWS\V7.0A\INCLUDE\SDKDDKVER.H
C:\PROGRAM FILES (X86)\MICROSOFT VISUAL STUDIO 10.0\VC\INCLUDE\EXCPT.H
C:\PROGRAM FILES (X86)\MICROSOFT SDKS\WINDOWS\V7.0A\INCLUDE\WINDEF.H
C:\PROGRAM FILES (X86)\MICROSOFT SDKS\WINDOWS\V7.0A\INCLUDE\WINNT.H
C:\PROGRAM FILES (X86)\MICROSOFT SDKS\WINDOWS\V7.0A\INCLUDE\SPECSTRINGS.H
C:\PROGRAM FILES (X86)\MICROSOFT SDKS\WINDOWS\V7.0A\INCLUDE\SAL_SUPP.H
C:\PROGRAM FILES (X86)\MICROSOFT SDKS\WINDOWS\V7.0A\INCLUDE\SPECSTRINGS_SUPP.H
C:\PROGRAM FILES (X86)\MICROSOFT SDKS\WINDOWS\V7.0A\INCLUDE\SPECSTRINGS_STRICT.H
C:\PROGRAM FILES (X86)\MICROSOFT SDKS\WINDOWS\V7.0A\INCLUDE\SPECSTRINGS_UNDEF.H
C:\PROGRAM FILES (X86)\MICROSOFT SDKS\WINDOWS\V7.0A\INCLUDE\DRIVERSPECS.H
C:\PROGRAM FILES (X86)\MICROSOFT SDKS\WINDOWS\V7.0A\INCLUDE\SDV_DRIVERSPECS.H
C:\PROGRAM FILES (X86)\MICROSOFT SDKS\WINDOWS\V7.0A\INCLUDE\KERNELSPECS.H
C:\PROGRAM FILES (X86)\MICROSOFT SDKS\WINDOWS\V7.0A\INCLUDE\GUIDDEF.H
C:\PROGRAM FILES (X86)\MICROSOFT SDKS\WINDOWS\V7.0A\INCLUDE\PSHPACK4.H
C:\PROGRAM FILES (X86)\MICROSOFT SDKS\WINDOWS\V7.0A\INCLUDE\POPPACK.H
C:\PROGRAM FILES (X86)\MICROSOFT SDKS\WINDOWS\V7.0A\INCLUDE\PSHPACK2.H
C:\PROGRAM FILES (X86)\MICROSOFT SDKS\WINDOWS\V7.0A\INCLUDE\PSHPACK8.H
C:\PROGRAM FILES (X86)\MICROSOFT SDKS\WINDOWS\V7.0A\INCLUDE\KTMTYPES.H
C:\PROGRAM FILES (X86)\MICROSOFT SDKS\WINDOWS\V7.0A\INCLUDE\WINBASE.H
C:\PROGRAM FILES (X86)\MICROSOFT SDKS\WINDOWS\V7.0A\INCLUDE\WINERROR.H
C:\PROGRAM FILES (X86)\MICROSOFT SDKS\WINDOWS\V7.0A\INCLUDE\WINGDI.H
C:\PROGRAM FILES (X86)\MICROSOFT SDKS\WINDOWS\V7.0A\INCLUDE\PSHPACK1.H
C:\PROGRAM FILES (X86)\MICROSOFT SDKS\WINDOWS\V7.0A\INCLUDE\WINUSER.H
C:\PROGRAM FILES (X86)\MICROSOFT SDKS\WINDOWS\V7.0A\INCLUDE\TVOUT.H
C:\PROGRAM FILES (X86)\MICROSOFT SDKS\WINDOWS\V7.0A\INCLUDE\WINNLS.H
C:\PROGRAM FILES (X86)\MICROSOFT SDKS\WINDOWS\V7.0A\INCLUDE\WINCON.H
C:\PROGRAM FILES (X86)\MICROSOFT SDKS\WINDOWS\V7.0A\INCLUDE\WINVER.H
C:\PROGRAM FILES (X86)\MICROSOFT SDKS\WINDOWS\V7.0A\INCLUDE\VERRSRC.H
C:\PROGRAM FILES (X86)\MICROSOFT SDKS\WINDOWS\V7.0A\INCLUDE\WINREG.H
C:\PROGRAM FILES (X86)\MICROSOFT SDKS\WINDOWS\V7.0A\INCLUDE\REASON.H
C:\PROGRAM FILES (X86)\MICROSOFT SDKS\WINDOWS\V7.0A\INCLUDE\WINNETWK.H
C:\PROGRAM FILES (X86)\MICROSOFT SDKS\WINDOWS\V7.0A\INCLUDE\WNNC.H
C:\PROGRAM FILES (X86)\MICROSOFT SDKS\WINDOWS\V7.0A\INCLUDE\STRALIGN.H
C:\PROGRAM FILES (X86)\MICROSOFT SDKS\WINDOWS\V7.0A\INCLUDE\WINSVC.H
C:\PROGRAM FILES (X86)\MICROSOFT SDKS\WINDOWS\V7.0A\INCLUDE\MCX.H
C:\PROGRAM FILES (X86)\MICROSOFT SDKS\WINDOWS\V7.0A\INCLUDE\IMM.H
C:\PROGRAM FILES (X86)\MICROSOFT SDKS\WINDOWS\V7.0A\INCLUDE\IME_CMODES.H
C:\PROGRAM FILES (X86)\MICROSOFT SDKS\WINDOWS\V7.0A\INCLUDE\WINSOCK2.H
C:\PROGRAM FILES (X86)\MICROSOFT SDKS\WINDOWS\V7.0A\INCLUDE\WS2DEF.H
C:\PROGRAM FILES (X86)\MICROSOFT SDKS\WINDOWS\V7.0A\INCLUDE\INADDR.H
C:\PROGRAM FILES (X86)\MICROSOFT SDKS\WINDOWS\V7.0A\INCLUDE\QOS.H
C:\PROGRAM FILES (X86)\MICROSOFT VISUAL STUDIO 10.0\VC\INCLUDE\PROCESS.H
Z:\DEVEL\REALITY\LIBS\PYTHON\W32\MODULES\_MULTIPROCESSING\CONNECTION.H
^Z:\DEVEL\REALITY\LIBS\PYTHON\W32\MODULES\_MULTIPROCESSING\WIN32_FUNCTIONS.C
Z:\DEVEL\REALITY\LIBS\PYTHON\W32\MODULES\_MULTIPROCESSING\MULTIPROCESSING.H
Z:\DEVEL\REALITY\LIBS\PYTHON\W32\INCLUDE\PYTHON.H
Z:\DEVEL\REALITY\LIBS\PYTHON\W32\INCLUDE\PATCHLEVEL.H
Z:\DEVEL\REALITY\LIBS\PYTHON\W32\PC\PYCONFIG.H
C:\PROGRAM FILES (X86)\MICROSOFT VISUAL STUDIO 10.0\VC\INCLUDE\IO.H
C:\PROGRAM FILES (X86)\MICROSOFT VISUAL STUDIO 10.0\VC\INCLUDE\CRTDEFS.H
C:\PROGRAM FILES (X86)\MICROSOFT VISUAL STUDIO 10.0\VC\INCLUDE\SAL.H
C:\PROGRAM FILES (X86)\MICROSOFT VISUAL STUDIO 10.0\VC\INCLUDE\CODEANALYSIS\SOURCEANNOTATIONS.H
C:\PROGRAM FILES (X86)\MICROSOFT VISUAL STUDIO 10.0\VC\INCLUDE\VADEFS.H
C:\PROGRAM FILES (X86)\MICROSOFT VISUAL STUDIO 10.0\VC\INCLUDE\FLOAT.H
C:\PROGRAM FILES (X86)\MICROSOFT VISUAL STUDIO 10.0\VC\INCLUDE\CRTWRN.H
C:\PROGRAM FILES (X86)\MICROSOFT SDKS\WINDOWS\V7.0A\INCLUDE\BASETSD.H
C:\PROGRAM FILES (X86)\MICROSOFT VISUAL STUDIO 10.0\VC\INCLUDE\STDIO.H
C:\PROGRAM FILES (X86)\MICROSOFT VISUAL STUDIO 10.0\VC\INCLUDE\SWPRINTF.INL
Z:\DEVEL\REALITY\LIBS\PYTHON\W32\INCLUDE\PYMACCONFIG.H
C:\PROGRAM FILES (X86)\MICROSOFT VISUAL STUDIO 10.0\VC\INCLUDE\LIMITS.H
C:\PROGRAM FILES (X86)\MICROSOFT VISUAL STUDIO 10.0\VC\INCLUDE\STRING.H
C:\PROGRAM FILES (X86)\MICROSOFT VISUAL STUDIO 10.0\VC\INCLUDE\ERRNO.H
C:\PROGRAM FILES (X86)\MICROSOFT VISUAL STUDIO 10.0\VC\INCLUDE\STDLIB.H
C:\PROGRAM FILES (X86)\MICROSOFT VISUAL STUDIO 10.0\VC\INCLUDE\STDDEF.H
C:\PROGRAM FILES (X86)\MICROSOFT VISUAL STUDIO 10.0\VC\INCLUDE\ASSERT.H
Z:\DEVEL\REALITY\LIBS\PYTHON\W32\INCLUDE\PYPORT.H
C:\PROGRAM FILES (X86)\MICROSOFT VISUAL STUDIO 10.0\VC\INCLUDE\MATH.H
C:\PROGRAM FILES (X86)\MICROSOFT VISUAL STUDIO 10.0\VC\INCLUDE\TIME.H
C:\PROGRAM FILES (X86)\MICROSOFT VISUAL STUDIO 10.0\VC\INCLUDE\WTIME.INL
C:\PROGRAM FILES (X86)\MICROSOFT VISUAL STUDIO 10.0\VC\INCLUDE\TIME.INL
C:\PROGRAM FILES (X86)\MICROSOFT VISUAL STUDIO 10.0\VC\INCLUDE\SYS\STAT.H
C:\PROGRAM FILES (X86)\MICROSOFT VISUAL STUDIO 10.0\VC\INCLUDE\SYS\TYPES.H
C:\PROGRAM FILES (X86)\MICROSOFT VISUAL STUDIO 10.0\VC\INCLUDE\SYS\STAT.INL
Z:\DEVEL\REALITY\LIBS\PYTHON\W32\INCLUDE\PYMATH.H
Z:\DEVEL\REALITY\LIBS\PYTHON\W32\INCLUDE\PYMEM.H
Z:\DEVEL\REALITY\LIBS\PYTHON\W32\INCLUDE\OBJECT.H
Z:\DEVEL\REALITY\LIBS\PYTHON\W32\INCLUDE\OBJIMPL.H
Z:\DEVEL\REALITY\LIBS\PYTHON\W32\INCLUDE\PYDEBUG.H
Z:\DEVEL\REALITY\LIBS\PYTHON\W32\INCLUDE\UNICODEOBJECT.H
C:\PROGRAM FILES (X86)\MICROSOFT VISUAL STUDIO 10.0\VC\INCLUDE\STDARG.H
C:\PROGRAM FILES (X86)\MICROSOFT VISUAL STUDIO 10.0\VC\INCLUDE\CTYPE.H
C:\PROGRAM FILES (X86)\MICROSOFT VISUAL STUDIO 10.0\VC\INCLUDE\WCHAR.H
Z:\DEVEL\REALITY\LIBS\PYTHON\W32\INCLUDE\INTOBJECT.H
Z:\DEVEL\REALITY\LIBS\PYTHON\W32\INCLUDE\BOOLOBJECT.H
Z:\DEVEL\REALITY\LIBS\PYTHON\W32\INCLUDE\LONGOBJECT.H
Z:\DEVEL\REALITY\LIBS\PYTHON\W32\INCLUDE\FLOATOBJECT.H
Z:\DEVEL\REALITY\LIBS\PYTHON\W32\INCLUDE\COMPLEXOBJECT.H
Z:\DEVEL\REALITY\LIBS\PYTHON\W32\INCLUDE\RANGEOBJECT.H
Z:\DEVEL\REALITY\LIBS\PYTHON\W32\INCLUDE\STRINGOBJECT.H
Z:\DEVEL\REALITY\LIBS\PYTHON\W32\INCLUDE\MEMORYOBJECT.H
Z:\DEVEL\REALITY\LIBS\PYTHON\W32\INCLUDE\BUFFEROBJECT.H
Z:\DEVEL\REALITY\LIBS\PYTHON\W32\INCLUDE\BYTESOBJECT.H
Z:\DEVEL\REALITY\LIBS\PYTHON\W32\INCLUDE\BYTEARRAYOBJECT.H
Z:\DEVEL\REALITY\LIBS\PYTHON\W32\INCLUDE\TUPLEOBJECT.H
Z:\DEVEL\REALITY\LIBS\PYTHON\W32\INCLUDE\LISTOBJECT.H
Z:\DEVEL\REALITY\LIBS\PYTHON\W32\INCLUDE\DICTOBJECT.H
Z:\DEVEL\REALITY\LIBS\PYTHON\W32\INCLUDE\ENUMOBJECT.H
Z:\DEVEL\REALITY\LIBS\PYTHON\W32\INCLUDE\SETOBJECT.H
Z:\DEVEL\REALITY\LIBS\PYTHON\W32\INCLUDE\METHODOBJECT.H
Z:\DEVEL\REALITY\LIBS\PYTHON\W32\INCLUDE\MODULEOBJECT.H
Z:\DEVEL\REALITY\LIBS\PYTHON\W32\INCLUDE\FUNCOBJECT.H
Z:\DEVEL\REALITY\LIBS\PYTHON\W32\INCLUDE\CLASSOBJECT.H
Z:\DEVEL\REALITY\LIBS\PYTHON\W32\INCLUDE\FILEOBJECT.H
Z:\DEVEL\REALITY\LIBS\PYTHON\W32\INCLUDE\COBJECT.H
Z:\DEVEL\REALITY\LIBS\PYTHON\W32\INCLUDE\PYCAPSULE.H
Z:\DEVEL\REALITY\LIBS\PYTHON\W32\INCLUDE\TRACEBACK.H
Z:\DEVEL\REALITY\LIBS\PYTHON\W32\INCLUDE\SLICEOBJECT.H
Z:\DEVEL\REALITY\LIBS\PYTHON\W32\INCLUDE\CELLOBJECT.H
Z:\DEVEL\REALITY\LIBS\PYTHON\W32\INCLUDE\ITEROBJECT.H
Z:\DEVEL\REALITY\LIBS\PYTHON\W32\INCLUDE\GENOBJECT.H
Z:\DEVEL\REALITY\LIBS\PYTHON\W32\INCLUDE\DESCROBJECT.H
Z:\DEVEL\REALITY\LIBS\PYTHON\W32\INCLUDE\WARNINGS.H
Z:\DEVEL\REALITY\LIBS\PYTHON\W32\INCLUDE\WEAKREFOBJECT.H
Z:\DEVEL\REALITY\LIBS\PYTHON\W32\INCLUDE\CODECS.H
Z:\DEVEL\REALITY\LIBS\PYTHON\W32\INCLUDE\PYERRORS.H
Z:\DEVEL\REALITY\LIBS\PYTHON\W32\INCLUDE\PYSTATE.H
Z:\DEVEL\REALITY\LIBS\PYTHON\W32\INCLUDE\PYARENA.H
Z:\DEVEL\REALITY\LIBS\PYTHON\W32\INCLUDE\MODSUPPORT.H
Z:\DEVEL\REALITY\LIBS\PYTHON\W32\INCLUDE\PYTHONRUN.H
Z:\DEVEL\REALITY\LIBS\PYTHON\W32\INCLUDE\CEVAL.H
Z:\DEVEL\REALITY\LIBS\PYTHON\W32\INCLUDE\SYSMODULE.H
Z:\DEVEL\REALITY\LIBS\PYTHON\W32\INCLUDE\INTRCHECK.H
Z:\DEVEL\REALITY\LIBS\PYTHON\W32\INCLUDE\IMPORT.H
Z:\DEVEL\REALITY\LIBS\PYTHON\W32\INCLUDE\ABSTRACT.H
Z:\DEVEL\REALITY\LIBS\PYTHON\W32\INCLUDE\COMPILE.H
Z:\DEVEL\REALITY\LIBS\PYTHON\W32\INCLUDE\CODE.H
Z:\DEVEL\REALITY\LIBS\PYTHON\W32\INCLUDE\EVAL.H
Z:\DEVEL\REALITY\LIBS\PYTHON\W32\INCLUDE\PYCTYPE.H
Z:\DEVEL\REALITY\LIBS\PYTHON\W32\INCLUDE\PYSTRTOD.H
Z:\DEVEL\REALITY\LIBS\PYTHON\W32\INCLUDE\PYSTRCMP.H
Z:\DEVEL\REALITY\LIBS\PYTHON\W32\INCLUDE\DTOA.H
Z:\DEVEL\REALITY\LIBS\PYTHON\W32\INCLUDE\PYFPE.H
Z:\DEVEL\REALITY\LIBS\PYTHON\W32\INCLUDE\STRUCTMEMBER.H
Z:\DEVEL\REALITY\LIBS\PYTHON\W32\INCLUDE\PYTHREAD.H
C:\PROGRAM FILES (X86)\MICROSOFT SDKS\WINDOWS\V7.0A\INCLUDE\WINDOWS.H
C:\PROGRAM FILES (X86)\MICROSOFT SDKS\WINDOWS\V7.0A\INCLUDE\SDKDDKVER.H
C:\PROGRAM FILES (X86)\MICROSOFT VISUAL STUDIO 10.0\VC\INCLUDE\EXCPT.H
C:\PROGRAM FILES (X86)\MICROSOFT SDKS\WINDOWS\V7.0A\INCLUDE\WINDEF.H
C:\PROGRAM FILES (X86)\MICROSOFT SDKS\WINDOWS\V7.0A\INCLUDE\WINNT.H
C:\PROGRAM FILES (X86)\MICROSOFT SDKS\WINDOWS\V7.0A\INCLUDE\SPECSTRINGS.H
C:\PROGRAM FILES (X86)\MICROSOFT SDKS\WINDOWS\V7.0A\INCLUDE\SAL_SUPP.H
C:\PROGRAM FILES (X86)\MICROSOFT SDKS\WINDOWS\V7.0A\INCLUDE\SPECSTRINGS_SUPP.H
C:\PROGRAM FILES (X86)\MICROSOFT SDKS\WINDOWS\V7.0A\INCLUDE\SPECSTRINGS_STRICT.H
C:\PROGRAM FILES (X86)\MICROSOFT SDKS\WINDOWS\V7.0A\INCLUDE\SPECSTRINGS_UNDEF.H
C:\PROGRAM FILES (X86)\MICROSOFT SDKS\WINDOWS\V7.0A\INCLUDE\DRIVERSPECS.H
C:\PROGRAM FILES (X86)\MICROSOFT SDKS\WINDOWS\V7.0A\INCLUDE\SDV_DRIVERSPECS.H
C:\PROGRAM FILES (X86)\MICROSOFT SDKS\WINDOWS\V7.0A\INCLUDE\KERNELSPECS.H
C:\PROGRAM FILES (X86)\MICROSOFT SDKS\WINDOWS\V7.0A\INCLUDE\GUIDDEF.H
C:\PROGRAM FILES (X86)\MICROSOFT SDKS\WINDOWS\V7.0A\INCLUDE\PSHPACK4.H
C:\PROGRAM FILES (X86)\MICROSOFT SDKS\WINDOWS\V7.0A\INCLUDE\POPPACK.H
C:\PROGRAM FILES (X86)\MICROSOFT SDKS\WINDOWS\V7.0A\INCLUDE\PSHPACK2.H
C:\PROGRAM FILES (X86)\MICROSOFT SDKS\WINDOWS\V7.0A\INCLUDE\PSHPACK8.H
C:\PROGRAM FILES (X86)\MICROSOFT SDKS\WINDOWS\V7.0A\INCLUDE\KTMTYPES.H
C:\PROGRAM FILES (X86)\MICROSOFT SDKS\WINDOWS\V7.0A\INCLUDE\WINBASE.H
C:\PROGRAM FILES (X86)\MICROSOFT SDKS\WINDOWS\V7.0A\INCLUDE\WINERROR.H
C:\PROGRAM FILES (X86)\MICROSOFT SDKS\WINDOWS\V7.0A\INCLUDE\WINGDI.H
C:\PROGRAM FILES (X86)\MICROSOFT SDKS\WINDOWS\V7.0A\INCLUDE\PSHPACK1.H
C:\PROGRAM FILES (X86)\MICROSOFT SDKS\WINDOWS\V7.0A\INCLUDE\WINUSER.H
C:\PROGRAM FILES (X86)\MICROSOFT SDKS\WINDOWS\V7.0A\INCLUDE\TVOUT.H
C:\PROGRAM FILES (X86)\MICROSOFT SDKS\WINDOWS\V7.0A\INCLUDE\WINNLS.H
C:\PROGRAM FILES (X86)\MICROSOFT SDKS\WINDOWS\V7.0A\INCLUDE\WINCON.H
C:\PROGRAM FILES (X86)\MICROSOFT SDKS\WINDOWS\V7.0A\INCLUDE\WINVER.H
C:\PROGRAM FILES (X86)\MICROSOFT SDKS\WINDOWS\V7.0A\INCLUDE\VERRSRC.H
C:\PROGRAM FILES (X86)\MICROSOFT SDKS\WINDOWS\V7.0A\INCLUDE\WINREG.H
C:\PROGRAM FILES (X86)\MICROSOFT SDKS\WINDOWS\V7.0A\INCLUDE\REASON.H
C:\PROGRAM FILES (X86)\MICROSOFT SDKS\WINDOWS\V7.0A\INCLUDE\WINNETWK.H
C:\PROGRAM FILES (X86)\MICROSOFT SDKS\WINDOWS\V7.0A\INCLUDE\WNNC.H
C:\PROGRAM FILES (X86)\MICROSOFT SDKS\WINDOWS\V7.0A\INCLUDE\STRALIGN.H
C:\PROGRAM FILES (X86)\MICROSOFT SDKS\WINDOWS\V7.0A\INCLUDE\WINSVC.H
C:\PROGRAM FILES (X86)\MICROSOFT SDKS\WINDOWS\V7.0A\INCLUDE\MCX.H
C:\PROGRAM FILES (X86)\MICROSOFT SDKS\WINDOWS\V7.0A\INCLUDE\IMM.H
C:\PROGRAM FILES (X86)\MICROSOFT SDKS\WINDOWS\V7.0A\INCLUDE\IME_CMODES.H
C:\PROGRAM FILES (X86)\MICROSOFT SDKS\WINDOWS\V7.0A\INCLUDE\WINSOCK2.H
C:\PROGRAM FILES (X86)\MICROSOFT SDKS\WINDOWS\V7.0A\INCLUDE\WS2DEF.H
C:\PROGRAM FILES (X86)\MICROSOFT SDKS\WINDOWS\V7.0A\INCLUDE\INADDR.H
C:\PROGRAM FILES (X86)\MICROSOFT SDKS\WINDOWS\V7.0A\INCLUDE\QOS.H
C:\PROGRAM FILES (X86)\MICROSOFT VISUAL STUDIO 10.0\VC\INCLUDE\PROCESS.H
