^Z:\DEVEL\REALITY\LIBS\PYTHON\W32\PCBUILD\PYTHON27.LIB|Z:\DEVEL\REALITY\LIBS\PYTHON\W32\PCBUILD\WIN32-TEMP-RELEASE\_MULTIPROCESSING\MULTIPROCESSING.OBJ|Z:\DEVEL\REALITY\LIBS\PYTHON\W32\PCBUILD\WIN32-TEMP-RELEASE\_MULTIPROCESSING\PIPE_CONNECTION.OBJ|Z:\DEVEL\REALITY\LIBS\PYTHON\W32\PCBUILD\WIN32-TEMP-RELEASE\_MULTIPROCESSING\SEMAPHORE.OBJ|Z:\DEVEL\REALITY\LIBS\PYTHON\W32\PCBUILD\WIN32-TEMP-RELEASE\_MULTIPROCESSING\SOCKET_CONNECTION.OBJ|Z:\DEVEL\REALITY\LIBS\PYTHON\W32\PCBUILD\WIN32-TEMP-RELEASE\_MULTIPROCESSING\WIN32_FUNCTIONS.OBJ
/ERRORREPORT:PROMPT /OUT:"Z:\devel\Reality\libs\python\w32\PCbuild\\_multiprocessing.pyd" /INCREMENTAL:NO /NOLOGO /LIBPATH:Z:\devel\Reality\libs\python\w32\PCbuild\\ ws2_32.lib kernel32.lib user32.lib gdi32.lib winspool.lib comdlg32.lib advapi32.lib shell32.lib ole32.lib oleaut32.lib uuid.lib odbc32.lib odbccp32.lib /MANIFEST:NO /DEBUG /PDB:"Z:\devel\Reality\libs\python\w32\PCbuild\\_multiprocessing.pdb" /SUBSYSTEM:WINDOWS /LTCG /TLBID:1 /BASE:"0x1e1D0000" /DYNAMICBASE:NO /IMPLIB:"Z:\devel\Reality\libs\python\w32\PCbuild\\_multiprocessing.lib" /MACHINE:X86 /DLL "Z:\devel\Reality\libs\python\w32\PCbuild\Win32-temp-Release\_multiprocessing\multiprocessing.obj"
"Z:\devel\Reality\libs\python\w32\PCbuild\Win32-temp-Release\_multiprocessing\pipe_connection.obj"
"Z:\devel\Reality\libs\python\w32\PCbuild\Win32-temp-Release\_multiprocessing\semaphore.obj"
"Z:\devel\Reality\libs\python\w32\PCbuild\Win32-temp-Release\_multiprocessing\socket_connection.obj"
"Z:\devel\Reality\libs\python\w32\PCbuild\Win32-temp-Release\_multiprocessing\win32_functions.obj"
Z:\devel\Reality\libs\python\w32\PCbuild\python27.lib
