# Curved Meshlight
# Copyright (c) 2011 Pret-a-3D.

v 0.239034 0.416517 -0.000483924
v -0.239034 0.416517 -0.000483924
v 0.239034 0.00641158 -0.000483924
v -0.239034 0.00641158 -0.000483924
v 0 0.00641158 0
v 0 0.416517 0
v 0.583767 0.416517 -0.227369
v -0.583767 0.416517 -0.227369
v 0.583767 0.00641158 -0.227369
v -0.583767 0.00641158 -0.227369
vt 0 0
vt 0 0
vt 0 0
vt 0 0
vt 0 0
vt 0 0
vt 0 0
vt 0 0
vt 0 0
vt 0 0
g parabolicLight
usemtl RealityLight
f 1/1 3/3 5/5 6/6
f 5/5 4/4 2/2 6/6
f 1/1 7/7 9/9 3/3
f 10/10 8/8 2/2 4/4
